{"vbf_EE_M85":["/eos/user/s/staj/HiggsDNA/vbf_EE_M85/vbfh_5f_NLO_85_16320551_100.root",
"/eos/user/s/staj/HiggsDNA/vbf_EE_M85/vbfh_5f_NLO_85_16320551_101.root",
"/eos/user/s/staj/HiggsDNA/vbf_EE_M85/vbfh_5f_NLO_85_16320551_102.root",
"/eos/user/s/staj/HiggsDNA/vbf_EE_M85/vbfh_5f_NLO_85_16320551_104.root",
"/eos/user/s/staj/HiggsDNA/vbf_EE_M85/vbfh_5f_NLO_85_16320551_105.root",
"/eos/user/s/staj/HiggsDNA/vbf_EE_M85/vbfh_5f_NLO_85_16320551_106.root",
"/eos/user/s/staj/HiggsDNA/vbf_EE_M85/vbfh_5f_NLO_85_16320551_108.root",
"/eos/user/s/staj/HiggsDNA/vbf_EE_M85/vbfh_5f_NLO_85_16320551_109.root",
"/eos/user/s/staj/HiggsDNA/vbf_EE_M85/vbfh_5f_NLO_85_16320551_11.root",
"/eos/user/s/staj/HiggsDNA/vbf_EE_M85/vbfh_5f_NLO_85_16320551_110.root",
"/eos/user/s/staj/HiggsDNA/vbf_EE_M85/vbfh_5f_NLO_85_16320551_111.root",
"/eos/user/s/staj/HiggsDNA/vbf_EE_M85/vbfh_5f_NLO_85_16320551_113.root",
"/eos/user/s/staj/HiggsDNA/vbf_EE_M85/vbfh_5f_NLO_85_16320551_114.root",
"/eos/user/s/staj/HiggsDNA/vbf_EE_M85/vbfh_5f_NLO_85_16320551_115.root",
"/eos/user/s/staj/HiggsDNA/vbf_EE_M85/vbfh_5f_NLO_85_16320551_117.root",
"/eos/user/s/staj/HiggsDNA/vbf_EE_M85/vbfh_5f_NLO_85_16320551_119.root",
"/eos/user/s/staj/HiggsDNA/vbf_EE_M85/vbfh_5f_NLO_85_16320551_12.root",
"/eos/user/s/staj/HiggsDNA/vbf_EE_M85/vbfh_5f_NLO_85_16320551_120.root",
"/eos/user/s/staj/HiggsDNA/vbf_EE_M85/vbfh_5f_NLO_85_16320551_121.root",
"/eos/user/s/staj/HiggsDNA/vbf_EE_M85/vbfh_5f_NLO_85_16320551_122.root",
"/eos/user/s/staj/HiggsDNA/vbf_EE_M85/vbfh_5f_NLO_85_16320551_123.root",
"/eos/user/s/staj/HiggsDNA/vbf_EE_M85/vbfh_5f_NLO_85_16320551_124.root",
"/eos/user/s/staj/HiggsDNA/vbf_EE_M85/vbfh_5f_NLO_85_16320551_125.root",
"/eos/user/s/staj/HiggsDNA/vbf_EE_M85/vbfh_5f_NLO_85_16320551_128.root",
"/eos/user/s/staj/HiggsDNA/vbf_EE_M85/vbfh_5f_NLO_85_16320551_130.root",
"/eos/user/s/staj/HiggsDNA/vbf_EE_M85/vbfh_5f_NLO_85_16320551_132.root",
"/eos/user/s/staj/HiggsDNA/vbf_EE_M85/vbfh_5f_NLO_85_16320551_133.root",
"/eos/user/s/staj/HiggsDNA/vbf_EE_M85/vbfh_5f_NLO_85_16320551_134.root",
"/eos/user/s/staj/HiggsDNA/vbf_EE_M85/vbfh_5f_NLO_85_16320551_135.root",
"/eos/user/s/staj/HiggsDNA/vbf_EE_M85/vbfh_5f_NLO_85_16320551_137.root",
"/eos/user/s/staj/HiggsDNA/vbf_EE_M85/vbfh_5f_NLO_85_16320551_141.root",
"/eos/user/s/staj/HiggsDNA/vbf_EE_M85/vbfh_5f_NLO_85_16320551_146.root",
"/eos/user/s/staj/HiggsDNA/vbf_EE_M85/vbfh_5f_NLO_85_16320551_148.root",
"/eos/user/s/staj/HiggsDNA/vbf_EE_M85/vbfh_5f_NLO_85_16320551_149.root",
"/eos/user/s/staj/HiggsDNA/vbf_EE_M85/vbfh_5f_NLO_85_16320551_15.root",
"/eos/user/s/staj/HiggsDNA/vbf_EE_M85/vbfh_5f_NLO_85_16320551_150.root",
"/eos/user/s/staj/HiggsDNA/vbf_EE_M85/vbfh_5f_NLO_85_16320551_151.root",
"/eos/user/s/staj/HiggsDNA/vbf_EE_M85/vbfh_5f_NLO_85_16320551_152.root",
"/eos/user/s/staj/HiggsDNA/vbf_EE_M85/vbfh_5f_NLO_85_16320551_153.root",
"/eos/user/s/staj/HiggsDNA/vbf_EE_M85/vbfh_5f_NLO_85_16320551_156.root",
"/eos/user/s/staj/HiggsDNA/vbf_EE_M85/vbfh_5f_NLO_85_16320551_157.root",
"/eos/user/s/staj/HiggsDNA/vbf_EE_M85/vbfh_5f_NLO_85_16320551_159.root",
"/eos/user/s/staj/HiggsDNA/vbf_EE_M85/vbfh_5f_NLO_85_16320551_16.root",
"/eos/user/s/staj/HiggsDNA/vbf_EE_M85/vbfh_5f_NLO_85_16320551_160.root",
"/eos/user/s/staj/HiggsDNA/vbf_EE_M85/vbfh_5f_NLO_85_16320551_161.root",
"/eos/user/s/staj/HiggsDNA/vbf_EE_M85/vbfh_5f_NLO_85_16320551_162.root",
"/eos/user/s/staj/HiggsDNA/vbf_EE_M85/vbfh_5f_NLO_85_16320551_165.root",
"/eos/user/s/staj/HiggsDNA/vbf_EE_M85/vbfh_5f_NLO_85_16320551_166.root",
"/eos/user/s/staj/HiggsDNA/vbf_EE_M85/vbfh_5f_NLO_85_16320551_167.root",
"/eos/user/s/staj/HiggsDNA/vbf_EE_M85/vbfh_5f_NLO_85_16320551_169.root",
"/eos/user/s/staj/HiggsDNA/vbf_EE_M85/vbfh_5f_NLO_85_16320551_172.root",
"/eos/user/s/staj/HiggsDNA/vbf_EE_M85/vbfh_5f_NLO_85_16320551_174.root",
"/eos/user/s/staj/HiggsDNA/vbf_EE_M85/vbfh_5f_NLO_85_16320551_176.root",
"/eos/user/s/staj/HiggsDNA/vbf_EE_M85/vbfh_5f_NLO_85_16320551_177.root",
"/eos/user/s/staj/HiggsDNA/vbf_EE_M85/vbfh_5f_NLO_85_16320551_178.root",
"/eos/user/s/staj/HiggsDNA/vbf_EE_M85/vbfh_5f_NLO_85_16320551_179.root",
"/eos/user/s/staj/HiggsDNA/vbf_EE_M85/vbfh_5f_NLO_85_16320551_18.root",
"/eos/user/s/staj/HiggsDNA/vbf_EE_M85/vbfh_5f_NLO_85_16320551_181.root",
"/eos/user/s/staj/HiggsDNA/vbf_EE_M85/vbfh_5f_NLO_85_16320551_182.root",
"/eos/user/s/staj/HiggsDNA/vbf_EE_M85/vbfh_5f_NLO_85_16320551_183.root",
"/eos/user/s/staj/HiggsDNA/vbf_EE_M85/vbfh_5f_NLO_85_16320551_184.root",
"/eos/user/s/staj/HiggsDNA/vbf_EE_M85/vbfh_5f_NLO_85_16320551_186.root",
"/eos/user/s/staj/HiggsDNA/vbf_EE_M85/vbfh_5f_NLO_85_16320551_187.root",
"/eos/user/s/staj/HiggsDNA/vbf_EE_M85/vbfh_5f_NLO_85_16320551_188.root",
"/eos/user/s/staj/HiggsDNA/vbf_EE_M85/vbfh_5f_NLO_85_16320551_190.root",
"/eos/user/s/staj/HiggsDNA/vbf_EE_M85/vbfh_5f_NLO_85_16320551_191.root",
"/eos/user/s/staj/HiggsDNA/vbf_EE_M85/vbfh_5f_NLO_85_16320551_192.root",
"/eos/user/s/staj/HiggsDNA/vbf_EE_M85/vbfh_5f_NLO_85_16320551_193.root",
"/eos/user/s/staj/HiggsDNA/vbf_EE_M85/vbfh_5f_NLO_85_16320551_194.root",
"/eos/user/s/staj/HiggsDNA/vbf_EE_M85/vbfh_5f_NLO_85_16320551_195.root",
"/eos/user/s/staj/HiggsDNA/vbf_EE_M85/vbfh_5f_NLO_85_16320551_197.root",
"/eos/user/s/staj/HiggsDNA/vbf_EE_M85/vbfh_5f_NLO_85_16320551_198.root",
"/eos/user/s/staj/HiggsDNA/vbf_EE_M85/vbfh_5f_NLO_85_16320551_199.root",
"/eos/user/s/staj/HiggsDNA/vbf_EE_M85/vbfh_5f_NLO_85_16320551_20.root",
"/eos/user/s/staj/HiggsDNA/vbf_EE_M85/vbfh_5f_NLO_85_16320551_200.root",
"/eos/user/s/staj/HiggsDNA/vbf_EE_M85/vbfh_5f_NLO_85_16320551_202.root",
"/eos/user/s/staj/HiggsDNA/vbf_EE_M85/vbfh_5f_NLO_85_16320551_204.root",
"/eos/user/s/staj/HiggsDNA/vbf_EE_M85/vbfh_5f_NLO_85_16320551_205.root",
"/eos/user/s/staj/HiggsDNA/vbf_EE_M85/vbfh_5f_NLO_85_16320551_206.root",
"/eos/user/s/staj/HiggsDNA/vbf_EE_M85/vbfh_5f_NLO_85_16320551_207.root",
"/eos/user/s/staj/HiggsDNA/vbf_EE_M85/vbfh_5f_NLO_85_16320551_209.root",
"/eos/user/s/staj/HiggsDNA/vbf_EE_M85/vbfh_5f_NLO_85_16320551_210.root",
"/eos/user/s/staj/HiggsDNA/vbf_EE_M85/vbfh_5f_NLO_85_16320551_212.root",
"/eos/user/s/staj/HiggsDNA/vbf_EE_M85/vbfh_5f_NLO_85_16320551_213.root",
"/eos/user/s/staj/HiggsDNA/vbf_EE_M85/vbfh_5f_NLO_85_16320551_214.root",
"/eos/user/s/staj/HiggsDNA/vbf_EE_M85/vbfh_5f_NLO_85_16320551_215.root",
"/eos/user/s/staj/HiggsDNA/vbf_EE_M85/vbfh_5f_NLO_85_16320551_218.root",
"/eos/user/s/staj/HiggsDNA/vbf_EE_M85/vbfh_5f_NLO_85_16320551_219.root",
"/eos/user/s/staj/HiggsDNA/vbf_EE_M85/vbfh_5f_NLO_85_16320551_24.root",
"/eos/user/s/staj/HiggsDNA/vbf_EE_M85/vbfh_5f_NLO_85_16320551_25.root",
"/eos/user/s/staj/HiggsDNA/vbf_EE_M85/vbfh_5f_NLO_85_16320551_26.root",
"/eos/user/s/staj/HiggsDNA/vbf_EE_M85/vbfh_5f_NLO_85_16320551_27.root",
"/eos/user/s/staj/HiggsDNA/vbf_EE_M85/vbfh_5f_NLO_85_16320551_29.root",
"/eos/user/s/staj/HiggsDNA/vbf_EE_M85/vbfh_5f_NLO_85_16320551_3.root",
"/eos/user/s/staj/HiggsDNA/vbf_EE_M85/vbfh_5f_NLO_85_16320551_30.root",
"/eos/user/s/staj/HiggsDNA/vbf_EE_M85/vbfh_5f_NLO_85_16320551_33.root",
"/eos/user/s/staj/HiggsDNA/vbf_EE_M85/vbfh_5f_NLO_85_16320551_35.root",
"/eos/user/s/staj/HiggsDNA/vbf_EE_M85/vbfh_5f_NLO_85_16320551_38.root",
"/eos/user/s/staj/HiggsDNA/vbf_EE_M85/vbfh_5f_NLO_85_16320551_39.root",
"/eos/user/s/staj/HiggsDNA/vbf_EE_M85/vbfh_5f_NLO_85_16320551_41.root",
"/eos/user/s/staj/HiggsDNA/vbf_EE_M85/vbfh_5f_NLO_85_16320551_43.root",
"/eos/user/s/staj/HiggsDNA/vbf_EE_M85/vbfh_5f_NLO_85_16320551_44.root",
"/eos/user/s/staj/HiggsDNA/vbf_EE_M85/vbfh_5f_NLO_85_16320551_45.root",
"/eos/user/s/staj/HiggsDNA/vbf_EE_M85/vbfh_5f_NLO_85_16320551_51.root",
"/eos/user/s/staj/HiggsDNA/vbf_EE_M85/vbfh_5f_NLO_85_16320551_52.root",
"/eos/user/s/staj/HiggsDNA/vbf_EE_M85/vbfh_5f_NLO_85_16320551_53.root",
"/eos/user/s/staj/HiggsDNA/vbf_EE_M85/vbfh_5f_NLO_85_16320551_54.root",
"/eos/user/s/staj/HiggsDNA/vbf_EE_M85/vbfh_5f_NLO_85_16320551_56.root",
"/eos/user/s/staj/HiggsDNA/vbf_EE_M85/vbfh_5f_NLO_85_16320551_57.root",
"/eos/user/s/staj/HiggsDNA/vbf_EE_M85/vbfh_5f_NLO_85_16320551_58.root",
"/eos/user/s/staj/HiggsDNA/vbf_EE_M85/vbfh_5f_NLO_85_16320551_60.root",
"/eos/user/s/staj/HiggsDNA/vbf_EE_M85/vbfh_5f_NLO_85_16320551_61.root",
"/eos/user/s/staj/HiggsDNA/vbf_EE_M85/vbfh_5f_NLO_85_16320551_62.root",
"/eos/user/s/staj/HiggsDNA/vbf_EE_M85/vbfh_5f_NLO_85_16320551_68.root",
"/eos/user/s/staj/HiggsDNA/vbf_EE_M85/vbfh_5f_NLO_85_16320551_69.root",
"/eos/user/s/staj/HiggsDNA/vbf_EE_M85/vbfh_5f_NLO_85_16320551_73.root",
"/eos/user/s/staj/HiggsDNA/vbf_EE_M85/vbfh_5f_NLO_85_16320551_75.root",
"/eos/user/s/staj/HiggsDNA/vbf_EE_M85/vbfh_5f_NLO_85_16320551_76.root",
"/eos/user/s/staj/HiggsDNA/vbf_EE_M85/vbfh_5f_NLO_85_16320551_77.root",
"/eos/user/s/staj/HiggsDNA/vbf_EE_M85/vbfh_5f_NLO_85_16320551_78.root",
"/eos/user/s/staj/HiggsDNA/vbf_EE_M85/vbfh_5f_NLO_85_16320551_81.root",
"/eos/user/s/staj/HiggsDNA/vbf_EE_M85/vbfh_5f_NLO_85_16320551_88.root",
"/eos/user/s/staj/HiggsDNA/vbf_EE_M85/vbfh_5f_NLO_85_16320551_89.root",
"/eos/user/s/staj/HiggsDNA/vbf_EE_M85/vbfh_5f_NLO_85_16320551_9.root",
"/eos/user/s/staj/HiggsDNA/vbf_EE_M85/vbfh_5f_NLO_85_16320551_90.root",
"/eos/user/s/staj/HiggsDNA/vbf_EE_M85/vbfh_5f_NLO_85_16320551_91.root",
"/eos/user/s/staj/HiggsDNA/vbf_EE_M85/vbfh_5f_NLO_85_16320551_92.root",
"/eos/user/s/staj/HiggsDNA/vbf_EE_M85/vbfh_5f_NLO_85_16320551_93.root",
"/eos/user/s/staj/HiggsDNA/vbf_EE_M85/vbfh_5f_NLO_85_16320551_95.root",
"/eos/user/s/staj/HiggsDNA/vbf_EE_M85/vbfh_5f_NLO_85_16320551_96.root",
"/eos/user/s/staj/HiggsDNA/vbf_EE_M85/vbfh_5f_NLO_85_16320551_97.root"]}
