{
    "arch": "x86_64",
    "build": "he17ee6b_6",
    "build_number": 6,
    "build_string": "he17ee6b_6",
    "channel": "https://conda.anaconda.org/conda-forge/linux-64",
    "constrains": [],
    "depends": [
        "__glibc >=2.17,<3.0.a0",
        "aws-c-cal >=0.7.1,<0.7.2.0a0",
        "aws-c-common >=0.9.23,<0.9.24.0a0",
        "aws-c-compression >=0.2.18,<0.2.19.0a0",
        "aws-c-io >=0.14.10,<0.14.11.0a0",
        "libgcc-ng >=12"
    ],
    "extracted_package_dir": "/eos/home-s/staj/Higg\t/micromamba/pkgs/aws-c-http-0.8.2-he17ee6b_6",
    "files": [
        "bin/elasticurl",
        "include/aws/http/connection.h",
        "include/aws/http/connection_manager.h",
        "include/aws/http/exports.h",
        "include/aws/http/http.h",
        "include/aws/http/http2_stream_manager.h",
        "include/aws/http/proxy.h",
        "include/aws/http/request_response.h",
        "include/aws/http/server.h",
        "include/aws/http/statistics.h",
        "include/aws/http/status_code.h",
        "include/aws/http/websocket.h",
        "lib/aws-c-http/cmake/aws-c-http-config.cmake",
        "lib/aws-c-http/cmake/shared/aws-c-http-targets-release.cmake",
        "lib/aws-c-http/cmake/shared/aws-c-http-targets.cmake",
        "lib/libaws-c-http.so",
        "lib/libaws-c-http.so.1.0.0"
    ],
    "fn": "aws-c-http-0.8.2-he17ee6b_6.conda",
    "license": "Apache-2.0",
    "license_family": "Apache",
    "link": {
        "source": "/eos/home-s/staj/Higg\t/micromamba/pkgs/aws-c-http-0.8.2-he17ee6b_6",
        "type": 1
    },
    "md5": "4e3d1bb2ade85619ac2163e695c2cc1b",
    "name": "aws-c-http",
    "package_tarball_full_path": "/eos/home-s/staj/Higg\t/micromamba/pkgs/aws-c-http-0.8.2-he17ee6b_6.tar.bz2",
    "paths_data": {
        "paths": [
            {
                "_path": "bin/elasticurl",
                "path_type": "hardlink",
                "sha256": "405a79424515d842bb6e19adb7fb9e2d6df401468050812be30676c292ed90dd",
                "sha256_in_prefix": "405a79424515d842bb6e19adb7fb9e2d6df401468050812be30676c292ed90dd",
                "size_in_bytes": 37880
            },
            {
                "_path": "include/aws/http/connection.h",
                "path_type": "hardlink",
                "sha256": "84724c4b0aec2b12738bb8906a81b9d83435c02fd1bf190d02556d38a9312be8",
                "sha256_in_prefix": "84724c4b0aec2b12738bb8906a81b9d83435c02fd1bf190d02556d38a9312be8",
                "size_in_bytes": 26965
            },
            {
                "_path": "include/aws/http/connection_manager.h",
                "path_type": "hardlink",
                "sha256": "60055292e73c54c2a0f380fbd69c2a51d66f24b4bd4168c4c9f030b932cd9e21",
                "sha256_in_prefix": "60055292e73c54c2a0f380fbd69c2a51d66f24b4bd4168c4c9f030b932cd9e21",
                "size_in_bytes": 7051
            },
            {
                "_path": "include/aws/http/exports.h",
                "path_type": "hardlink",
                "sha256": "47c986ab739eaed1cd298654befbf1135b2478a1fa0346a66bfb6c4bc3d3b925",
                "sha256_in_prefix": "47c986ab739eaed1cd298654befbf1135b2478a1fa0346a66bfb6c4bc3d3b925",
                "size_in_bytes": 920
            },
            {
                "_path": "include/aws/http/http.h",
                "path_type": "hardlink",
                "sha256": "7901bce56ae8cf47250df1072610a225abad3b3e521c47592c5a0c9f74fd27f6",
                "sha256_in_prefix": "7901bce56ae8cf47250df1072610a225abad3b3e521c47592c5a0c9f74fd27f6",
                "size_in_bytes": 5561
            },
            {
                "_path": "include/aws/http/http2_stream_manager.h",
                "path_type": "hardlink",
                "sha256": "ab69f38b0dd208cc65e96dcba43b03bd12a9d91428fc6aa6aaef04d1d75cae7b",
                "sha256_in_prefix": "ab69f38b0dd208cc65e96dcba43b03bd12a9d91428fc6aa6aaef04d1d75cae7b",
                "size_in_bytes": 8114
            },
            {
                "_path": "include/aws/http/proxy.h",
                "path_type": "hardlink",
                "sha256": "27e7b44920a50d5dffd84261f9c2bb661c1fb8aed6df49955e761abb2fd2d0e1",
                "sha256_in_prefix": "27e7b44920a50d5dffd84261f9c2bb661c1fb8aed6df49955e761abb2fd2d0e1",
                "size_in_bytes": 20053
            },
            {
                "_path": "include/aws/http/request_response.h",
                "path_type": "hardlink",
                "sha256": "f8f42f361bb8f7d43e7edeaf4ac6f27addfc4d369d4d200ccb25025e320c5633",
                "sha256_in_prefix": "f8f42f361bb8f7d43e7edeaf4ac6f27addfc4d369d4d200ccb25025e320c5633",
                "size_in_bytes": 43694
            },
            {
                "_path": "include/aws/http/server.h",
                "path_type": "hardlink",
                "sha256": "6f07acfea6c4bac06d490827e96cae57bbac13bde8fb8c0042b56e76d3993d24",
                "sha256_in_prefix": "6f07acfea6c4bac06d490827e96cae57bbac13bde8fb8c0042b56e76d3993d24",
                "size_in_bytes": 6083
            },
            {
                "_path": "include/aws/http/statistics.h",
                "path_type": "hardlink",
                "sha256": "f2fb2d095a89be3c602d4138d2e2e77da9f6b305d267e59a85e41f0622ff4fcc",
                "sha256_in_prefix": "f2fb2d095a89be3c602d4138d2e2e77da9f6b305d267e59a85e41f0622ff4fcc",
                "size_in_bytes": 2138
            },
            {
                "_path": "include/aws/http/status_code.h",
                "path_type": "hardlink",
                "sha256": "efb121a296d11372c850f61c6c21255d0bf54e525276faf96400caaa4f6bf518",
                "sha256_in_prefix": "efb121a296d11372c850f61c6c21255d0bf54e525276faf96400caaa4f6bf518",
                "size_in_bytes": 3869
            },
            {
                "_path": "include/aws/http/websocket.h",
                "path_type": "hardlink",
                "sha256": "96e156f360e46742b4a45f8fde2bb987e073d5bdb379a4d1aa9877c090ba3e51",
                "sha256_in_prefix": "96e156f360e46742b4a45f8fde2bb987e073d5bdb379a4d1aa9877c090ba3e51",
                "size_in_bytes": 18358
            },
            {
                "_path": "lib/aws-c-http/cmake/aws-c-http-config.cmake",
                "path_type": "hardlink",
                "sha256": "a2cdcaca62d1ec898e2eb13e83aafbcc585f32d722eba5974072f7363c3637a2",
                "sha256_in_prefix": "a2cdcaca62d1ec898e2eb13e83aafbcc585f32d722eba5974072f7363c3637a2",
                "size_in_bytes": 600
            },
            {
                "_path": "lib/aws-c-http/cmake/shared/aws-c-http-targets-release.cmake",
                "path_type": "hardlink",
                "sha256": "5a81f5de6215065d10fbee7a7924cbe36a2ec4775685caa991404de7cfe6b61c",
                "sha256_in_prefix": "5a81f5de6215065d10fbee7a7924cbe36a2ec4775685caa991404de7cfe6b61c",
                "size_in_bytes": 871
            },
            {
                "_path": "lib/aws-c-http/cmake/shared/aws-c-http-targets.cmake",
                "path_type": "hardlink",
                "sha256": "7d9aaddb1cfe9de202f87f65f6e87d19aa578e1de9a8dac4137340903c6138ca",
                "sha256_in_prefix": "7d9aaddb1cfe9de202f87f65f6e87d19aa578e1de9a8dac4137340903c6138ca",
                "size_in_bytes": 4319
            },
            {
                "_path": "lib/libaws-c-http.so",
                "path_type": "softlink",
                "sha256_in_prefix": "d08b0acb47a2077913a430a1cee30272d3767a4f47cab3bd0570955f695067ad",
                "size_in_bytes": 463592
            },
            {
                "_path": "lib/libaws-c-http.so.1.0.0",
                "path_type": "hardlink",
                "sha256": "5310694fcaa17d17f05e2eb79efcfae38dd93940b1bb160bb7f89a7567cf21dc",
                "sha256_in_prefix": "d08b0acb47a2077913a430a1cee30272d3767a4f47cab3bd0570955f695067ad",
                "size_in_bytes": 463592
            }
        ],
        "paths_version": 1
    },
    "platform": "linux",
    "requested_spec": "",
    "sha256": "c2a9501d5e361051457b0afc3ce77496a73c2cf90ad859010812130d512e9271",
    "size": 194638,
    "subdir": "linux-64",
    "timestamp": 1720753051593,
    "track_features": "",
    "url": "https://conda.anaconda.org/conda-forge/linux-64/aws-c-http-0.8.2-he17ee6b_6.conda",
    "version": "0.8.2"
}