{
    "arch": null,
    "build": "pyhd8ed1ab_0",
    "build_number": 0,
    "build_string": "pyhd8ed1ab_0",
    "channel": "https://conda.anaconda.org/conda-forge/noarch",
    "constrains": [],
    "depends": [
        "packaging",
        "python >=3.6",
        "setuptools",
        "six >=1.9.0",
        "webencodings"
    ],
    "extracted_package_dir": "/eos/home-s/staj/Higg\t/micromamba/pkgs/bleach-6.1.0-pyhd8ed1ab_0",
    "files": [
        "lib/python3.10/site-packages/bleach-6.1.0.dist-info/INSTALLER",
        "lib/python3.10/site-packages/bleach-6.1.0.dist-info/LICENSE",
        "lib/python3.10/site-packages/bleach-6.1.0.dist-info/METADATA",
        "lib/python3.10/site-packages/bleach-6.1.0.dist-info/RECORD",
        "lib/python3.10/site-packages/bleach-6.1.0.dist-info/REQUESTED",
        "lib/python3.10/site-packages/bleach-6.1.0.dist-info/WHEEL",
        "lib/python3.10/site-packages/bleach-6.1.0.dist-info/direct_url.json",
        "lib/python3.10/site-packages/bleach-6.1.0.dist-info/top_level.txt",
        "lib/python3.10/site-packages/bleach/__init__.py",
        "lib/python3.10/site-packages/bleach/_vendor/README.rst",
        "lib/python3.10/site-packages/bleach/_vendor/__init__.py",
        "lib/python3.10/site-packages/bleach/_vendor/html5lib-1.1.dist-info/AUTHORS.rst",
        "lib/python3.10/site-packages/bleach/_vendor/html5lib-1.1.dist-info/INSTALLER",
        "lib/python3.10/site-packages/bleach/_vendor/html5lib-1.1.dist-info/LICENSE",
        "lib/python3.10/site-packages/bleach/_vendor/html5lib-1.1.dist-info/METADATA",
        "lib/python3.10/site-packages/bleach/_vendor/html5lib-1.1.dist-info/RECORD",
        "lib/python3.10/site-packages/bleach/_vendor/html5lib-1.1.dist-info/REQUESTED",
        "lib/python3.10/site-packages/bleach/_vendor/html5lib-1.1.dist-info/WHEEL",
        "lib/python3.10/site-packages/bleach/_vendor/html5lib-1.1.dist-info/top_level.txt",
        "lib/python3.10/site-packages/bleach/_vendor/html5lib/__init__.py",
        "lib/python3.10/site-packages/bleach/_vendor/html5lib/_ihatexml.py",
        "lib/python3.10/site-packages/bleach/_vendor/html5lib/_inputstream.py",
        "lib/python3.10/site-packages/bleach/_vendor/html5lib/_tokenizer.py",
        "lib/python3.10/site-packages/bleach/_vendor/html5lib/_trie/__init__.py",
        "lib/python3.10/site-packages/bleach/_vendor/html5lib/_trie/_base.py",
        "lib/python3.10/site-packages/bleach/_vendor/html5lib/_trie/py.py",
        "lib/python3.10/site-packages/bleach/_vendor/html5lib/_utils.py",
        "lib/python3.10/site-packages/bleach/_vendor/html5lib/constants.py",
        "lib/python3.10/site-packages/bleach/_vendor/html5lib/filters/__init__.py",
        "lib/python3.10/site-packages/bleach/_vendor/html5lib/filters/alphabeticalattributes.py",
        "lib/python3.10/site-packages/bleach/_vendor/html5lib/filters/base.py",
        "lib/python3.10/site-packages/bleach/_vendor/html5lib/filters/inject_meta_charset.py",
        "lib/python3.10/site-packages/bleach/_vendor/html5lib/filters/lint.py",
        "lib/python3.10/site-packages/bleach/_vendor/html5lib/filters/optionaltags.py",
        "lib/python3.10/site-packages/bleach/_vendor/html5lib/filters/sanitizer.py",
        "lib/python3.10/site-packages/bleach/_vendor/html5lib/filters/whitespace.py",
        "lib/python3.10/site-packages/bleach/_vendor/html5lib/html5parser.py",
        "lib/python3.10/site-packages/bleach/_vendor/html5lib/serializer.py",
        "lib/python3.10/site-packages/bleach/_vendor/html5lib/treeadapters/__init__.py",
        "lib/python3.10/site-packages/bleach/_vendor/html5lib/treeadapters/genshi.py",
        "lib/python3.10/site-packages/bleach/_vendor/html5lib/treeadapters/sax.py",
        "lib/python3.10/site-packages/bleach/_vendor/html5lib/treebuilders/__init__.py",
        "lib/python3.10/site-packages/bleach/_vendor/html5lib/treebuilders/base.py",
        "lib/python3.10/site-packages/bleach/_vendor/html5lib/treebuilders/dom.py",
        "lib/python3.10/site-packages/bleach/_vendor/html5lib/treebuilders/etree.py",
        "lib/python3.10/site-packages/bleach/_vendor/html5lib/treebuilders/etree_lxml.py",
        "lib/python3.10/site-packages/bleach/_vendor/html5lib/treewalkers/__init__.py",
        "lib/python3.10/site-packages/bleach/_vendor/html5lib/treewalkers/base.py",
        "lib/python3.10/site-packages/bleach/_vendor/html5lib/treewalkers/dom.py",
        "lib/python3.10/site-packages/bleach/_vendor/html5lib/treewalkers/etree.py",
        "lib/python3.10/site-packages/bleach/_vendor/html5lib/treewalkers/etree_lxml.py",
        "lib/python3.10/site-packages/bleach/_vendor/html5lib/treewalkers/genshi.py",
        "lib/python3.10/site-packages/bleach/_vendor/parse.py",
        "lib/python3.10/site-packages/bleach/_vendor/parse.py.SHA256SUM",
        "lib/python3.10/site-packages/bleach/_vendor/vendor.txt",
        "lib/python3.10/site-packages/bleach/_vendor/vendor_install.sh",
        "lib/python3.10/site-packages/bleach/callbacks.py",
        "lib/python3.10/site-packages/bleach/css_sanitizer.py",
        "lib/python3.10/site-packages/bleach/html5lib_shim.py",
        "lib/python3.10/site-packages/bleach/linkifier.py",
        "lib/python3.10/site-packages/bleach/parse_shim.py",
        "lib/python3.10/site-packages/bleach/sanitizer.py",
        "lib/python3.10/site-packages/bleach/__pycache__/__init__.cpython-310.pyc",
        "lib/python3.10/site-packages/bleach/_vendor/__pycache__/__init__.cpython-310.pyc",
        "lib/python3.10/site-packages/bleach/_vendor/html5lib/__pycache__/__init__.cpython-310.pyc",
        "lib/python3.10/site-packages/bleach/_vendor/html5lib/__pycache__/_ihatexml.cpython-310.pyc",
        "lib/python3.10/site-packages/bleach/_vendor/html5lib/__pycache__/_inputstream.cpython-310.pyc",
        "lib/python3.10/site-packages/bleach/_vendor/html5lib/__pycache__/_tokenizer.cpython-310.pyc",
        "lib/python3.10/site-packages/bleach/_vendor/html5lib/_trie/__pycache__/__init__.cpython-310.pyc",
        "lib/python3.10/site-packages/bleach/_vendor/html5lib/_trie/__pycache__/_base.cpython-310.pyc",
        "lib/python3.10/site-packages/bleach/_vendor/html5lib/_trie/__pycache__/py.cpython-310.pyc",
        "lib/python3.10/site-packages/bleach/_vendor/html5lib/__pycache__/_utils.cpython-310.pyc",
        "lib/python3.10/site-packages/bleach/_vendor/html5lib/__pycache__/constants.cpython-310.pyc",
        "lib/python3.10/site-packages/bleach/_vendor/html5lib/filters/__pycache__/__init__.cpython-310.pyc",
        "lib/python3.10/site-packages/bleach/_vendor/html5lib/filters/__pycache__/alphabeticalattributes.cpython-310.pyc",
        "lib/python3.10/site-packages/bleach/_vendor/html5lib/filters/__pycache__/base.cpython-310.pyc",
        "lib/python3.10/site-packages/bleach/_vendor/html5lib/filters/__pycache__/inject_meta_charset.cpython-310.pyc",
        "lib/python3.10/site-packages/bleach/_vendor/html5lib/filters/__pycache__/lint.cpython-310.pyc",
        "lib/python3.10/site-packages/bleach/_vendor/html5lib/filters/__pycache__/optionaltags.cpython-310.pyc",
        "lib/python3.10/site-packages/bleach/_vendor/html5lib/filters/__pycache__/sanitizer.cpython-310.pyc",
        "lib/python3.10/site-packages/bleach/_vendor/html5lib/filters/__pycache__/whitespace.cpython-310.pyc",
        "lib/python3.10/site-packages/bleach/_vendor/html5lib/__pycache__/html5parser.cpython-310.pyc",
        "lib/python3.10/site-packages/bleach/_vendor/html5lib/__pycache__/serializer.cpython-310.pyc",
        "lib/python3.10/site-packages/bleach/_vendor/html5lib/treeadapters/__pycache__/__init__.cpython-310.pyc",
        "lib/python3.10/site-packages/bleach/_vendor/html5lib/treeadapters/__pycache__/genshi.cpython-310.pyc",
        "lib/python3.10/site-packages/bleach/_vendor/html5lib/treeadapters/__pycache__/sax.cpython-310.pyc",
        "lib/python3.10/site-packages/bleach/_vendor/html5lib/treebuilders/__pycache__/__init__.cpython-310.pyc",
        "lib/python3.10/site-packages/bleach/_vendor/html5lib/treebuilders/__pycache__/base.cpython-310.pyc",
        "lib/python3.10/site-packages/bleach/_vendor/html5lib/treebuilders/__pycache__/dom.cpython-310.pyc",
        "lib/python3.10/site-packages/bleach/_vendor/html5lib/treebuilders/__pycache__/etree.cpython-310.pyc",
        "lib/python3.10/site-packages/bleach/_vendor/html5lib/treebuilders/__pycache__/etree_lxml.cpython-310.pyc",
        "lib/python3.10/site-packages/bleach/_vendor/html5lib/treewalkers/__pycache__/__init__.cpython-310.pyc",
        "lib/python3.10/site-packages/bleach/_vendor/html5lib/treewalkers/__pycache__/base.cpython-310.pyc",
        "lib/python3.10/site-packages/bleach/_vendor/html5lib/treewalkers/__pycache__/dom.cpython-310.pyc",
        "lib/python3.10/site-packages/bleach/_vendor/html5lib/treewalkers/__pycache__/etree.cpython-310.pyc",
        "lib/python3.10/site-packages/bleach/_vendor/html5lib/treewalkers/__pycache__/etree_lxml.cpython-310.pyc",
        "lib/python3.10/site-packages/bleach/_vendor/html5lib/treewalkers/__pycache__/genshi.cpython-310.pyc",
        "lib/python3.10/site-packages/bleach/_vendor/__pycache__/parse.cpython-310.pyc",
        "lib/python3.10/site-packages/bleach/__pycache__/callbacks.cpython-310.pyc",
        "lib/python3.10/site-packages/bleach/__pycache__/css_sanitizer.cpython-310.pyc",
        "lib/python3.10/site-packages/bleach/__pycache__/html5lib_shim.cpython-310.pyc",
        "lib/python3.10/site-packages/bleach/__pycache__/linkifier.cpython-310.pyc",
        "lib/python3.10/site-packages/bleach/__pycache__/parse_shim.cpython-310.pyc",
        "lib/python3.10/site-packages/bleach/__pycache__/sanitizer.cpython-310.pyc"
    ],
    "fn": "bleach-6.1.0-pyhd8ed1ab_0.conda",
    "license": "Apache-2.0",
    "license_family": "Apache",
    "link": {
        "source": "/eos/home-s/staj/Higg\t/micromamba/pkgs/bleach-6.1.0-pyhd8ed1ab_0",
        "type": 1
    },
    "md5": "0ed9d7c0e9afa7c025807a9a8136ea3e",
    "name": "bleach",
    "noarch": "python",
    "package_tarball_full_path": "/eos/home-s/staj/Higg\t/micromamba/pkgs/bleach-6.1.0-pyhd8ed1ab_0.tar.bz2",
    "paths_data": {
        "paths": [
            {
                "_path": "lib/python3.10/site-packages/bleach-6.1.0.dist-info/INSTALLER",
                "path_type": "hardlink",
                "sha256": "d0edee15f91b406f3f99726e44eb990be6e34fd0345b52b910c568e0eef6a2a8",
                "sha256_in_prefix": "d0edee15f91b406f3f99726e44eb990be6e34fd0345b52b910c568e0eef6a2a8",
                "size_in_bytes": 5
            },
            {
                "_path": "lib/python3.10/site-packages/bleach-6.1.0.dist-info/LICENSE",
                "path_type": "hardlink",
                "sha256": "bec2238c149a632b8fb26813f687aceabab80327f3270769c2c16157883d3130",
                "sha256_in_prefix": "bec2238c149a632b8fb26813f687aceabab80327f3270769c2c16157883d3130",
                "size_in_bytes": 569
            },
            {
                "_path": "lib/python3.10/site-packages/bleach-6.1.0.dist-info/METADATA",
                "path_type": "hardlink",
                "sha256": "d52b8982290f9951080e3b3f347bbfa0bc9c6acc3d1e24c4d7d6cb8510bc152c",
                "sha256_in_prefix": "d52b8982290f9951080e3b3f347bbfa0bc9c6acc3d1e24c4d7d6cb8510bc152c",
                "size_in_bytes": 30425
            },
            {
                "_path": "lib/python3.10/site-packages/bleach-6.1.0.dist-info/RECORD",
                "path_type": "hardlink",
                "sha256": "7c17f61a3930ca3f30fa386c642b939a17f32040eb318c83a39546edc5413932",
                "sha256_in_prefix": "7c17f61a3930ca3f30fa386c642b939a17f32040eb318c83a39546edc5413932",
                "size_in_bytes": 8680
            },
            {
                "_path": "lib/python3.10/site-packages/bleach-6.1.0.dist-info/REQUESTED",
                "path_type": "hardlink",
                "sha256": "e3b0c44298fc1c149afbf4c8996fb92427ae41e4649b934ca495991b7852b855",
                "sha256_in_prefix": "e3b0c44298fc1c149afbf4c8996fb92427ae41e4649b934ca495991b7852b855"
            },
            {
                "_path": "lib/python3.10/site-packages/bleach-6.1.0.dist-info/WHEEL",
                "path_type": "hardlink",
                "sha256": "c903798389a0e00c9b4639208bef72cb889010589b1909a5cfbf0f8a4e4eafe0",
                "sha256_in_prefix": "c903798389a0e00c9b4639208bef72cb889010589b1909a5cfbf0f8a4e4eafe0",
                "size_in_bytes": 92
            },
            {
                "_path": "lib/python3.10/site-packages/bleach-6.1.0.dist-info/direct_url.json",
                "path_type": "hardlink",
                "sha256": "ab0d3ce4a2c1462417bc622b0af6a5750e0cdaf92afe019bec0bc3b8dd9ea0a0",
                "sha256_in_prefix": "ab0d3ce4a2c1462417bc622b0af6a5750e0cdaf92afe019bec0bc3b8dd9ea0a0",
                "size_in_bytes": 102
            },
            {
                "_path": "lib/python3.10/site-packages/bleach-6.1.0.dist-info/top_level.txt",
                "path_type": "hardlink",
                "sha256": "75cbf4c0a232481d333230045cbc18e15d3edc837d519406013d700e67d02026",
                "sha256_in_prefix": "75cbf4c0a232481d333230045cbc18e15d3edc837d519406013d700e67d02026",
                "size_in_bytes": 7
            },
            {
                "_path": "lib/python3.10/site-packages/bleach/__init__.py",
                "path_type": "hardlink",
                "sha256": "6c239d9fb342dbad9a035bfdf2c97e96494fa9e6b0ff92e25ea6127fe5c0c143",
                "sha256_in_prefix": "6c239d9fb342dbad9a035bfdf2c97e96494fa9e6b0ff92e25ea6127fe5c0c143",
                "size_in_bytes": 3649
            },
            {
                "_path": "lib/python3.10/site-packages/bleach/_vendor/README.rst",
                "path_type": "hardlink",
                "sha256": "79778a4f625d641e165f592e8536bc5bd269f555edc08285c68e5150be5ec663",
                "sha256_in_prefix": "79778a4f625d641e165f592e8536bc5bd269f555edc08285c68e5150be5ec663",
                "size_in_bytes": 2160
            },
            {
                "_path": "lib/python3.10/site-packages/bleach/_vendor/__init__.py",
                "path_type": "hardlink",
                "sha256": "e3b0c44298fc1c149afbf4c8996fb92427ae41e4649b934ca495991b7852b855",
                "sha256_in_prefix": "e3b0c44298fc1c149afbf4c8996fb92427ae41e4649b934ca495991b7852b855"
            },
            {
                "_path": "lib/python3.10/site-packages/bleach/_vendor/html5lib-1.1.dist-info/AUTHORS.rst",
                "path_type": "hardlink",
                "sha256": "0eb3403227e80e9b90c899fe296f87e8af13b766b9aca9d5d94178f8346b1942",
                "sha256_in_prefix": "0eb3403227e80e9b90c899fe296f87e8af13b766b9aca9d5d94178f8346b1942",
                "size_in_bytes": 983
            },
            {
                "_path": "lib/python3.10/site-packages/bleach/_vendor/html5lib-1.1.dist-info/INSTALLER",
                "path_type": "hardlink",
                "sha256": "d0edee15f91b406f3f99726e44eb990be6e34fd0345b52b910c568e0eef6a2a8",
                "sha256_in_prefix": "d0edee15f91b406f3f99726e44eb990be6e34fd0345b52b910c568e0eef6a2a8",
                "size_in_bytes": 5
            },
            {
                "_path": "lib/python3.10/site-packages/bleach/_vendor/html5lib-1.1.dist-info/LICENSE",
                "path_type": "hardlink",
                "sha256": "16a39991619e92f18680932da2a9199fdf7d95df3ecaedc52ea06218aabafd6f",
                "sha256_in_prefix": "16a39991619e92f18680932da2a9199fdf7d95df3ecaedc52ea06218aabafd6f",
                "size_in_bytes": 1084
            },
            {
                "_path": "lib/python3.10/site-packages/bleach/_vendor/html5lib-1.1.dist-info/METADATA",
                "path_type": "hardlink",
                "sha256": "637c3e9ddff6d87427411cb7cb2a55b15fe47b6145f78b940f8faf1a97360e72",
                "sha256_in_prefix": "637c3e9ddff6d87427411cb7cb2a55b15fe47b6145f78b940f8faf1a97360e72",
                "size_in_bytes": 16076
            },
            {
                "_path": "lib/python3.10/site-packages/bleach/_vendor/html5lib-1.1.dist-info/RECORD",
                "path_type": "hardlink",
                "sha256": "bbecbf5b996176c1c2d4e48c9c0e1b0a2dfed7522043f140216eaf88cbbcfcb0",
                "sha256_in_prefix": "bbecbf5b996176c1c2d4e48c9c0e1b0a2dfed7522043f140216eaf88cbbcfcb0",
                "size_in_bytes": 3486
            },
            {
                "_path": "lib/python3.10/site-packages/bleach/_vendor/html5lib-1.1.dist-info/REQUESTED",
                "path_type": "hardlink",
                "sha256": "e3b0c44298fc1c149afbf4c8996fb92427ae41e4649b934ca495991b7852b855",
                "sha256_in_prefix": "e3b0c44298fc1c149afbf4c8996fb92427ae41e4649b934ca495991b7852b855"
            },
            {
                "_path": "lib/python3.10/site-packages/bleach/_vendor/html5lib-1.1.dist-info/WHEEL",
                "path_type": "hardlink",
                "sha256": "9064fbe0b5b245466b2f85602e1ebf835d8879597ff6ef5956169dae05d95046",
                "sha256_in_prefix": "9064fbe0b5b245466b2f85602e1ebf835d8879597ff6ef5956169dae05d95046",
                "size_in_bytes": 110
            },
            {
                "_path": "lib/python3.10/site-packages/bleach/_vendor/html5lib-1.1.dist-info/top_level.txt",
                "path_type": "hardlink",
                "sha256": "5c45fa087a6c9129af8c9078b4fea6e10e4d6178487ffd1c78c7343cd6f324f4",
                "sha256_in_prefix": "5c45fa087a6c9129af8c9078b4fea6e10e4d6178487ffd1c78c7343cd6f324f4",
                "size_in_bytes": 9
            },
            {
                "_path": "lib/python3.10/site-packages/bleach/_vendor/html5lib/__init__.py",
                "path_type": "hardlink",
                "sha256": "a569d871f67af7034badd40bedba6be3d1548bc3bcc342a1282387b324606064",
                "sha256_in_prefix": "a569d871f67af7034badd40bedba6be3d1548bc3bcc342a1282387b324606064",
                "size_in_bytes": 1143
            },
            {
                "_path": "lib/python3.10/site-packages/bleach/_vendor/html5lib/_ihatexml.py",
                "path_type": "hardlink",
                "sha256": "89f3b017ba57aa6c938485dcddba1673deace0c0decea46b455a7b1700d8505b",
                "sha256_in_prefix": "89f3b017ba57aa6c938485dcddba1673deace0c0decea46b455a7b1700d8505b",
                "size_in_bytes": 16728
            },
            {
                "_path": "lib/python3.10/site-packages/bleach/_vendor/html5lib/_inputstream.py",
                "path_type": "hardlink",
                "sha256": "20ab8c898f2bcdbee9a88182a5bbd3aacc72b0b1298041d662f60416ee0b5002",
                "sha256_in_prefix": "20ab8c898f2bcdbee9a88182a5bbd3aacc72b0b1298041d662f60416ee0b5002",
                "size_in_bytes": 32300
            },
            {
                "_path": "lib/python3.10/site-packages/bleach/_vendor/html5lib/_tokenizer.py",
                "path_type": "hardlink",
                "sha256": "5af2506b63258b836d4e684b5e45fc272e45716b6da826a20d388ac9ac3c0fe9",
                "sha256_in_prefix": "5af2506b63258b836d4e684b5e45fc272e45716b6da826a20d388ac9ac3c0fe9",
                "size_in_bytes": 77028
            },
            {
                "_path": "lib/python3.10/site-packages/bleach/_vendor/html5lib/_trie/__init__.py",
                "path_type": "hardlink",
                "sha256": "9ea7e03bdd74df6f411152794f8a6c57042d8ddda2272117436f97f1cd58c705",
                "sha256_in_prefix": "9ea7e03bdd74df6f411152794f8a6c57042d8ddda2272117436f97f1cd58c705",
                "size_in_bytes": 109
            },
            {
                "_path": "lib/python3.10/site-packages/bleach/_vendor/html5lib/_trie/_base.py",
                "path_type": "hardlink",
                "sha256": "09ac9b63232ba3cb844506236f2dad4de4946ad9d60df5aba1437d37b7adcb9c",
                "sha256_in_prefix": "09ac9b63232ba3cb844506236f2dad4de4946ad9d60df5aba1437d37b7adcb9c",
                "size_in_bytes": 1013
            },
            {
                "_path": "lib/python3.10/site-packages/bleach/_vendor/html5lib/_trie/py.py",
                "path_type": "hardlink",
                "sha256": "ce0ed16521f127c98b9ae23fed510857c0289884ab824bea08fe3bec0817686d",
                "sha256_in_prefix": "ce0ed16521f127c98b9ae23fed510857c0289884ab824bea08fe3bec0817686d",
                "size_in_bytes": 1763
            },
            {
                "_path": "lib/python3.10/site-packages/bleach/_vendor/html5lib/_utils.py",
                "path_type": "hardlink",
                "sha256": "031009486d797b26ab0a028c9e5530cecd57ea31475ea12f8656043b10059a2b",
                "sha256_in_prefix": "031009486d797b26ab0a028c9e5530cecd57ea31475ea12f8656043b10059a2b",
                "size_in_bytes": 4919
            },
            {
                "_path": "lib/python3.10/site-packages/bleach/_vendor/html5lib/constants.py",
                "path_type": "hardlink",
                "sha256": "2e5fb2ccb53f8dc8f2008fe1e7bce4a99eda416139b79c40e32fe3420a14521c",
                "sha256_in_prefix": "2e5fb2ccb53f8dc8f2008fe1e7bce4a99eda416139b79c40e32fe3420a14521c",
                "size_in_bytes": 83464
            },
            {
                "_path": "lib/python3.10/site-packages/bleach/_vendor/html5lib/filters/__init__.py",
                "path_type": "hardlink",
                "sha256": "e3b0c44298fc1c149afbf4c8996fb92427ae41e4649b934ca495991b7852b855",
                "sha256_in_prefix": "e3b0c44298fc1c149afbf4c8996fb92427ae41e4649b934ca495991b7852b855"
            },
            {
                "_path": "lib/python3.10/site-packages/bleach/_vendor/html5lib/filters/alphabeticalattributes.py",
                "path_type": "hardlink",
                "sha256": "95589973624c09c9578bfe6076ebe6773ad1c6d3b95e8f4e3676c70550acca45",
                "sha256_in_prefix": "95589973624c09c9578bfe6076ebe6773ad1c6d3b95e8f4e3676c70550acca45",
                "size_in_bytes": 919
            },
            {
                "_path": "lib/python3.10/site-packages/bleach/_vendor/html5lib/filters/base.py",
                "path_type": "hardlink",
                "sha256": "cfe214f590188e9b15b2a995b7b92e582eb78d1d7584332be8256bbee6a8f16d",
                "sha256_in_prefix": "cfe214f590188e9b15b2a995b7b92e582eb78d1d7584332be8256bbee6a8f16d",
                "size_in_bytes": 286
            },
            {
                "_path": "lib/python3.10/site-packages/bleach/_vendor/html5lib/filters/inject_meta_charset.py",
                "path_type": "hardlink",
                "sha256": "7a00d75041d79801bde74e31cf42ba00b0e0624bd4ac2daad7961455e3655508",
                "sha256_in_prefix": "7a00d75041d79801bde74e31cf42ba00b0e0624bd4ac2daad7961455e3655508",
                "size_in_bytes": 2945
            },
            {
                "_path": "lib/python3.10/site-packages/bleach/_vendor/html5lib/filters/lint.py",
                "path_type": "hardlink",
                "sha256": "ba95c04ece81cbb728b7ba346e736a475e6c3ead859fa5678efa32de0c8efeb6",
                "sha256_in_prefix": "ba95c04ece81cbb728b7ba346e736a475e6c3ead859fa5678efa32de0c8efeb6",
                "size_in_bytes": 3631
            },
            {
                "_path": "lib/python3.10/site-packages/bleach/_vendor/html5lib/filters/optionaltags.py",
                "path_type": "hardlink",
                "sha256": "f25593ef927468138798f81f9aa4c749f3e93cca74d53f3834abb409179dc5c1",
                "sha256_in_prefix": "f25593ef927468138798f81f9aa4c749f3e93cca74d53f3834abb409179dc5c1",
                "size_in_bytes": 10588
            },
            {
                "_path": "lib/python3.10/site-packages/bleach/_vendor/html5lib/filters/sanitizer.py",
                "path_type": "hardlink",
                "sha256": "5c635277322a0d3687a2dd55fab463d55fd73a8940a49ee7f79b473fd25c80d5",
                "sha256_in_prefix": "5c635277322a0d3687a2dd55fab463d55fd73a8940a49ee7f79b473fd25c80d5",
                "size_in_bytes": 26885
            },
            {
                "_path": "lib/python3.10/site-packages/bleach/_vendor/html5lib/filters/whitespace.py",
                "path_type": "hardlink",
                "sha256": "f1e5aa671778502e33945196ea2c98e9ffb6bae4fca4e09200b737219b7bfede",
                "sha256_in_prefix": "f1e5aa671778502e33945196ea2c98e9ffb6bae4fca4e09200b737219b7bfede",
                "size_in_bytes": 1214
            },
            {
                "_path": "lib/python3.10/site-packages/bleach/_vendor/html5lib/html5parser.py",
                "path_type": "hardlink",
                "sha256": "c39859261d1cbc3de0e024b5f7a0e24e6b86a522823187b5192e3afb27ff5994",
                "sha256_in_prefix": "c39859261d1cbc3de0e024b5f7a0e24e6b86a522823187b5192e3afb27ff5994",
                "size_in_bytes": 117174
            },
            {
                "_path": "lib/python3.10/site-packages/bleach/_vendor/html5lib/serializer.py",
                "path_type": "hardlink",
                "sha256": "2b691fa0bc8c3cc14f7ddbac7d1df44abc4d91fd26241f76f8fe7f467b7269a2",
                "sha256_in_prefix": "2b691fa0bc8c3cc14f7ddbac7d1df44abc4d91fd26241f76f8fe7f467b7269a2",
                "size_in_bytes": 15747
            },
            {
                "_path": "lib/python3.10/site-packages/bleach/_vendor/html5lib/treeadapters/__init__.py",
                "path_type": "hardlink",
                "sha256": "d7c87223e6add9a06c74ace9c11c1ae65185d62a6072d693617a14f449f66508",
                "sha256_in_prefix": "d7c87223e6add9a06c74ace9c11c1ae65185d62a6072d693617a14f449f66508",
                "size_in_bytes": 650
            },
            {
                "_path": "lib/python3.10/site-packages/bleach/_vendor/html5lib/treeadapters/genshi.py",
                "path_type": "hardlink",
                "sha256": "087dbba40b032a6bb864690052bc2dcbbbb429ab862c26512cf33368edcce6fa",
                "sha256_in_prefix": "087dbba40b032a6bb864690052bc2dcbbbb429ab862c26512cf33368edcce6fa",
                "size_in_bytes": 1715
            },
            {
                "_path": "lib/python3.10/site-packages/bleach/_vendor/html5lib/treeadapters/sax.py",
                "path_type": "hardlink",
                "sha256": "04a4bcc284139ca8aa79f7c7b310a152a2f8ab6651ff06f97dcf4c277cd00bcb",
                "sha256_in_prefix": "04a4bcc284139ca8aa79f7c7b310a152a2f8ab6651ff06f97dcf4c277cd00bcb",
                "size_in_bytes": 1776
            },
            {
                "_path": "lib/python3.10/site-packages/bleach/_vendor/html5lib/treebuilders/__init__.py",
                "path_type": "hardlink",
                "sha256": "032b12272bcf7e290230cb1356f6b1c2480389e10b0f975f47c149200baaee16",
                "sha256_in_prefix": "032b12272bcf7e290230cb1356f6b1c2480389e10b0f975f47c149200baaee16",
                "size_in_bytes": 3592
            },
            {
                "_path": "lib/python3.10/site-packages/bleach/_vendor/html5lib/treebuilders/base.py",
                "path_type": "hardlink",
                "sha256": "a1e64d18407e92df746091951f4e606f96bc13b89db3601b630191b150a27969",
                "sha256_in_prefix": "a1e64d18407e92df746091951f4e606f96bc13b89db3601b630191b150a27969",
                "size_in_bytes": 14553
            },
            {
                "_path": "lib/python3.10/site-packages/bleach/_vendor/html5lib/treebuilders/dom.py",
                "path_type": "hardlink",
                "sha256": "db6c216f40bbd735c8b1a8b999a9a0eaacc11228a070122f683cb802cc376add",
                "sha256_in_prefix": "db6c216f40bbd735c8b1a8b999a9a0eaacc11228a070122f683cb802cc376add",
                "size_in_bytes": 8925
            },
            {
                "_path": "lib/python3.10/site-packages/bleach/_vendor/html5lib/treebuilders/etree.py",
                "path_type": "hardlink",
                "sha256": "11b987c7ec10fb5d4c56e7133ed17b525f76fa640637751dbbf29f0e7f887e19",
                "sha256_in_prefix": "11b987c7ec10fb5d4c56e7133ed17b525f76fa640637751dbbf29f0e7f887e19",
                "size_in_bytes": 12824
            },
            {
                "_path": "lib/python3.10/site-packages/bleach/_vendor/html5lib/treebuilders/etree_lxml.py",
                "path_type": "hardlink",
                "sha256": "39acc31d918efeae059d5b380e1b38873ce7d89c0600eb3eadf57c2c0954196e",
                "sha256_in_prefix": "39acc31d918efeae059d5b380e1b38873ce7d89c0600eb3eadf57c2c0954196e",
                "size_in_bytes": 14754
            },
            {
                "_path": "lib/python3.10/site-packages/bleach/_vendor/html5lib/treewalkers/__init__.py",
                "path_type": "hardlink",
                "sha256": "3813ed7354d4e661b2cb5f100ccc4a132604cf4c3115450d8f9bf4f978266216",
                "sha256_in_prefix": "3813ed7354d4e661b2cb5f100ccc4a132604cf4c3115450d8f9bf4f978266216",
                "size_in_bytes": 5719
            },
            {
                "_path": "lib/python3.10/site-packages/bleach/_vendor/html5lib/treewalkers/base.py",
                "path_type": "hardlink",
                "sha256": "a2e88eb2e4b3bc8d0a8337563fc3e5c4869236cf5f6a585b8a29c011cfd42096",
                "sha256_in_prefix": "a2e88eb2e4b3bc8d0a8337563fc3e5c4869236cf5f6a585b8a29c011cfd42096",
                "size_in_bytes": 7476
            },
            {
                "_path": "lib/python3.10/site-packages/bleach/_vendor/html5lib/treewalkers/dom.py",
                "path_type": "hardlink",
                "sha256": "107c8547c0fc958367c8353d971fc82a2815251c9e7141ae6b498e8bb1c1ba47",
                "sha256_in_prefix": "107c8547c0fc958367c8353d971fc82a2815251c9e7141ae6b498e8bb1c1ba47",
                "size_in_bytes": 1413
            },
            {
                "_path": "lib/python3.10/site-packages/bleach/_vendor/html5lib/treewalkers/etree.py",
                "path_type": "hardlink",
                "sha256": "8240f8b5f11f4563ec106be01c72716662995d4bc1cd5546cf7bf90bf30888e1",
                "sha256_in_prefix": "8240f8b5f11f4563ec106be01c72716662995d4bc1cd5546cf7bf90bf30888e1",
                "size_in_bytes": 4539
            },
            {
                "_path": "lib/python3.10/site-packages/bleach/_vendor/html5lib/treewalkers/etree_lxml.py",
                "path_type": "hardlink",
                "sha256": "78b79d6e7ea73e396979b89bb165628decbb584a730f0c54dee6f0528b9d06e0",
                "sha256_in_prefix": "78b79d6e7ea73e396979b89bb165628decbb584a730f0c54dee6f0528b9d06e0",
                "size_in_bytes": 6345
            },
            {
                "_path": "lib/python3.10/site-packages/bleach/_vendor/html5lib/treewalkers/genshi.py",
                "path_type": "hardlink",
                "sha256": "e03d8f1026799f764ddeabb78cc97dc98ec1f358e7400a414125657da22e61b0",
                "sha256_in_prefix": "e03d8f1026799f764ddeabb78cc97dc98ec1f358e7400a414125657da22e61b0",
                "size_in_bytes": 2309
            },
            {
                "_path": "lib/python3.10/site-packages/bleach/_vendor/parse.py",
                "path_type": "hardlink",
                "sha256": "46af966e33b6247ae1d57d9459115a3eb46cda9f809c9f14e052abc2fe8dacb2",
                "sha256_in_prefix": "46af966e33b6247ae1d57d9459115a3eb46cda9f809c9f14e052abc2fe8dacb2",
                "size_in_bytes": 39023
            },
            {
                "_path": "lib/python3.10/site-packages/bleach/_vendor/parse.py.SHA256SUM",
                "path_type": "hardlink",
                "sha256": "f806a2a8dfbda2dc3f5f4bc58ca91b29616f929ebc88b304f76ff023ef3ebe6d",
                "sha256_in_prefix": "f806a2a8dfbda2dc3f5f4bc58ca91b29616f929ebc88b304f76ff023ef3ebe6d",
                "size_in_bytes": 75
            },
            {
                "_path": "lib/python3.10/site-packages/bleach/_vendor/vendor.txt",
                "path_type": "hardlink",
                "sha256": "e85159c9e9ee9a05aa9e12e06c26b8cb32f81d535a4940c2d831cdc91e45cbac",
                "sha256_in_prefix": "e85159c9e9ee9a05aa9e12e06c26b8cb32f81d535a4940c2d831cdc91e45cbac",
                "size_in_bytes": 184
            },
            {
                "_path": "lib/python3.10/site-packages/bleach/_vendor/vendor_install.sh",
                "path_type": "hardlink",
                "sha256": "c7f3e7e1d91fccf3090992b01c7171a741002f946c21fcfe1d2753587b88e320",
                "sha256_in_prefix": "c7f3e7e1d91fccf3090992b01c7171a741002f946c21fcfe1d2753587b88e320",
                "size_in_bytes": 453
            },
            {
                "_path": "lib/python3.10/site-packages/bleach/callbacks.py",
                "path_type": "hardlink",
                "sha256": "24d4c688ce7fddb2ac1a5b6947d658133fc2fdbefebdf0e54d37500a2adb7727",
                "sha256_in_prefix": "24d4c688ce7fddb2ac1a5b6947d658133fc2fdbefebdf0e54d37500a2adb7727",
                "size_in_bytes": 752
            },
            {
                "_path": "lib/python3.10/site-packages/bleach/css_sanitizer.py",
                "path_type": "hardlink",
                "sha256": "40533144a054312b8dbd8915a41d9644140eeb4f5e15b53ea7d3ff2e153a8ed3",
                "sha256_in_prefix": "40533144a054312b8dbd8915a41d9644140eeb4f5e15b53ea7d3ff2e153a8ed3",
                "size_in_bytes": 2526
            },
            {
                "_path": "lib/python3.10/site-packages/bleach/html5lib_shim.py",
                "path_type": "hardlink",
                "sha256": "71674087bd10656cf8330b6285d880d60649d214e4bd18d462eac4e2ea021c28",
                "sha256_in_prefix": "71674087bd10656cf8330b6285d880d60649d214e4bd18d462eac4e2ea021c28",
                "size_in_bytes": 23294
            },
            {
                "_path": "lib/python3.10/site-packages/bleach/linkifier.py",
                "path_type": "hardlink",
                "sha256": "bd63972ae4578aba42c1e8d4104c9f7bc11627bac196278c0c47ab83de4e84f5",
                "sha256_in_prefix": "bd63972ae4578aba42c1e8d4104c9f7bc11627bac196278c0c47ab83de4e84f5",
                "size_in_bytes": 22375
            },
            {
                "_path": "lib/python3.10/site-packages/bleach/parse_shim.py",
                "path_type": "hardlink",
                "sha256": "5433ce74138a6ee0c471e295bdfa2081cafa037df66e472ae19f2332d3899404",
                "sha256_in_prefix": "5433ce74138a6ee0c471e295bdfa2081cafa037df66e472ae19f2332d3899404",
                "size_in_bytes": 50
            },
            {
                "_path": "lib/python3.10/site-packages/bleach/sanitizer.py",
                "path_type": "hardlink",
                "sha256": "26a0ee4c834ec9ba5cfde1c1cc6fc7edc9e41dd16c91919b7ec68173e8433c7f",
                "sha256_in_prefix": "26a0ee4c834ec9ba5cfde1c1cc6fc7edc9e41dd16c91919b7ec68173e8433c7f",
                "size_in_bytes": 21934
            },
            {
                "_path": "lib/python3.10/site-packages/bleach/__pycache__/__init__.cpython-310.pyc",
                "path_type": "pyc_file"
            },
            {
                "_path": "lib/python3.10/site-packages/bleach/_vendor/__pycache__/__init__.cpython-310.pyc",
                "path_type": "pyc_file"
            },
            {
                "_path": "lib/python3.10/site-packages/bleach/_vendor/html5lib/__pycache__/__init__.cpython-310.pyc",
                "path_type": "pyc_file"
            },
            {
                "_path": "lib/python3.10/site-packages/bleach/_vendor/html5lib/__pycache__/_ihatexml.cpython-310.pyc",
                "path_type": "pyc_file"
            },
            {
                "_path": "lib/python3.10/site-packages/bleach/_vendor/html5lib/__pycache__/_inputstream.cpython-310.pyc",
                "path_type": "pyc_file"
            },
            {
                "_path": "lib/python3.10/site-packages/bleach/_vendor/html5lib/__pycache__/_tokenizer.cpython-310.pyc",
                "path_type": "pyc_file"
            },
            {
                "_path": "lib/python3.10/site-packages/bleach/_vendor/html5lib/_trie/__pycache__/__init__.cpython-310.pyc",
                "path_type": "pyc_file"
            },
            {
                "_path": "lib/python3.10/site-packages/bleach/_vendor/html5lib/_trie/__pycache__/_base.cpython-310.pyc",
                "path_type": "pyc_file"
            },
            {
                "_path": "lib/python3.10/site-packages/bleach/_vendor/html5lib/_trie/__pycache__/py.cpython-310.pyc",
                "path_type": "pyc_file"
            },
            {
                "_path": "lib/python3.10/site-packages/bleach/_vendor/html5lib/__pycache__/_utils.cpython-310.pyc",
                "path_type": "pyc_file"
            },
            {
                "_path": "lib/python3.10/site-packages/bleach/_vendor/html5lib/__pycache__/constants.cpython-310.pyc",
                "path_type": "pyc_file"
            },
            {
                "_path": "lib/python3.10/site-packages/bleach/_vendor/html5lib/filters/__pycache__/__init__.cpython-310.pyc",
                "path_type": "pyc_file"
            },
            {
                "_path": "lib/python3.10/site-packages/bleach/_vendor/html5lib/filters/__pycache__/alphabeticalattributes.cpython-310.pyc",
                "path_type": "pyc_file"
            },
            {
                "_path": "lib/python3.10/site-packages/bleach/_vendor/html5lib/filters/__pycache__/base.cpython-310.pyc",
                "path_type": "pyc_file"
            },
            {
                "_path": "lib/python3.10/site-packages/bleach/_vendor/html5lib/filters/__pycache__/inject_meta_charset.cpython-310.pyc",
                "path_type": "pyc_file"
            },
            {
                "_path": "lib/python3.10/site-packages/bleach/_vendor/html5lib/filters/__pycache__/lint.cpython-310.pyc",
                "path_type": "pyc_file"
            },
            {
                "_path": "lib/python3.10/site-packages/bleach/_vendor/html5lib/filters/__pycache__/optionaltags.cpython-310.pyc",
                "path_type": "pyc_file"
            },
            {
                "_path": "lib/python3.10/site-packages/bleach/_vendor/html5lib/filters/__pycache__/sanitizer.cpython-310.pyc",
                "path_type": "pyc_file"
            },
            {
                "_path": "lib/python3.10/site-packages/bleach/_vendor/html5lib/filters/__pycache__/whitespace.cpython-310.pyc",
                "path_type": "pyc_file"
            },
            {
                "_path": "lib/python3.10/site-packages/bleach/_vendor/html5lib/__pycache__/html5parser.cpython-310.pyc",
                "path_type": "pyc_file"
            },
            {
                "_path": "lib/python3.10/site-packages/bleach/_vendor/html5lib/__pycache__/serializer.cpython-310.pyc",
                "path_type": "pyc_file"
            },
            {
                "_path": "lib/python3.10/site-packages/bleach/_vendor/html5lib/treeadapters/__pycache__/__init__.cpython-310.pyc",
                "path_type": "pyc_file"
            },
            {
                "_path": "lib/python3.10/site-packages/bleach/_vendor/html5lib/treeadapters/__pycache__/genshi.cpython-310.pyc",
                "path_type": "pyc_file"
            },
            {
                "_path": "lib/python3.10/site-packages/bleach/_vendor/html5lib/treeadapters/__pycache__/sax.cpython-310.pyc",
                "path_type": "pyc_file"
            },
            {
                "_path": "lib/python3.10/site-packages/bleach/_vendor/html5lib/treebuilders/__pycache__/__init__.cpython-310.pyc",
                "path_type": "pyc_file"
            },
            {
                "_path": "lib/python3.10/site-packages/bleach/_vendor/html5lib/treebuilders/__pycache__/base.cpython-310.pyc",
                "path_type": "pyc_file"
            },
            {
                "_path": "lib/python3.10/site-packages/bleach/_vendor/html5lib/treebuilders/__pycache__/dom.cpython-310.pyc",
                "path_type": "pyc_file"
            },
            {
                "_path": "lib/python3.10/site-packages/bleach/_vendor/html5lib/treebuilders/__pycache__/etree.cpython-310.pyc",
                "path_type": "pyc_file"
            },
            {
                "_path": "lib/python3.10/site-packages/bleach/_vendor/html5lib/treebuilders/__pycache__/etree_lxml.cpython-310.pyc",
                "path_type": "pyc_file"
            },
            {
                "_path": "lib/python3.10/site-packages/bleach/_vendor/html5lib/treewalkers/__pycache__/__init__.cpython-310.pyc",
                "path_type": "pyc_file"
            },
            {
                "_path": "lib/python3.10/site-packages/bleach/_vendor/html5lib/treewalkers/__pycache__/base.cpython-310.pyc",
                "path_type": "pyc_file"
            },
            {
                "_path": "lib/python3.10/site-packages/bleach/_vendor/html5lib/treewalkers/__pycache__/dom.cpython-310.pyc",
                "path_type": "pyc_file"
            },
            {
                "_path": "lib/python3.10/site-packages/bleach/_vendor/html5lib/treewalkers/__pycache__/etree.cpython-310.pyc",
                "path_type": "pyc_file"
            },
            {
                "_path": "lib/python3.10/site-packages/bleach/_vendor/html5lib/treewalkers/__pycache__/etree_lxml.cpython-310.pyc",
                "path_type": "pyc_file"
            },
            {
                "_path": "lib/python3.10/site-packages/bleach/_vendor/html5lib/treewalkers/__pycache__/genshi.cpython-310.pyc",
                "path_type": "pyc_file"
            },
            {
                "_path": "lib/python3.10/site-packages/bleach/_vendor/__pycache__/parse.cpython-310.pyc",
                "path_type": "pyc_file"
            },
            {
                "_path": "lib/python3.10/site-packages/bleach/__pycache__/callbacks.cpython-310.pyc",
                "path_type": "pyc_file"
            },
            {
                "_path": "lib/python3.10/site-packages/bleach/__pycache__/css_sanitizer.cpython-310.pyc",
                "path_type": "pyc_file"
            },
            {
                "_path": "lib/python3.10/site-packages/bleach/__pycache__/html5lib_shim.cpython-310.pyc",
                "path_type": "pyc_file"
            },
            {
                "_path": "lib/python3.10/site-packages/bleach/__pycache__/linkifier.cpython-310.pyc",
                "path_type": "pyc_file"
            },
            {
                "_path": "lib/python3.10/site-packages/bleach/__pycache__/parse_shim.cpython-310.pyc",
                "path_type": "pyc_file"
            },
            {
                "_path": "lib/python3.10/site-packages/bleach/__pycache__/sanitizer.cpython-310.pyc",
                "path_type": "pyc_file"
            }
        ],
        "paths_version": 1
    },
    "platform": null,
    "requested_spec": "",
    "sha256": "845e77ef495376c5c3c328ccfd746ca0ef1978150cae8eae61a300fe7755fb08",
    "size": 131220,
    "subdir": "noarch",
    "timestamp": 1696630354218,
    "track_features": "",
    "url": "https://conda.anaconda.org/conda-forge/noarch/bleach-6.1.0-pyhd8ed1ab_0.conda",
    "version": "6.1.0"
}