{
    "arch": "x86_64",
    "build": "py310h3845668_1",
    "build_number": 1,
    "build_string": "py310h3845668_1",
    "channel": "https://conda.anaconda.org/conda-forge/linux-64",
    "constrains": [],
    "depends": [
        "libgcc-ng >=12",
        "libstdcxx-ng >=12",
        "libzlib >=1.2.13,<1.3.0a0",
        "numpy >=1.13.3",
        "packaging",
        "pydantic >=2",
        "python >=3.10,<3.11.0a0",
        "python_abi 3.10.* *_cp310",
        "rich"
    ],
    "extracted_package_dir": "/eos/home-s/staj/Higg\t/micromamba/pkgs/correctionlib-2.5.0-py310h3845668_1",
    "files": [
        "bin/correction",
        "lib/python3.10/site-packages/correctionlib-2.5.0.dist-info/INSTALLER",
        "lib/python3.10/site-packages/correctionlib-2.5.0.dist-info/LICENSE",
        "lib/python3.10/site-packages/correctionlib-2.5.0.dist-info/METADATA",
        "lib/python3.10/site-packages/correctionlib-2.5.0.dist-info/RECORD",
        "lib/python3.10/site-packages/correctionlib-2.5.0.dist-info/REQUESTED",
        "lib/python3.10/site-packages/correctionlib-2.5.0.dist-info/WHEEL",
        "lib/python3.10/site-packages/correctionlib-2.5.0.dist-info/direct_url.json",
        "lib/python3.10/site-packages/correctionlib-2.5.0.dist-info/entry_points.txt",
        "lib/python3.10/site-packages/correctionlib-2.5.0.dist-info/top_level.txt",
        "lib/python3.10/site-packages/correctionlib/JSONEncoder.py",
        "lib/python3.10/site-packages/correctionlib/__init__.py",
        "lib/python3.10/site-packages/correctionlib/__pycache__/JSONEncoder.cpython-310.pyc",
        "lib/python3.10/site-packages/correctionlib/__pycache__/__init__.cpython-310.pyc",
        "lib/python3.10/site-packages/correctionlib/__pycache__/binding.cpython-310.pyc",
        "lib/python3.10/site-packages/correctionlib/__pycache__/cli.cpython-310.pyc",
        "lib/python3.10/site-packages/correctionlib/__pycache__/convert.cpython-310.pyc",
        "lib/python3.10/site-packages/correctionlib/__pycache__/highlevel.cpython-310.pyc",
        "lib/python3.10/site-packages/correctionlib/__pycache__/schemav1.cpython-310.pyc",
        "lib/python3.10/site-packages/correctionlib/__pycache__/schemav2.cpython-310.pyc",
        "lib/python3.10/site-packages/correctionlib/__pycache__/util.cpython-310.pyc",
        "lib/python3.10/site-packages/correctionlib/__pycache__/version.cpython-310.pyc",
        "lib/python3.10/site-packages/correctionlib/_core.cpython-310-x86_64-linux-gnu.so",
        "lib/python3.10/site-packages/correctionlib/binding.py",
        "lib/python3.10/site-packages/correctionlib/cli.py",
        "lib/python3.10/site-packages/correctionlib/cmake/correctionlib-targets-release.cmake",
        "lib/python3.10/site-packages/correctionlib/cmake/correctionlib-targets.cmake",
        "lib/python3.10/site-packages/correctionlib/cmake/correctionlibConfig.cmake",
        "lib/python3.10/site-packages/correctionlib/cmake/correctionlibConfigVersion.cmake",
        "lib/python3.10/site-packages/correctionlib/convert.py",
        "lib/python3.10/site-packages/correctionlib/highlevel.py",
        "lib/python3.10/site-packages/correctionlib/include/correction.h",
        "lib/python3.10/site-packages/correctionlib/include/correctionlib_version.h",
        "lib/python3.10/site-packages/correctionlib/lib/libcorrectionlib.so",
        "lib/python3.10/site-packages/correctionlib/schemav1.py",
        "lib/python3.10/site-packages/correctionlib/schemav2.py",
        "lib/python3.10/site-packages/correctionlib/util.py",
        "lib/python3.10/site-packages/correctionlib/version.py"
    ],
    "fn": "correctionlib-2.5.0-py310h3845668_1.conda",
    "license": "BSD-3-Clause",
    "link": {
        "source": "/eos/home-s/staj/Higg\t/micromamba/pkgs/correctionlib-2.5.0-py310h3845668_1",
        "type": 1
    },
    "md5": "983e932bfb9688d0fb5679edd6eea53c",
    "name": "correctionlib",
    "package_tarball_full_path": "/eos/home-s/staj/Higg\t/micromamba/pkgs/correctionlib-2.5.0-py310h3845668_1.tar.bz2",
    "paths_data": {
        "paths": [
            {
                "_path": "bin/correction",
                "path_type": "hardlink",
                "sha256": "e4a37ac52c8f65efde70a9d4d1f3aa9022c7061ee8c380cdc094274bcb62c519",
                "sha256_in_prefix": "a8d5d4fcde83c99bfaa8052b02a87478663549c7e26e4f8c9113117a60b08959",
                "size_in_bytes": 470
            },
            {
                "_path": "lib/python3.10/site-packages/correctionlib-2.5.0.dist-info/INSTALLER",
                "path_type": "hardlink",
                "sha256": "d0edee15f91b406f3f99726e44eb990be6e34fd0345b52b910c568e0eef6a2a8",
                "sha256_in_prefix": "d0edee15f91b406f3f99726e44eb990be6e34fd0345b52b910c568e0eef6a2a8",
                "size_in_bytes": 5
            },
            {
                "_path": "lib/python3.10/site-packages/correctionlib-2.5.0.dist-info/LICENSE",
                "path_type": "hardlink",
                "sha256": "0825edc6caa99df3f3fc7052ce61c32bf85da1ac2ae9a977be3e379cf30b6e37",
                "sha256_in_prefix": "0825edc6caa99df3f3fc7052ce61c32bf85da1ac2ae9a977be3e379cf30b6e37",
                "size_in_bytes": 1520
            },
            {
                "_path": "lib/python3.10/site-packages/correctionlib-2.5.0.dist-info/METADATA",
                "path_type": "hardlink",
                "sha256": "2f2bba0a31742af6c1176233bce6980d19b35c52b6d8e2626a543c9c60e1e52e",
                "sha256_in_prefix": "2f2bba0a31742af6c1176233bce6980d19b35c52b6d8e2626a543c9c60e1e52e",
                "size_in_bytes": 7280
            },
            {
                "_path": "lib/python3.10/site-packages/correctionlib-2.5.0.dist-info/RECORD",
                "path_type": "hardlink",
                "sha256": "7d0b4465a911236c18c626873cd3374d1d2fbff00b1cb585eff629fd66e32340",
                "sha256_in_prefix": "7d0b4465a911236c18c626873cd3374d1d2fbff00b1cb585eff629fd66e32340",
                "size_in_bytes": 3076
            },
            {
                "_path": "lib/python3.10/site-packages/correctionlib-2.5.0.dist-info/REQUESTED",
                "path_type": "hardlink",
                "sha256": "e3b0c44298fc1c149afbf4c8996fb92427ae41e4649b934ca495991b7852b855",
                "sha256_in_prefix": "e3b0c44298fc1c149afbf4c8996fb92427ae41e4649b934ca495991b7852b855"
            },
            {
                "_path": "lib/python3.10/site-packages/correctionlib-2.5.0.dist-info/WHEEL",
                "path_type": "hardlink",
                "sha256": "02143ee146fc4036edd58a0596bce4248a553b1ec1bb0450182bbfcd177e7806",
                "sha256_in_prefix": "02143ee146fc4036edd58a0596bce4248a553b1ec1bb0450182bbfcd177e7806",
                "size_in_bytes": 99
            },
            {
                "_path": "lib/python3.10/site-packages/correctionlib-2.5.0.dist-info/direct_url.json",
                "path_type": "hardlink",
                "sha256": "62d586778494ded5d22d08d230f6de5c96601360dbee48e3aa26c6041d0ab4d5",
                "sha256_in_prefix": "62d586778494ded5d22d08d230f6de5c96601360dbee48e3aa26c6041d0ab4d5",
                "size_in_bytes": 109
            },
            {
                "_path": "lib/python3.10/site-packages/correctionlib-2.5.0.dist-info/entry_points.txt",
                "path_type": "hardlink",
                "sha256": "72e4f922b2954a20be68b422ba81cbb632d609ed10e9865156a4c68d4642e420",
                "sha256_in_prefix": "72e4f922b2954a20be68b422ba81cbb632d609ed10e9865156a4c68d4642e420",
                "size_in_bytes": 54
            },
            {
                "_path": "lib/python3.10/site-packages/correctionlib-2.5.0.dist-info/top_level.txt",
                "path_type": "hardlink",
                "sha256": "102c7db762a3e40629b04805852fdaf552f1663e697a7e8e771ab7e66ff9596b",
                "sha256_in_prefix": "102c7db762a3e40629b04805852fdaf552f1663e697a7e8e771ab7e66ff9596b",
                "size_in_bytes": 14
            },
            {
                "_path": "lib/python3.10/site-packages/correctionlib/JSONEncoder.py",
                "path_type": "hardlink",
                "sha256": "afd54c12795f48f59840a7e8d6166deb4a7fee863a9246dc8b18f913dece3337",
                "sha256_in_prefix": "afd54c12795f48f59840a7e8d6166deb4a7fee863a9246dc8b18f913dece3337",
                "size_in_bytes": 8104
            },
            {
                "_path": "lib/python3.10/site-packages/correctionlib/__init__.py",
                "path_type": "hardlink",
                "sha256": "6a103cca873e812e76451c5d39d7f83ccf978e7d80ac673e246f24466fc6311d",
                "sha256_in_prefix": "6a103cca873e812e76451c5d39d7f83ccf978e7d80ac673e246f24466fc6311d",
                "size_in_bytes": 404
            },
            {
                "_path": "lib/python3.10/site-packages/correctionlib/__pycache__/JSONEncoder.cpython-310.pyc",
                "path_type": "hardlink",
                "sha256": "6d1c341255167fc945ad00113029f31604b347914b25d3920f2f17bb6f9556c3",
                "sha256_in_prefix": "6d1c341255167fc945ad00113029f31604b347914b25d3920f2f17bb6f9556c3",
                "size_in_bytes": 5564
            },
            {
                "_path": "lib/python3.10/site-packages/correctionlib/__pycache__/__init__.cpython-310.pyc",
                "path_type": "hardlink",
                "sha256": "5395be5eb0b7b4469961c0e1b36a588953474030d888df0316c414ad56598257",
                "sha256_in_prefix": "5395be5eb0b7b4469961c0e1b36a588953474030d888df0316c414ad56598257",
                "size_in_bytes": 537
            },
            {
                "_path": "lib/python3.10/site-packages/correctionlib/__pycache__/binding.cpython-310.pyc",
                "path_type": "hardlink",
                "sha256": "3e19a098ae136b8c86873b4a57521be16453780daa92c369730eeeb29f206c53",
                "sha256_in_prefix": "3e19a098ae136b8c86873b4a57521be16453780daa92c369730eeeb29f206c53",
                "size_in_bytes": 734
            },
            {
                "_path": "lib/python3.10/site-packages/correctionlib/__pycache__/cli.cpython-310.pyc",
                "path_type": "hardlink",
                "sha256": "4a65be18254f2479e45419b224ea46ed87791443b580ed4c8ed33e1c45d90bb6",
                "sha256_in_prefix": "4a65be18254f2479e45419b224ea46ed87791443b580ed4c8ed33e1c45d90bb6",
                "size_in_bytes": 5658
            },
            {
                "_path": "lib/python3.10/site-packages/correctionlib/__pycache__/convert.cpython-310.pyc",
                "path_type": "hardlink",
                "sha256": "6f85c046fbb2d25c587ab874e87c8570b56db62504fbdbcd17dd2c15175e1e16",
                "sha256_in_prefix": "6f85c046fbb2d25c587ab874e87c8570b56db62504fbdbcd17dd2c15175e1e16",
                "size_in_bytes": 7803
            },
            {
                "_path": "lib/python3.10/site-packages/correctionlib/__pycache__/highlevel.cpython-310.pyc",
                "path_type": "hardlink",
                "sha256": "384c9ad3378d751d8fe14592d8ba6dcde2a4eadad27de5cf4fb4aa531a88308c",
                "sha256_in_prefix": "384c9ad3378d751d8fe14592d8ba6dcde2a4eadad27de5cf4fb4aa531a88308c",
                "size_in_bytes": 14229
            },
            {
                "_path": "lib/python3.10/site-packages/correctionlib/__pycache__/schemav1.cpython-310.pyc",
                "path_type": "hardlink",
                "sha256": "8b58fb4017cad9701af0214b86b56d118ec268d486335b53423c6df18d97e8e2",
                "sha256_in_prefix": "8b58fb4017cad9701af0214b86b56d118ec268d486335b53423c6df18d97e8e2",
                "size_in_bytes": 2802
            },
            {
                "_path": "lib/python3.10/site-packages/correctionlib/__pycache__/schemav2.cpython-310.pyc",
                "path_type": "hardlink",
                "sha256": "73bcc2ee56af2071bcaea30cc649d5e28c58f5b453a413a625832e84ac5dde71",
                "sha256_in_prefix": "73bcc2ee56af2071bcaea30cc649d5e28c58f5b453a413a625832e84ac5dde71",
                "size_in_bytes": 21336
            },
            {
                "_path": "lib/python3.10/site-packages/correctionlib/__pycache__/util.cpython-310.pyc",
                "path_type": "hardlink",
                "sha256": "2c93205b66a86e534e707204136bfe7161dcaf0f80843d93804369102313b61a",
                "sha256_in_prefix": "2c93205b66a86e534e707204136bfe7161dcaf0f80843d93804369102313b61a",
                "size_in_bytes": 516
            },
            {
                "_path": "lib/python3.10/site-packages/correctionlib/__pycache__/version.cpython-310.pyc",
                "path_type": "hardlink",
                "sha256": "1e40bc1a892e8aa5cb488dd7b0875ef5bc5d2bffec9e30c51c40f04cc1378d4f",
                "sha256_in_prefix": "1e40bc1a892e8aa5cb488dd7b0875ef5bc5d2bffec9e30c51c40f04cc1378d4f",
                "size_in_bytes": 469
            },
            {
                "_path": "lib/python3.10/site-packages/correctionlib/_core.cpython-310-x86_64-linux-gnu.so",
                "path_type": "hardlink",
                "sha256": "4e6da9bfa539377c8cf9cbec634cbdb2e1a035d5a8140474704bd428794dcf14",
                "sha256_in_prefix": "4e6da9bfa539377c8cf9cbec634cbdb2e1a035d5a8140474704bd428794dcf14",
                "size_in_bytes": 264344
            },
            {
                "_path": "lib/python3.10/site-packages/correctionlib/binding.py",
                "path_type": "hardlink",
                "sha256": "4b2d6c95cafc4ce30eb67ad34928951273a8218e7b2fa0eb84b7cba0873541da",
                "sha256_in_prefix": "4b2d6c95cafc4ce30eb67ad34928951273a8218e7b2fa0eb84b7cba0873541da",
                "size_in_bytes": 588
            },
            {
                "_path": "lib/python3.10/site-packages/correctionlib/cli.py",
                "path_type": "hardlink",
                "sha256": "68571e3e33eab2bb411158010365e401ede8088b90d139976b09e4e9d1537ca6",
                "sha256_in_prefix": "68571e3e33eab2bb411158010365e401ede8088b90d139976b09e4e9d1537ca6",
                "size_in_bytes": 6549
            },
            {
                "_path": "lib/python3.10/site-packages/correctionlib/cmake/correctionlib-targets-release.cmake",
                "path_type": "hardlink",
                "sha256": "a9afad62c6b7c1d6ea949f53269de1214093d471dd44024c218c8ff1fe178b1f",
                "sha256_in_prefix": "a9afad62c6b7c1d6ea949f53269de1214093d471dd44024c218c8ff1fe178b1f",
                "size_in_bytes": 880
            },
            {
                "_path": "lib/python3.10/site-packages/correctionlib/cmake/correctionlib-targets.cmake",
                "path_type": "hardlink",
                "sha256": "e55ec45972cc84ae1a7fe6320127cf6d129a13a02ddf832ce33211be275c3b51",
                "sha256_in_prefix": "e55ec45972cc84ae1a7fe6320127cf6d129a13a02ddf832ce33211be275c3b51",
                "size_in_bytes": 4084
            },
            {
                "_path": "lib/python3.10/site-packages/correctionlib/cmake/correctionlibConfig.cmake",
                "path_type": "hardlink",
                "sha256": "489299f5b9cbdf7c4824d3b3afe3a76007834fc73d712d627718a36bb7c71b1a",
                "sha256_in_prefix": "489299f5b9cbdf7c4824d3b3afe3a76007834fc73d712d627718a36bb7c71b1a",
                "size_in_bytes": 480
            },
            {
                "_path": "lib/python3.10/site-packages/correctionlib/cmake/correctionlibConfigVersion.cmake",
                "path_type": "hardlink",
                "sha256": "b2c2a29c18410668a6d531ef6e770288e43e825f1724813cf503832cd9cf2875",
                "sha256_in_prefix": "b2c2a29c18410668a6d531ef6e770288e43e825f1724813cf503832cd9cf2875",
                "size_in_bytes": 1859
            },
            {
                "_path": "lib/python3.10/site-packages/correctionlib/convert.py",
                "path_type": "hardlink",
                "sha256": "a534c4040d66fad3917ae60eeecd1ac900f3abf58ec15fc3faff8545611a53d3",
                "sha256_in_prefix": "a534c4040d66fad3917ae60eeecd1ac900f3abf58ec15fc3faff8545611a53d3",
                "size_in_bytes": 8380
            },
            {
                "_path": "lib/python3.10/site-packages/correctionlib/highlevel.py",
                "path_type": "hardlink",
                "sha256": "c982af568868fc9d57aad17acf51a0d1a90b89b82c6e29933d2ea967d6f7223b",
                "sha256_in_prefix": "c982af568868fc9d57aad17acf51a0d1a90b89b82c6e29933d2ea967d6f7223b",
                "size_in_bytes": 13345
            },
            {
                "_path": "lib/python3.10/site-packages/correctionlib/include/correction.h",
                "path_type": "hardlink",
                "sha256": "6b65480ba704c0a6aef6def0957d335090792220e3f07851e3413df378db7995",
                "sha256_in_prefix": "6b65480ba704c0a6aef6def0957d335090792220e3f07851e3413df378db7995",
                "size_in_bytes": 8772
            },
            {
                "_path": "lib/python3.10/site-packages/correctionlib/include/correctionlib_version.h",
                "path_type": "hardlink",
                "sha256": "af11153ccc94239ba849563262ec39d714aca13c370fe6e1d2ad258fb4150f82",
                "sha256_in_prefix": "af11153ccc94239ba849563262ec39d714aca13c370fe6e1d2ad258fb4150f82",
                "size_in_bytes": 307
            },
            {
                "_path": "lib/python3.10/site-packages/correctionlib/lib/libcorrectionlib.so",
                "path_type": "hardlink",
                "sha256": "17f8a72371c9d73dbf9232d8dd29bde14e8cdab558cc1eaf474b7738407c6ecf",
                "sha256_in_prefix": "17f8a72371c9d73dbf9232d8dd29bde14e8cdab558cc1eaf474b7738407c6ecf",
                "size_in_bytes": 784384
            },
            {
                "_path": "lib/python3.10/site-packages/correctionlib/schemav1.py",
                "path_type": "hardlink",
                "sha256": "bbcad39114e8b09675b57db03fd2b168bd725946419b52bcd6c645e5a0f62157",
                "sha256_in_prefix": "bbcad39114e8b09675b57db03fd2b168bd725946419b52bcd6c645e5a0f62157",
                "size_in_bytes": 2273
            },
            {
                "_path": "lib/python3.10/site-packages/correctionlib/schemav2.py",
                "path_type": "hardlink",
                "sha256": "253412ba52493fb3ef1c41b87881e01062cc18de5ca70798f51a747613050d29",
                "sha256_in_prefix": "253412ba52493fb3ef1c41b87881e01062cc18de5ca70798f51a747613050d29",
                "size_in_bytes": 20756
            },
            {
                "_path": "lib/python3.10/site-packages/correctionlib/util.py",
                "path_type": "hardlink",
                "sha256": "62a3306a6f96ffe6326a4f9161398c17b39fa1106fcf5caf2d3deb43476b548d",
                "sha256_in_prefix": "62a3306a6f96ffe6326a4f9161398c17b39fa1106fcf5caf2d3deb43476b548d",
                "size_in_bytes": 492
            },
            {
                "_path": "lib/python3.10/site-packages/correctionlib/version.py",
                "path_type": "hardlink",
                "sha256": "db6b5f44cf4ec0530d6697db6394b085e86d4fff258f2fffb3c8aac60bde8a61",
                "sha256_in_prefix": "db6b5f44cf4ec0530d6697db6394b085e86d4fff258f2fffb3c8aac60bde8a61",
                "size_in_bytes": 411
            }
        ],
        "paths_version": 1
    },
    "platform": "linux",
    "requested_spec": "correctionlib==2.5.0",
    "sha256": "24c48418122144d9d02ba8f304330f511e140defa58269397ce15947dc8a4024",
    "size": 364800,
    "subdir": "linux-64",
    "timestamp": 1706923015992,
    "track_features": "",
    "url": "https://conda.anaconda.org/conda-forge/linux-64/correctionlib-2.5.0-py310h3845668_1.conda",
    "version": "2.5.0"
}