{
    "arch": null,
    "build": "hab24e00_0",
    "build_number": 0,
    "build_string": "hab24e00_0",
    "channel": "https://conda.anaconda.org/conda-forge/noarch",
    "constrains": [],
    "depends": [],
    "extracted_package_dir": "/eos/home-s/staj/Higg\t/micromamba/pkgs/font-ttf-dejavu-sans-mono-2.37-hab24e00_0",
    "files": [
        "fonts/DejaVuSans.ttf"
    ],
    "fn": "font-ttf-dejavu-sans-mono-2.37-hab24e00_0.tar.bz2",
    "license": "BSD-3-Clause",
    "license_family": "BSD",
    "link": {
        "source": "/eos/home-s/staj/Higg\t/micromamba/pkgs/font-ttf-dejavu-sans-mono-2.37-hab24e00_0",
        "type": 1
    },
    "md5": "0c96522c6bdaed4b1566d11387caaf45",
    "name": "font-ttf-dejavu-sans-mono",
    "noarch": "generic",
    "package_tarball_full_path": "/eos/home-s/staj/Higg\t/micromamba/pkgs/font-ttf-dejavu-sans-mono-2.37-hab24e00_0.tar.bz2",
    "paths_data": {
        "paths": [
            {
                "_path": "fonts/DejaVuSans.ttf",
                "path_type": "hardlink",
                "sha256": "7da195a74c55bef988d0d48f9508bd5d849425c1770dba5d7bfc6ce9ed848954",
                "sha256_in_prefix": "7da195a74c55bef988d0d48f9508bd5d849425c1770dba5d7bfc6ce9ed848954",
                "size_in_bytes": 757076
            }
        ],
        "paths_version": 1
    },
    "platform": null,
    "requested_spec": "",
    "sha256": "58d7f40d2940dd0a8aa28651239adbf5613254df0f75789919c4e6762054403b",
    "size": 397370,
    "subdir": "noarch",
    "timestamp": 1566932522327,
    "track_features": "",
    "url": "https://conda.anaconda.org/conda-forge/noarch/font-ttf-dejavu-sans-mono-2.37-hab24e00_0.tar.bz2",
    "version": "2.37"
}