{
    "arch": "x86_64",
    "build": "haf2f30d_0",
    "build_number": 0,
    "build_string": "haf2f30d_0",
    "channel": "https://conda.anaconda.org/conda-forge/linux-64",
    "constrains": [],
    "depends": [
        "__glibc >=2.17,<3.0.a0",
        "glib >=2.80.2,<3.0a0",
        "libgcc-ng >=12",
        "libglib >=2.80.2,<3.0a0",
        "libiconv >=1.17,<2.0a0",
        "libstdcxx-ng >=12"
    ],
    "extracted_package_dir": "/eos/home-s/staj/Higg\t/micromamba/pkgs/gstreamer-1.24.5-haf2f30d_0",
    "files": [
        "bin/gst-inspect-1.0",
        "bin/gst-launch-1.0",
        "bin/gst-stats-1.0",
        "bin/gst-typefind-1.0",
        "include/gstreamer-1.0/gst/base/base-prelude.h",
        "include/gstreamer-1.0/gst/base/base.h",
        "include/gstreamer-1.0/gst/base/gstadapter.h",
        "include/gstreamer-1.0/gst/base/gstaggregator.h",
        "include/gstreamer-1.0/gst/base/gstbaseparse.h",
        "include/gstreamer-1.0/gst/base/gstbasesink.h",
        "include/gstreamer-1.0/gst/base/gstbasesrc.h",
        "include/gstreamer-1.0/gst/base/gstbasetransform.h",
        "include/gstreamer-1.0/gst/base/gstbitreader.h",
        "include/gstreamer-1.0/gst/base/gstbitwriter.h",
        "include/gstreamer-1.0/gst/base/gstbytereader.h",
        "include/gstreamer-1.0/gst/base/gstbytewriter.h",
        "include/gstreamer-1.0/gst/base/gstcollectpads.h",
        "include/gstreamer-1.0/gst/base/gstdataqueue.h",
        "include/gstreamer-1.0/gst/base/gstflowcombiner.h",
        "include/gstreamer-1.0/gst/base/gstpushsrc.h",
        "include/gstreamer-1.0/gst/base/gstqueuearray.h",
        "include/gstreamer-1.0/gst/base/gsttypefindhelper.h",
        "include/gstreamer-1.0/gst/check/check-prelude.h",
        "include/gstreamer-1.0/gst/check/check.h",
        "include/gstreamer-1.0/gst/check/gstbufferstraw.h",
        "include/gstreamer-1.0/gst/check/gstcheck.h",
        "include/gstreamer-1.0/gst/check/gstconsistencychecker.h",
        "include/gstreamer-1.0/gst/check/gstharness.h",
        "include/gstreamer-1.0/gst/check/gsttestclock.h",
        "include/gstreamer-1.0/gst/check/internal-check.h",
        "include/gstreamer-1.0/gst/controller/controller-enumtypes.h",
        "include/gstreamer-1.0/gst/controller/controller-prelude.h",
        "include/gstreamer-1.0/gst/controller/controller.h",
        "include/gstreamer-1.0/gst/controller/gstargbcontrolbinding.h",
        "include/gstreamer-1.0/gst/controller/gstdirectcontrolbinding.h",
        "include/gstreamer-1.0/gst/controller/gstinterpolationcontrolsource.h",
        "include/gstreamer-1.0/gst/controller/gstlfocontrolsource.h",
        "include/gstreamer-1.0/gst/controller/gstproxycontrolbinding.h",
        "include/gstreamer-1.0/gst/controller/gsttimedvaluecontrolsource.h",
        "include/gstreamer-1.0/gst/controller/gsttriggercontrolsource.h",
        "include/gstreamer-1.0/gst/glib-compat.h",
        "include/gstreamer-1.0/gst/gst.h",
        "include/gstreamer-1.0/gst/gstallocator.h",
        "include/gstreamer-1.0/gst/gstatomicqueue.h",
        "include/gstreamer-1.0/gst/gstbin.h",
        "include/gstreamer-1.0/gst/gstbuffer.h",
        "include/gstreamer-1.0/gst/gstbufferlist.h",
        "include/gstreamer-1.0/gst/gstbufferpool.h",
        "include/gstreamer-1.0/gst/gstbus.h",
        "include/gstreamer-1.0/gst/gstbytearrayinterface.h",
        "include/gstreamer-1.0/gst/gstcaps.h",
        "include/gstreamer-1.0/gst/gstcapsfeatures.h",
        "include/gstreamer-1.0/gst/gstchildproxy.h",
        "include/gstreamer-1.0/gst/gstclock.h",
        "include/gstreamer-1.0/gst/gstcompat.h",
        "include/gstreamer-1.0/gst/gstconfig.h",
        "include/gstreamer-1.0/gst/gstcontext.h",
        "include/gstreamer-1.0/gst/gstcontrolbinding.h",
        "include/gstreamer-1.0/gst/gstcontrolsource.h",
        "include/gstreamer-1.0/gst/gstdatetime.h",
        "include/gstreamer-1.0/gst/gstdebugutils.h",
        "include/gstreamer-1.0/gst/gstdevice.h",
        "include/gstreamer-1.0/gst/gstdevicemonitor.h",
        "include/gstreamer-1.0/gst/gstdeviceprovider.h",
        "include/gstreamer-1.0/gst/gstdeviceproviderfactory.h",
        "include/gstreamer-1.0/gst/gstdynamictypefactory.h",
        "include/gstreamer-1.0/gst/gstelement.h",
        "include/gstreamer-1.0/gst/gstelementfactory.h",
        "include/gstreamer-1.0/gst/gstelementmetadata.h",
        "include/gstreamer-1.0/gst/gstenumtypes.h",
        "include/gstreamer-1.0/gst/gsterror.h",
        "include/gstreamer-1.0/gst/gstevent.h",
        "include/gstreamer-1.0/gst/gstformat.h",
        "include/gstreamer-1.0/gst/gstghostpad.h",
        "include/gstreamer-1.0/gst/gstinfo.h",
        "include/gstreamer-1.0/gst/gstiterator.h",
        "include/gstreamer-1.0/gst/gstmacros.h",
        "include/gstreamer-1.0/gst/gstmemory.h",
        "include/gstreamer-1.0/gst/gstmessage.h",
        "include/gstreamer-1.0/gst/gstmeta.h",
        "include/gstreamer-1.0/gst/gstminiobject.h",
        "include/gstreamer-1.0/gst/gstobject.h",
        "include/gstreamer-1.0/gst/gstpad.h",
        "include/gstreamer-1.0/gst/gstpadtemplate.h",
        "include/gstreamer-1.0/gst/gstparamspecs.h",
        "include/gstreamer-1.0/gst/gstparse.h",
        "include/gstreamer-1.0/gst/gstpipeline.h",
        "include/gstreamer-1.0/gst/gstplugin.h",
        "include/gstreamer-1.0/gst/gstpluginfeature.h",
        "include/gstreamer-1.0/gst/gstpoll.h",
        "include/gstreamer-1.0/gst/gstpreset.h",
        "include/gstreamer-1.0/gst/gstpromise.h",
        "include/gstreamer-1.0/gst/gstprotection.h",
        "include/gstreamer-1.0/gst/gstquery.h",
        "include/gstreamer-1.0/gst/gstregistry.h",
        "include/gstreamer-1.0/gst/gstsample.h",
        "include/gstreamer-1.0/gst/gstsegment.h",
        "include/gstreamer-1.0/gst/gststreamcollection.h",
        "include/gstreamer-1.0/gst/gststreams.h",
        "include/gstreamer-1.0/gst/gststructure.h",
        "include/gstreamer-1.0/gst/gstsystemclock.h",
        "include/gstreamer-1.0/gst/gsttaglist.h",
        "include/gstreamer-1.0/gst/gsttagsetter.h",
        "include/gstreamer-1.0/gst/gsttask.h",
        "include/gstreamer-1.0/gst/gsttaskpool.h",
        "include/gstreamer-1.0/gst/gsttoc.h",
        "include/gstreamer-1.0/gst/gsttocsetter.h",
        "include/gstreamer-1.0/gst/gsttracer.h",
        "include/gstreamer-1.0/gst/gsttracerfactory.h",
        "include/gstreamer-1.0/gst/gsttracerrecord.h",
        "include/gstreamer-1.0/gst/gsttypefind.h",
        "include/gstreamer-1.0/gst/gsttypefindfactory.h",
        "include/gstreamer-1.0/gst/gsturi.h",
        "include/gstreamer-1.0/gst/gstutils.h",
        "include/gstreamer-1.0/gst/gstvalue.h",
        "include/gstreamer-1.0/gst/gstversion.h",
        "include/gstreamer-1.0/gst/math-compat.h",
        "include/gstreamer-1.0/gst/net/gstnet.h",
        "include/gstreamer-1.0/gst/net/gstnetaddressmeta.h",
        "include/gstreamer-1.0/gst/net/gstnetclientclock.h",
        "include/gstreamer-1.0/gst/net/gstnetcontrolmessagemeta.h",
        "include/gstreamer-1.0/gst/net/gstnettimepacket.h",
        "include/gstreamer-1.0/gst/net/gstnettimeprovider.h",
        "include/gstreamer-1.0/gst/net/gstnetutils.h",
        "include/gstreamer-1.0/gst/net/gstptpclock.h",
        "include/gstreamer-1.0/gst/net/net-prelude.h",
        "include/gstreamer-1.0/gst/net/net.h",
        "lib/girepository-1.0/Gst-1.0.typelib",
        "lib/girepository-1.0/GstBase-1.0.typelib",
        "lib/girepository-1.0/GstCheck-1.0.typelib",
        "lib/girepository-1.0/GstController-1.0.typelib",
        "lib/girepository-1.0/GstNet-1.0.typelib",
        "lib/gstreamer-1.0/libgstcoreelements.so",
        "lib/gstreamer-1.0/libgstcoretracers.so",
        "lib/libgstbase-1.0.so",
        "lib/libgstbase-1.0.so.0",
        "lib/libgstbase-1.0.so.0.2405.0",
        "lib/libgstcheck-1.0.so",
        "lib/libgstcheck-1.0.so.0",
        "lib/libgstcheck-1.0.so.0.2405.0",
        "lib/libgstcontroller-1.0.so",
        "lib/libgstcontroller-1.0.so.0",
        "lib/libgstcontroller-1.0.so.0.2405.0",
        "lib/libgstnet-1.0.so",
        "lib/libgstnet-1.0.so.0",
        "lib/libgstnet-1.0.so.0.2405.0",
        "lib/libgstreamer-1.0.so",
        "lib/libgstreamer-1.0.so.0",
        "lib/libgstreamer-1.0.so.0.2405.0",
        "lib/pkgconfig/gstreamer-1.0.pc",
        "lib/pkgconfig/gstreamer-base-1.0.pc",
        "lib/pkgconfig/gstreamer-check-1.0.pc",
        "lib/pkgconfig/gstreamer-controller-1.0.pc",
        "lib/pkgconfig/gstreamer-net-1.0.pc",
        "libexec/gstreamer-1.0/gst-completion-helper",
        "libexec/gstreamer-1.0/gst-hotdoc-plugins-scanner",
        "libexec/gstreamer-1.0/gst-plugin-scanner",
        "libexec/gstreamer-1.0/gst-plugins-doc-cache-generator",
        "share/aclocal/gst-element-check-1.0.m4",
        "share/gir-1.0/Gst-1.0.gir",
        "share/gir-1.0/GstBase-1.0.gir",
        "share/gir-1.0/GstCheck-1.0.gir",
        "share/gir-1.0/GstController-1.0.gir",
        "share/gir-1.0/GstNet-1.0.gir",
        "share/locale/af/LC_MESSAGES/gstreamer-1.0.mo",
        "share/locale/ast/LC_MESSAGES/gstreamer-1.0.mo",
        "share/locale/az/LC_MESSAGES/gstreamer-1.0.mo",
        "share/locale/be/LC_MESSAGES/gstreamer-1.0.mo",
        "share/locale/bg/LC_MESSAGES/gstreamer-1.0.mo",
        "share/locale/ca/LC_MESSAGES/gstreamer-1.0.mo",
        "share/locale/cs/LC_MESSAGES/gstreamer-1.0.mo",
        "share/locale/da/LC_MESSAGES/gstreamer-1.0.mo",
        "share/locale/de/LC_MESSAGES/gstreamer-1.0.mo",
        "share/locale/el/LC_MESSAGES/gstreamer-1.0.mo",
        "share/locale/en_GB/LC_MESSAGES/gstreamer-1.0.mo",
        "share/locale/eo/LC_MESSAGES/gstreamer-1.0.mo",
        "share/locale/es/LC_MESSAGES/gstreamer-1.0.mo",
        "share/locale/eu/LC_MESSAGES/gstreamer-1.0.mo",
        "share/locale/fi/LC_MESSAGES/gstreamer-1.0.mo",
        "share/locale/fr/LC_MESSAGES/gstreamer-1.0.mo",
        "share/locale/fur/LC_MESSAGES/gstreamer-1.0.mo",
        "share/locale/gl/LC_MESSAGES/gstreamer-1.0.mo",
        "share/locale/hr/LC_MESSAGES/gstreamer-1.0.mo",
        "share/locale/hu/LC_MESSAGES/gstreamer-1.0.mo",
        "share/locale/id/LC_MESSAGES/gstreamer-1.0.mo",
        "share/locale/it/LC_MESSAGES/gstreamer-1.0.mo",
        "share/locale/ja/LC_MESSAGES/gstreamer-1.0.mo",
        "share/locale/ka/LC_MESSAGES/gstreamer-1.0.mo",
        "share/locale/ko/LC_MESSAGES/gstreamer-1.0.mo",
        "share/locale/lt/LC_MESSAGES/gstreamer-1.0.mo",
        "share/locale/lv/LC_MESSAGES/gstreamer-1.0.mo",
        "share/locale/nb/LC_MESSAGES/gstreamer-1.0.mo",
        "share/locale/nl/LC_MESSAGES/gstreamer-1.0.mo",
        "share/locale/pl/LC_MESSAGES/gstreamer-1.0.mo",
        "share/locale/pt_BR/LC_MESSAGES/gstreamer-1.0.mo",
        "share/locale/ro/LC_MESSAGES/gstreamer-1.0.mo",
        "share/locale/ru/LC_MESSAGES/gstreamer-1.0.mo",
        "share/locale/rw/LC_MESSAGES/gstreamer-1.0.mo",
        "share/locale/sk/LC_MESSAGES/gstreamer-1.0.mo",
        "share/locale/sl/LC_MESSAGES/gstreamer-1.0.mo",
        "share/locale/sq/LC_MESSAGES/gstreamer-1.0.mo",
        "share/locale/sr/LC_MESSAGES/gstreamer-1.0.mo",
        "share/locale/sv/LC_MESSAGES/gstreamer-1.0.mo",
        "share/locale/tr/LC_MESSAGES/gstreamer-1.0.mo",
        "share/locale/uk/LC_MESSAGES/gstreamer-1.0.mo",
        "share/locale/vi/LC_MESSAGES/gstreamer-1.0.mo",
        "share/locale/zh_CN/LC_MESSAGES/gstreamer-1.0.mo",
        "share/locale/zh_TW/LC_MESSAGES/gstreamer-1.0.mo",
        "share/man/man1/gst-inspect-1.0.1",
        "share/man/man1/gst-launch-1.0.1",
        "share/man/man1/gst-stats-1.0.1",
        "share/man/man1/gst-typefind-1.0.1"
    ],
    "fn": "gstreamer-1.24.5-haf2f30d_0.conda",
    "license": "LGPL-2.0-or-later",
    "link": {
        "source": "/eos/home-s/staj/Higg\t/micromamba/pkgs/gstreamer-1.24.5-haf2f30d_0",
        "type": 1
    },
    "md5": "c5252c02592373fa8caf5a5327165a89",
    "name": "gstreamer",
    "package_tarball_full_path": "/eos/home-s/staj/Higg\t/micromamba/pkgs/gstreamer-1.24.5-haf2f30d_0.tar.bz2",
    "paths_data": {
        "paths": [
            {
                "_path": "bin/gst-inspect-1.0",
                "path_type": "hardlink",
                "sha256": "cc69e59dd90a850b776c03f70bd91e15543937c29d4798c3ed67d1b1162746ec",
                "sha256_in_prefix": "fe67f6da29dcfbbf47eebf46287bbfce6314eb83dff2e8b92b6924b9a234bf94",
                "size_in_bytes": 75344
            },
            {
                "_path": "bin/gst-launch-1.0",
                "path_type": "hardlink",
                "sha256": "34d51e42e059390a51141194c8d577116f4ffaad6b03ea3f7f98f328ee333a85",
                "sha256_in_prefix": "d00e32f8f6fdc708eb0227d27bf2a83d38da12b21a34e5cc4dcfd7965be2200d",
                "size_in_bytes": 48256
            },
            {
                "_path": "bin/gst-stats-1.0",
                "path_type": "hardlink",
                "sha256": "a0b0a45f8afce1df5e4fc208532fb9c690076ee7a6a8bb68d1d954198aaecfe9",
                "sha256_in_prefix": "bb7ee2ca9024b010a4e6a390403d545e60a8a68e49fafe04e35e1f43d6136bd6",
                "size_in_bytes": 46544
            },
            {
                "_path": "bin/gst-typefind-1.0",
                "path_type": "hardlink",
                "sha256": "d8733cf46b152935e66b6d4b91ced7d9f7b2d9861dafcf27029cd3bddb00ab45",
                "sha256_in_prefix": "ba0d5adb925f34c4bc95c4e435e48591ea0eb2052dd68f58a083312078c6be48",
                "size_in_bytes": 21984
            },
            {
                "_path": "include/gstreamer-1.0/gst/base/base-prelude.h",
                "path_type": "hardlink",
                "sha256": "8e70f1144dd336df076b3f38f4f47515c7ea330333661b64313e62f9209397aa",
                "sha256_in_prefix": "8e70f1144dd336df076b3f38f4f47515c7ea330333661b64313e62f9209397aa",
                "size_in_bytes": 1171
            },
            {
                "_path": "include/gstreamer-1.0/gst/base/base.h",
                "path_type": "hardlink",
                "sha256": "87feb01841b454da277bc7a2b67c1c0c454abc11c1cbb1742d48fb7fa85e643f",
                "sha256_in_prefix": "87feb01841b454da277bc7a2b67c1c0c454abc11c1cbb1742d48fb7fa85e643f",
                "size_in_bytes": 1545
            },
            {
                "_path": "include/gstreamer-1.0/gst/base/gstadapter.h",
                "path_type": "hardlink",
                "sha256": "f49b22ca0967f1359cab8af0a1c4945e1debd006d54e48c8ab25632b05223056",
                "sha256_in_prefix": "f49b22ca0967f1359cab8af0a1c4945e1debd006d54e48c8ab25632b05223056",
                "size_in_bytes": 5343
            },
            {
                "_path": "include/gstreamer-1.0/gst/base/gstaggregator.h",
                "path_type": "hardlink",
                "sha256": "9b28fed6f026d6b3fde085794806d3ab695b54591e12a60ab77bd20ab9296252",
                "sha256_in_prefix": "9b28fed6f026d6b3fde085794806d3ab695b54591e12a60ab77bd20ab9296252",
                "size_in_bytes": 19748
            },
            {
                "_path": "include/gstreamer-1.0/gst/base/gstbaseparse.h",
                "path_type": "hardlink",
                "sha256": "26b39c6f94f0a37f894c0ce1e348db1954a22d3ac0a9b251611330a2bd028195",
                "sha256_in_prefix": "26b39c6f94f0a37f894c0ce1e348db1954a22d3ac0a9b251611330a2bd028195",
                "size_in_bytes": 16560
            },
            {
                "_path": "include/gstreamer-1.0/gst/base/gstbasesink.h",
                "path_type": "hardlink",
                "sha256": "12045905d45c83020b2e39742657bd9aa70fb59da2a9b58c4c9a292f4eb07512",
                "sha256_in_prefix": "12045905d45c83020b2e39742657bd9aa70fb59da2a9b58c4c9a292f4eb07512",
                "size_in_bytes": 13234
            },
            {
                "_path": "include/gstreamer-1.0/gst/base/gstbasesrc.h",
                "path_type": "hardlink",
                "sha256": "9c2e6887362f23b6712f185c352ba55fc92b063d086052b9a9429783fbc1f34b",
                "sha256_in_prefix": "9c2e6887362f23b6712f185c352ba55fc92b063d086052b9a9429783fbc1f34b",
                "size_in_bytes": 13505
            },
            {
                "_path": "include/gstreamer-1.0/gst/base/gstbasetransform.h",
                "path_type": "hardlink",
                "sha256": "270122c23620ed692ba384da5770b60870564981bd4716f9c79422382ab229d2",
                "sha256_in_prefix": "270122c23620ed692ba384da5770b60870564981bd4716f9c79422382ab229d2",
                "size_in_bytes": 17051
            },
            {
                "_path": "include/gstreamer-1.0/gst/base/gstbitreader.h",
                "path_type": "hardlink",
                "sha256": "31be5c1bba0fdde497489c7c795b1d837ac2b61c74cd684faf152794248c6c2e",
                "sha256_in_prefix": "31be5c1bba0fdde497489c7c795b1d837ac2b61c74cd684faf152794248c6c2e",
                "size_in_bytes": 9743
            },
            {
                "_path": "include/gstreamer-1.0/gst/base/gstbitwriter.h",
                "path_type": "hardlink",
                "sha256": "0e588c9f424badbcb3e1cc2ddb79c7e0b042897a881cfc6e9fbfb1af45cea2c5",
                "sha256_in_prefix": "0e588c9f424badbcb3e1cc2ddb79c7e0b042897a881cfc6e9fbfb1af45cea2c5",
                "size_in_bytes": 11850
            },
            {
                "_path": "include/gstreamer-1.0/gst/base/gstbytereader.h",
                "path_type": "hardlink",
                "sha256": "1a62a3cefeb57b756465b95fd2a4e317149f24b504b3aafa1fed19db0656754a",
                "sha256_in_prefix": "1a62a3cefeb57b756465b95fd2a4e317149f24b504b3aafa1fed19db0656754a",
                "size_in_bytes": 25281
            },
            {
                "_path": "include/gstreamer-1.0/gst/base/gstbytewriter.h",
                "path_type": "hardlink",
                "sha256": "21260d3a1af456097d50777dc9aaa66903eca79868e9f9adb34d3baa623383a0",
                "sha256_in_prefix": "21260d3a1af456097d50777dc9aaa66903eca79868e9f9adb34d3baa623383a0",
                "size_in_bytes": 16345
            },
            {
                "_path": "include/gstreamer-1.0/gst/base/gstcollectpads.h",
                "path_type": "hardlink",
                "sha256": "3955df56520a308222ef807bf89a47bdef0bd6c20e790f49e17e48146b193135",
                "sha256_in_prefix": "3955df56520a308222ef807bf89a47bdef0bd6c20e790f49e17e48146b193135",
                "size_in_bytes": 17283
            },
            {
                "_path": "include/gstreamer-1.0/gst/base/gstdataqueue.h",
                "path_type": "hardlink",
                "sha256": "e0be338c8d4d6a6f0dc121f1b33977f02c2cff58b92f53b86b2d0ae7c8475a3f",
                "sha256_in_prefix": "e0be338c8d4d6a6f0dc121f1b33977f02c2cff58b92f53b86b2d0ae7c8475a3f",
                "size_in_bytes": 5581
            },
            {
                "_path": "include/gstreamer-1.0/gst/base/gstflowcombiner.h",
                "path_type": "hardlink",
                "sha256": "93d05ad7fc8523db1bd149ea34955666fa03aadae9d72c1afdc8d3a770c00c19",
                "sha256_in_prefix": "93d05ad7fc8523db1bd149ea34955666fa03aadae9d72c1afdc8d3a770c00c19",
                "size_in_bytes": 2520
            },
            {
                "_path": "include/gstreamer-1.0/gst/base/gstpushsrc.h",
                "path_type": "hardlink",
                "sha256": "c8372ec1cb393967ebf17e1280ef0b9132488189d9a266c6669ec388e8bb8958",
                "sha256_in_prefix": "c8372ec1cb393967ebf17e1280ef0b9132488189d9a266c6669ec388e8bb8958",
                "size_in_bytes": 3553
            },
            {
                "_path": "include/gstreamer-1.0/gst/base/gstqueuearray.h",
                "path_type": "hardlink",
                "sha256": "140973f7ffb371ec2def6e125744f05789a34cbf336b6b643b6db2b143595231",
                "sha256_in_prefix": "140973f7ffb371ec2def6e125744f05789a34cbf336b6b643b6db2b143595231",
                "size_in_bytes": 4375
            },
            {
                "_path": "include/gstreamer-1.0/gst/base/gsttypefindhelper.h",
                "path_type": "hardlink",
                "sha256": "6b1fda4dbe18ade33b09190d0494a0a90e5dc654b9c5520135b87ec6d9b54a52",
                "sha256_in_prefix": "6b1fda4dbe18ade33b09190d0494a0a90e5dc654b9c5520135b87ec6d9b54a52",
                "size_in_bytes": 6392
            },
            {
                "_path": "include/gstreamer-1.0/gst/check/check-prelude.h",
                "path_type": "hardlink",
                "sha256": "a0a9c41fc0445215c124f891bcfe000e2369deced647bc9bcca7413801968534",
                "sha256_in_prefix": "a0a9c41fc0445215c124f891bcfe000e2369deced647bc9bcca7413801968534",
                "size_in_bytes": 1445
            },
            {
                "_path": "include/gstreamer-1.0/gst/check/check.h",
                "path_type": "hardlink",
                "sha256": "55ac0295f87164e15687cbb5bf60a8416e108c046e16afaf9b93068922910758",
                "sha256_in_prefix": "55ac0295f87164e15687cbb5bf60a8416e108c046e16afaf9b93068922910758",
                "size_in_bytes": 1169
            },
            {
                "_path": "include/gstreamer-1.0/gst/check/gstbufferstraw.h",
                "path_type": "hardlink",
                "sha256": "ca8d017467e073c2fc0fe0f79b83bb29ea91f044a044ae5a0a8ee3dfb12aa695",
                "sha256_in_prefix": "ca8d017467e073c2fc0fe0f79b83bb29ea91f044a044ae5a0a8ee3dfb12aa695",
                "size_in_bytes": 1259
            },
            {
                "_path": "include/gstreamer-1.0/gst/check/gstcheck.h",
                "path_type": "hardlink",
                "sha256": "2bffc41565890f9c0d4d09bf5ddeb9fea96aa4721bf6611bb22e77c9e1c0a143",
                "sha256_in_prefix": "2bffc41565890f9c0d4d09bf5ddeb9fea96aa4721bf6611bb22e77c9e1c0a143",
                "size_in_bytes": 28637
            },
            {
                "_path": "include/gstreamer-1.0/gst/check/gstconsistencychecker.h",
                "path_type": "hardlink",
                "sha256": "1a6987666b247d0eff70dccff60da927aaf6b48c6a46e6f64e8de0499ab88947",
                "sha256_in_prefix": "1a6987666b247d0eff70dccff60da927aaf6b48c6a46e6f64e8de0499ab88947",
                "size_in_bytes": 1636
            },
            {
                "_path": "include/gstreamer-1.0/gst/check/gstharness.h",
                "path_type": "hardlink",
                "sha256": "742dee423fc1a84712adfad699ffaa15a9eee14e54a1629179395c6ab4b45d1c",
                "sha256_in_prefix": "742dee423fc1a84712adfad699ffaa15a9eee14e54a1629179395c6ab4b45d1c",
                "size_in_bytes": 17387
            },
            {
                "_path": "include/gstreamer-1.0/gst/check/gsttestclock.h",
                "path_type": "hardlink",
                "sha256": "7a82a1296ad2b863e73a384a1889cd23295fc1cb63d82374415e6f97c9317803",
                "sha256_in_prefix": "7a82a1296ad2b863e73a384a1889cd23295fc1cb63d82374415e6f97c9317803",
                "size_in_bytes": 5206
            },
            {
                "_path": "include/gstreamer-1.0/gst/check/internal-check.h",
                "path_type": "hardlink",
                "sha256": "96ca6e5881965ee5a8b7365be6ef3a4de5a0d499c199975aa40bc4b3b6e71e7d",
                "sha256_in_prefix": "96ca6e5881965ee5a8b7365be6ef3a4de5a0d499c199975aa40bc4b3b6e71e7d",
                "size_in_bytes": 39328
            },
            {
                "_path": "include/gstreamer-1.0/gst/controller/controller-enumtypes.h",
                "path_type": "hardlink",
                "sha256": "6d5464ed3c652b7de9d693d38eac43b7541cd3eaba56947d519c60374edc4f65",
                "sha256_in_prefix": "6d5464ed3c652b7de9d693d38eac43b7541cd3eaba56947d519c60374edc4f65",
                "size_in_bytes": 761
            },
            {
                "_path": "include/gstreamer-1.0/gst/controller/controller-prelude.h",
                "path_type": "hardlink",
                "sha256": "d1fca760a50b8f2e6706e4ec37d2d3392d31b4848b696274fd3e7f80ce064dce",
                "sha256_in_prefix": "d1fca760a50b8f2e6706e4ec37d2d3392d31b4848b696274fd3e7f80ce064dce",
                "size_in_bytes": 1231
            },
            {
                "_path": "include/gstreamer-1.0/gst/controller/controller.h",
                "path_type": "hardlink",
                "sha256": "294876137de4bd581a1b766e08f93f64d46e3e1f30a6d16323cac0c7c5dfc917",
                "sha256_in_prefix": "294876137de4bd581a1b766e08f93f64d46e3e1f30a6d16323cac0c7c5dfc917",
                "size_in_bytes": 1385
            },
            {
                "_path": "include/gstreamer-1.0/gst/controller/gstargbcontrolbinding.h",
                "path_type": "hardlink",
                "sha256": "ca4ce29f8fc36e5d7d7626ce41e351c138f242b988a8315d526914c28c1750b2",
                "sha256_in_prefix": "ca4ce29f8fc36e5d7d7626ce41e351c138f242b988a8315d526914c28c1750b2",
                "size_in_bytes": 3356
            },
            {
                "_path": "include/gstreamer-1.0/gst/controller/gstdirectcontrolbinding.h",
                "path_type": "hardlink",
                "sha256": "11f7fca92b8a8d610a4442b963f0cc4769bc5464f1108f18956b06e8c99d4de1",
                "sha256_in_prefix": "11f7fca92b8a8d610a4442b963f0cc4769bc5464f1108f18956b06e8c99d4de1",
                "size_in_bytes": 4301
            },
            {
                "_path": "include/gstreamer-1.0/gst/controller/gstinterpolationcontrolsource.h",
                "path_type": "hardlink",
                "sha256": "9704655c4aa222287bc6dd0aff515aa14727191a4561cddc302d5977f3e2639c",
                "sha256_in_prefix": "9704655c4aa222287bc6dd0aff515aa14727191a4561cddc302d5977f3e2639c",
                "size_in_bytes": 3820
            },
            {
                "_path": "include/gstreamer-1.0/gst/controller/gstlfocontrolsource.h",
                "path_type": "hardlink",
                "sha256": "2d4ecb1c2549bceddee567106f5e6d743cfbca9bbbc7c8bc858043c32242ad15",
                "sha256_in_prefix": "2d4ecb1c2549bceddee567106f5e6d743cfbca9bbbc7c8bc858043c32242ad15",
                "size_in_bytes": 3195
            },
            {
                "_path": "include/gstreamer-1.0/gst/controller/gstproxycontrolbinding.h",
                "path_type": "hardlink",
                "sha256": "d9eaf0018d9dcdc691a48a910ffc07b4b64aac9e054e2e8e4a97c357951b2e9c",
                "sha256_in_prefix": "d9eaf0018d9dcdc691a48a910ffc07b4b64aac9e054e2e8e4a97c357951b2e9c",
                "size_in_bytes": 2895
            },
            {
                "_path": "include/gstreamer-1.0/gst/controller/gsttimedvaluecontrolsource.h",
                "path_type": "hardlink",
                "sha256": "5472d37cb05f85a0c9214a1840d644d087386fd114ec403da6a8ecdd17ee56a4",
                "sha256_in_prefix": "5472d37cb05f85a0c9214a1840d644d087386fd114ec403da6a8ecdd17ee56a4",
                "size_in_bytes": 5737
            },
            {
                "_path": "include/gstreamer-1.0/gst/controller/gsttriggercontrolsource.h",
                "path_type": "hardlink",
                "sha256": "ae45553256d347b4d01b7236e26e3b518b14775225ae78eb5c5bdaffde94e352",
                "sha256_in_prefix": "ae45553256d347b4d01b7236e26e3b518b14775225ae78eb5c5bdaffde94e352",
                "size_in_bytes": 2985
            },
            {
                "_path": "include/gstreamer-1.0/gst/glib-compat.h",
                "path_type": "hardlink",
                "sha256": "7bfbb486eb1eacb076f2c3194cec22bd918b105a286c98afbdd0c1d3e70c48b0",
                "sha256_in_prefix": "7bfbb486eb1eacb076f2c3194cec22bd918b105a286c98afbdd0c1d3e70c48b0",
                "size_in_bytes": 1312
            },
            {
                "_path": "include/gstreamer-1.0/gst/gst.h",
                "path_type": "hardlink",
                "sha256": "020f7888202b66aa3b0c0959b591acd10a58e23e421ed997f0c2010e67712887",
                "sha256_in_prefix": "020f7888202b66aa3b0c0959b591acd10a58e23e421ed997f0c2010e67712887",
                "size_in_bytes": 3939
            },
            {
                "_path": "include/gstreamer-1.0/gst/gstallocator.h",
                "path_type": "hardlink",
                "sha256": "67e4e6b6331d97560e2985850b351386b07ee20c7402723fbbdc2343fd20c12a",
                "sha256_in_prefix": "67e4e6b6331d97560e2985850b351386b07ee20c7402723fbbdc2343fd20c12a",
                "size_in_bytes": 7132
            },
            {
                "_path": "include/gstreamer-1.0/gst/gstatomicqueue.h",
                "path_type": "hardlink",
                "sha256": "b7b321487e381750f22fe5ebd717c47e1ccb48d8635c45330d8905dac12ecab7",
                "sha256_in_prefix": "b7b321487e381750f22fe5ebd717c47e1ccb48d8635c45330d8905dac12ecab7",
                "size_in_bytes": 2072
            },
            {
                "_path": "include/gstreamer-1.0/gst/gstbin.h",
                "path_type": "hardlink",
                "sha256": "c2bda7dc3f1a1b68dd8ddab4d304fcee117efae6ffbfae934c00cad9a9f16d89",
                "sha256_in_prefix": "c2bda7dc3f1a1b68dd8ddab4d304fcee117efae6ffbfae934c00cad9a9f16d89",
                "size_in_bytes": 9404
            },
            {
                "_path": "include/gstreamer-1.0/gst/gstbuffer.h",
                "path_type": "hardlink",
                "sha256": "4a97572529146bf89e1350ba3f4a52896cffca58a28edff8c49990c909f2eb0a",
                "sha256_in_prefix": "4a97572529146bf89e1350ba3f4a52896cffca58a28edff8c49990c909f2eb0a",
                "size_in_bytes": 29917
            },
            {
                "_path": "include/gstreamer-1.0/gst/gstbufferlist.h",
                "path_type": "hardlink",
                "sha256": "981deb2ebdb8b7f682fd830f12194904f721de25a2744de1dcc9811fb82ee273",
                "sha256_in_prefix": "981deb2ebdb8b7f682fd830f12194904f721de25a2744de1dcc9811fb82ee273",
                "size_in_bytes": 6315
            },
            {
                "_path": "include/gstreamer-1.0/gst/gstbufferpool.h",
                "path_type": "hardlink",
                "sha256": "75d5cdc8fee5f57ab963ab511ce3b012fb0f8d88d0d68312be96262371b33bac",
                "sha256_in_prefix": "75d5cdc8fee5f57ab963ab511ce3b012fb0f8d88d0d68312be96262371b33bac",
                "size_in_bytes": 11919
            },
            {
                "_path": "include/gstreamer-1.0/gst/gstbus.h",
                "path_type": "hardlink",
                "sha256": "d55000c5add36c8c88c99b1d4dbf54945abaa3fd9ae90ce6bd24664eecf4155b",
                "sha256_in_prefix": "d55000c5add36c8c88c99b1d4dbf54945abaa3fd9ae90ce6bd24664eecf4155b",
                "size_in_bytes": 8083
            },
            {
                "_path": "include/gstreamer-1.0/gst/gstbytearrayinterface.h",
                "path_type": "hardlink",
                "sha256": "b791c25ad0e8c05f4b3a4ce6cded2fc402830b68ae08b3a8b18cb3e35adc3f35",
                "sha256_in_prefix": "b791c25ad0e8c05f4b3a4ce6cded2fc402830b68ae08b3a8b18cb3e35adc3f35",
                "size_in_bytes": 3647
            },
            {
                "_path": "include/gstreamer-1.0/gst/gstcaps.h",
                "path_type": "hardlink",
                "sha256": "4c53e7d196c808117b1a8409233bfa8a5432257b4e7bb98dbb89eb5fd6daf6a1",
                "sha256_in_prefix": "4c53e7d196c808117b1a8409233bfa8a5432257b4e7bb98dbb89eb5fd6daf6a1",
                "size_in_bytes": 18400
            },
            {
                "_path": "include/gstreamer-1.0/gst/gstcapsfeatures.h",
                "path_type": "hardlink",
                "sha256": "7bca910c2dbafc8784b67d95d7a62240806377cb1a05058bb0ef3df795a10e49",
                "sha256_in_prefix": "7bca910c2dbafc8784b67d95d7a62240806377cb1a05058bb0ef3df795a10e49",
                "size_in_bytes": 4171
            },
            {
                "_path": "include/gstreamer-1.0/gst/gstchildproxy.h",
                "path_type": "hardlink",
                "sha256": "aae68e1cd40d5ab7237ad796090caa5d5a599ddc55be61e13c9ede8533630aee",
                "sha256_in_prefix": "aae68e1cd40d5ab7237ad796090caa5d5a599ddc55be61e13c9ede8533630aee",
                "size_in_bytes": 5679
            },
            {
                "_path": "include/gstreamer-1.0/gst/gstclock.h",
                "path_type": "hardlink",
                "sha256": "6cdce2cea2ce4ffe66f4d48ba268549584d5ba74ba9d6e1d1fe04ab184cc9ec1",
                "sha256_in_prefix": "6cdce2cea2ce4ffe66f4d48ba268549584d5ba74ba9d6e1d1fe04ab184cc9ec1",
                "size_in_bytes": 24117
            },
            {
                "_path": "include/gstreamer-1.0/gst/gstcompat.h",
                "path_type": "hardlink",
                "sha256": "bc86d1bd8c904339e4f269b1706dd602e71013cae65f318d9f4fe0dbd8ce43bd",
                "sha256_in_prefix": "bc86d1bd8c904339e4f269b1706dd602e71013cae65f318d9f4fe0dbd8ce43bd",
                "size_in_bytes": 3529
            },
            {
                "_path": "include/gstreamer-1.0/gst/gstconfig.h",
                "path_type": "hardlink",
                "sha256": "06dd0d3f221b5cb82c24a3e1bf46e0e888d2b445331034abce18478edb88e57a",
                "sha256_in_prefix": "06dd0d3f221b5cb82c24a3e1bf46e0e888d2b445331034abce18478edb88e57a",
                "size_in_bytes": 6353
            },
            {
                "_path": "include/gstreamer-1.0/gst/gstcontext.h",
                "path_type": "hardlink",
                "sha256": "b890ecf3de8f6559e0d65f2201c9be70cddd96be4444744ef87054a419aebffd",
                "sha256_in_prefix": "b890ecf3de8f6559e0d65f2201c9be70cddd96be4444744ef87054a419aebffd",
                "size_in_bytes": 4665
            },
            {
                "_path": "include/gstreamer-1.0/gst/gstcontrolbinding.h",
                "path_type": "hardlink",
                "sha256": "9b8952da6d2cee34bb89d4d664fe221d17285752beb1206bcf16ee17ee567802",
                "sha256_in_prefix": "9b8952da6d2cee34bb89d4d664fe221d17285752beb1206bcf16ee17ee567802",
                "size_in_bytes": 6516
            },
            {
                "_path": "include/gstreamer-1.0/gst/gstcontrolsource.h",
                "path_type": "hardlink",
                "sha256": "3cfd25def63b1ef59d4a12933f6fc3859ba383f95da290071a14669bf3330478",
                "sha256_in_prefix": "3cfd25def63b1ef59d4a12933f6fc3859ba383f95da290071a14669bf3330478",
                "size_in_bytes": 4745
            },
            {
                "_path": "include/gstreamer-1.0/gst/gstdatetime.h",
                "path_type": "hardlink",
                "sha256": "5d824433b761a3820db3c2987997503ab8330ff58be5b62bb437fb7d2eca49d5",
                "sha256_in_prefix": "5d824433b761a3820db3c2987997503ab8330ff58be5b62bb437fb7d2eca49d5",
                "size_in_bytes": 5460
            },
            {
                "_path": "include/gstreamer-1.0/gst/gstdebugutils.h",
                "path_type": "hardlink",
                "sha256": "4428686dda4aac5a8f4c010b7ec21671a556711a93b241bbd4ff064c10ebc74f",
                "sha256_in_prefix": "4428686dda4aac5a8f4c010b7ec21671a556711a93b241bbd4ff064c10ebc74f",
                "size_in_bytes": 4699
            },
            {
                "_path": "include/gstreamer-1.0/gst/gstdevice.h",
                "path_type": "hardlink",
                "sha256": "2f7abfe04445fc3530b1e5e7a28fb3d80e157e936a718edcb54a95343973fa87",
                "sha256_in_prefix": "2f7abfe04445fc3530b1e5e7a28fb3d80e157e936a718edcb54a95343973fa87",
                "size_in_bytes": 3780
            },
            {
                "_path": "include/gstreamer-1.0/gst/gstdevicemonitor.h",
                "path_type": "hardlink",
                "sha256": "b312e352c0eb9f0d9a3509ce4d0fbc70c38329bc07e41845911a2f42b20f8d9e",
                "sha256_in_prefix": "b312e352c0eb9f0d9a3509ce4d0fbc70c38329bc07e41845911a2f42b20f8d9e",
                "size_in_bytes": 3784
            },
            {
                "_path": "include/gstreamer-1.0/gst/gstdeviceprovider.h",
                "path_type": "hardlink",
                "sha256": "2a2d03129b9cdd2d9666c5a12a6fa68208189c221b889271d9964db6dfcbafa3",
                "sha256_in_prefix": "2a2d03129b9cdd2d9666c5a12a6fa68208189c221b889271d9964db6dfcbafa3",
                "size_in_bytes": 10153
            },
            {
                "_path": "include/gstreamer-1.0/gst/gstdeviceproviderfactory.h",
                "path_type": "hardlink",
                "sha256": "f945cd72f8d928d792013e15ccfb368912d3280ad733318709d96f083958e984",
                "sha256_in_prefix": "f945cd72f8d928d792013e15ccfb368912d3280ad733318709d96f083958e984",
                "size_in_bytes": 4202
            },
            {
                "_path": "include/gstreamer-1.0/gst/gstdynamictypefactory.h",
                "path_type": "hardlink",
                "sha256": "ee4ae6629653cbc36080789988d7db72262b5ca92c05cda6bf0e4c7ac6d906c3",
                "sha256_in_prefix": "ee4ae6629653cbc36080789988d7db72262b5ca92c05cda6bf0e4c7ac6d906c3",
                "size_in_bytes": 3891
            },
            {
                "_path": "include/gstreamer-1.0/gst/gstelement.h",
                "path_type": "hardlink",
                "sha256": "72a5be2834c06a767507e7c77a7c481fef51ae070ee5884db42a86aeb5d2b409",
                "sha256_in_prefix": "72a5be2834c06a767507e7c77a7c481fef51ae070ee5884db42a86aeb5d2b409",
                "size_in_bytes": 51537
            },
            {
                "_path": "include/gstreamer-1.0/gst/gstelementfactory.h",
                "path_type": "hardlink",
                "sha256": "2bd466f7f886335cbed986fcb95f49815354bcbd9de8c8258f6752ae619dd9eb",
                "sha256_in_prefix": "2bd466f7f886335cbed986fcb95f49815354bcbd9de8c8258f6752ae619dd9eb",
                "size_in_bytes": 13713
            },
            {
                "_path": "include/gstreamer-1.0/gst/gstelementmetadata.h",
                "path_type": "hardlink",
                "sha256": "acad9d53c2214c6a613e51f9cff425251e23f3a949e5147db62bfa7877d2cd4e",
                "sha256_in_prefix": "acad9d53c2214c6a613e51f9cff425251e23f3a949e5147db62bfa7877d2cd4e",
                "size_in_bytes": 2467
            },
            {
                "_path": "include/gstreamer-1.0/gst/gstenumtypes.h",
                "path_type": "hardlink",
                "sha256": "4d0e41984b9df31427b54c5091f9e4fcc5028349acaebef50cadfec4f30f47c3",
                "sha256_in_prefix": "4d0e41984b9df31427b54c5091f9e4fcc5028349acaebef50cadfec4f30f47c3",
                "size_in_bytes": 11395
            },
            {
                "_path": "include/gstreamer-1.0/gst/gsterror.h",
                "path_type": "hardlink",
                "sha256": "aa140cf2b29fd9fbb472b4bc2da77f0e8a96c3eb740a295809990a3a8118e9d6",
                "sha256_in_prefix": "aa140cf2b29fd9fbb472b4bc2da77f0e8a96c3eb740a295809990a3a8118e9d6",
                "size_in_bytes": 9937
            },
            {
                "_path": "include/gstreamer-1.0/gst/gstevent.h",
                "path_type": "hardlink",
                "sha256": "d0fe4a7bf96e397cb9d6818176ae15c34f76fc6108ef0c2f7dde3f8756736483",
                "sha256_in_prefix": "d0fe4a7bf96e397cb9d6818176ae15c34f76fc6108ef0c2f7dde3f8756736483",
                "size_in_bytes": 28109
            },
            {
                "_path": "include/gstreamer-1.0/gst/gstformat.h",
                "path_type": "hardlink",
                "sha256": "66b33748bbf185c030185b4bd881b07da674d332f61425845648a9a9114c36c9",
                "sha256_in_prefix": "66b33748bbf185c030185b4bd881b07da674d332f61425845648a9a9114c36c9",
                "size_in_bytes": 3670
            },
            {
                "_path": "include/gstreamer-1.0/gst/gstghostpad.h",
                "path_type": "hardlink",
                "sha256": "4113e9061eefadaa56f1a10f0364d80b314e66c922b42405f5bf427b5c681f1f",
                "sha256_in_prefix": "4113e9061eefadaa56f1a10f0364d80b314e66c922b42405f5bf427b5c681f1f",
                "size_in_bytes": 5187
            },
            {
                "_path": "include/gstreamer-1.0/gst/gstinfo.h",
                "path_type": "hardlink",
                "sha256": "36e2a889f64728deaee8a58e980a44f3397eb5488296d7257df997dddab8e904",
                "sha256_in_prefix": "36e2a889f64728deaee8a58e980a44f3397eb5488296d7257df997dddab8e904",
                "size_in_bytes": 73949
            },
            {
                "_path": "include/gstreamer-1.0/gst/gstiterator.h",
                "path_type": "hardlink",
                "sha256": "6f6e029408df1289c877721268bc4be5b1a42c3c2d571d56438a13ae2f19140f",
                "sha256_in_prefix": "6f6e029408df1289c877721268bc4be5b1a42c3c2d571d56438a13ae2f19140f",
                "size_in_bytes": 10518
            },
            {
                "_path": "include/gstreamer-1.0/gst/gstmacros.h",
                "path_type": "hardlink",
                "sha256": "0ac1f0d73bbbf2d6e2f34c96a23172da65057e88a3b1b00d97b1a2b0719ff068",
                "sha256_in_prefix": "0ac1f0d73bbbf2d6e2f34c96a23172da65057e88a3b1b00d97b1a2b0719ff068",
                "size_in_bytes": 1762
            },
            {
                "_path": "include/gstreamer-1.0/gst/gstmemory.h",
                "path_type": "hardlink",
                "sha256": "28ae0469f8295f3e2888f27527b27a0f690a6da13b1d25966b786a3d1b0276d0",
                "sha256_in_prefix": "28ae0469f8295f3e2888f27527b27a0f690a6da13b1d25966b786a3d1b0276d0",
                "size_in_bytes": 13579
            },
            {
                "_path": "include/gstreamer-1.0/gst/gstmessage.h",
                "path_type": "hardlink",
                "sha256": "4cf89ad0349986159e111c190554ff4aa62c701f3af941d49dd16e27b766a024",
                "sha256_in_prefix": "4cf89ad0349986159e111c190554ff4aa62c701f3af941d49dd16e27b766a024",
                "size_in_bytes": 32641
            },
            {
                "_path": "include/gstreamer-1.0/gst/gstmeta.h",
                "path_type": "hardlink",
                "sha256": "b64b50bb590d3be2eee9359df9eae9d88208fbd8655337068d6dfcc5f303141d",
                "sha256_in_prefix": "b64b50bb590d3be2eee9359df9eae9d88208fbd8655337068d6dfcc5f303141d",
                "size_in_bytes": 13135
            },
            {
                "_path": "include/gstreamer-1.0/gst/gstminiobject.h",
                "path_type": "hardlink",
                "sha256": "bd28cabe3e6363f6de6686c180ab69eb569c9c6cb0161a03b922d8587acd5a64",
                "sha256_in_prefix": "bd28cabe3e6363f6de6686c180ab69eb569c9c6cb0161a03b922d8587acd5a64",
                "size_in_bytes": 10151
            },
            {
                "_path": "include/gstreamer-1.0/gst/gstobject.h",
                "path_type": "hardlink",
                "sha256": "79463e19c4697e6b3c87b124b1d794d70dd809d0899758e235668e7ffa7c324b",
                "sha256_in_prefix": "79463e19c4697e6b3c87b124b1d794d70dd809d0899758e235668e7ffa7c324b",
                "size_in_bytes": 11747
            },
            {
                "_path": "include/gstreamer-1.0/gst/gstpad.h",
                "path_type": "hardlink",
                "sha256": "d65ccfb8609ca03290956faa7f13fcf11ff239d7b850beb0f7139dd9a1266bba",
                "sha256_in_prefix": "d65ccfb8609ca03290956faa7f13fcf11ff239d7b850beb0f7139dd9a1266bba",
                "size_in_bytes": 59436
            },
            {
                "_path": "include/gstreamer-1.0/gst/gstpadtemplate.h",
                "path_type": "hardlink",
                "sha256": "644d365558e8609957d6e9784f26b5c7924ebd46dba5b267823a6dce455709e1",
                "sha256_in_prefix": "644d365558e8609957d6e9784f26b5c7924ebd46dba5b267823a6dce455709e1",
                "size_in_bytes": 6951
            },
            {
                "_path": "include/gstreamer-1.0/gst/gstparamspecs.h",
                "path_type": "hardlink",
                "sha256": "1e9dd498ecdb8d598e4b1cdc1f899738cb783ad419bb10f3259cf2a33e12ac7b",
                "sha256_in_prefix": "1e9dd498ecdb8d598e4b1cdc1f899738cb783ad419bb10f3259cf2a33e12ac7b",
                "size_in_bytes": 5945
            },
            {
                "_path": "include/gstreamer-1.0/gst/gstparse.h",
                "path_type": "hardlink",
                "sha256": "be8cb37e673894b87614b7135e4b23c27cb09e99ba1cc56194221f15f9a40595",
                "sha256_in_prefix": "be8cb37e673894b87614b7135e4b23c27cb09e99ba1cc56194221f15f9a40595",
                "size_in_bytes": 4708
            },
            {
                "_path": "include/gstreamer-1.0/gst/gstpipeline.h",
                "path_type": "hardlink",
                "sha256": "910495a8d95eb396d8ac2ab01433d8652861622191749f5e4d4aa9a4faf908d2",
                "sha256_in_prefix": "910495a8d95eb396d8ac2ab01433d8652861622191749f5e4d4aa9a4faf908d2",
                "size_in_bytes": 4637
            },
            {
                "_path": "include/gstreamer-1.0/gst/gstplugin.h",
                "path_type": "hardlink",
                "sha256": "21eaa8ccc110640c04cb4f1b917cc36cd37bf34ad00dede683c8da1b95f03002",
                "sha256_in_prefix": "21eaa8ccc110640c04cb4f1b917cc36cd37bf34ad00dede683c8da1b95f03002",
                "size_in_bytes": 15474
            },
            {
                "_path": "include/gstreamer-1.0/gst/gstpluginfeature.h",
                "path_type": "hardlink",
                "sha256": "f79d91a9569a7169de8ae2aac5dfc4af06c4ad1e19c9c66380198de3ba3c30a9",
                "sha256_in_prefix": "f79d91a9569a7169de8ae2aac5dfc4af06c4ad1e19c9c66380198de3ba3c30a9",
                "size_in_bytes": 5838
            },
            {
                "_path": "include/gstreamer-1.0/gst/gstpoll.h",
                "path_type": "hardlink",
                "sha256": "6c518f8f0666481eb40923ad73149f9d0872b853b123e706567ceccfb8434375",
                "sha256_in_prefix": "6c518f8f0666481eb40923ad73149f9d0872b853b123e706567ceccfb8434375",
                "size_in_bytes": 3539
            },
            {
                "_path": "include/gstreamer-1.0/gst/gstpreset.h",
                "path_type": "hardlink",
                "sha256": "78e4e6ca2c424747b290ea00b60a7c1667ab8669961c119b17219b0b37dd7049",
                "sha256_in_prefix": "78e4e6ca2c424747b290ea00b60a7c1667ab8669961c119b17219b0b37dd7049",
                "size_in_bytes": 4347
            },
            {
                "_path": "include/gstreamer-1.0/gst/gstpromise.h",
                "path_type": "hardlink",
                "sha256": "de331e8b25ca43c73bacd4352f368c9cb649676ff09133516900cbeac3e27849",
                "sha256_in_prefix": "de331e8b25ca43c73bacd4352f368c9cb649676ff09133516900cbeac3e27849",
                "size_in_bytes": 3898
            },
            {
                "_path": "include/gstreamer-1.0/gst/gstprotection.h",
                "path_type": "hardlink",
                "sha256": "3da89beb900b87295e30841197676edb3ac22d4ed51c769ab100ecf380ddd640",
                "sha256_in_prefix": "3da89beb900b87295e30841197676edb3ac22d4ed51c769ab100ecf380ddd640",
                "size_in_bytes": 3145
            },
            {
                "_path": "include/gstreamer-1.0/gst/gstquery.h",
                "path_type": "hardlink",
                "sha256": "2b5416c4b376775e023f5d71c80a1dc4ee62b2db13000e3d0defb4dd146f2af3",
                "sha256_in_prefix": "2b5416c4b376775e023f5d71c80a1dc4ee62b2db13000e3d0defb4dd146f2af3",
                "size_in_bytes": 23030
            },
            {
                "_path": "include/gstreamer-1.0/gst/gstregistry.h",
                "path_type": "hardlink",
                "sha256": "f71a65dc7abd88191e0cc993c990f4ec6f53c5f03c131c82fa061bac5d2a61e7",
                "sha256_in_prefix": "f71a65dc7abd88191e0cc993c990f4ec6f53c5f03c131c82fa061bac5d2a61e7",
                "size_in_bytes": 5073
            },
            {
                "_path": "include/gstreamer-1.0/gst/gstsample.h",
                "path_type": "hardlink",
                "sha256": "bcf6352e07668f8a5e93d44c83724b820dc3c7b5982146b2a5075d219da852ba",
                "sha256_in_prefix": "bcf6352e07668f8a5e93d44c83724b820dc3c7b5982146b2a5075d219da852ba",
                "size_in_bytes": 6543
            },
            {
                "_path": "include/gstreamer-1.0/gst/gstsegment.h",
                "path_type": "hardlink",
                "sha256": "466dc0ad529887b35cc59dd65c82a3f89a7794ebc1d2147b11c6a2ad429dcbe1",
                "sha256_in_prefix": "466dc0ad529887b35cc59dd65c82a3f89a7794ebc1d2147b11c6a2ad429dcbe1",
                "size_in_bytes": 17676
            },
            {
                "_path": "include/gstreamer-1.0/gst/gststreamcollection.h",
                "path_type": "hardlink",
                "sha256": "db8b795ed289562d49e425678db62bfdbbf70c6a0ee4339839b591cfb2c4e201",
                "sha256_in_prefix": "db8b795ed289562d49e425678db62bfdbbf70c6a0ee4339839b591cfb2c4e201",
                "size_in_bytes": 4299
            },
            {
                "_path": "include/gstreamer-1.0/gst/gststreams.h",
                "path_type": "hardlink",
                "sha256": "fb50ca485758f5828ea49f5f1f6577cc0e20f1f0587032b1bcb7a37c2238346c",
                "sha256_in_prefix": "fb50ca485758f5828ea49f5f1f6577cc0e20f1f0587032b1bcb7a37c2238346c",
                "size_in_bytes": 4879
            },
            {
                "_path": "include/gstreamer-1.0/gst/gststructure.h",
                "path_type": "hardlink",
                "sha256": "c5e3d649fe30bcfda02dc6cb7861aa4bb7ccb30356e04d599b96fc24cc6153a4",
                "sha256_in_prefix": "c5e3d649fe30bcfda02dc6cb7861aa4bb7ccb30356e04d599b96fc24cc6153a4",
                "size_in_bytes": 22023
            },
            {
                "_path": "include/gstreamer-1.0/gst/gstsystemclock.h",
                "path_type": "hardlink",
                "sha256": "97f1e4e4992e759fdc0059c2377e02b65d94dd56ed42150a7d4b2b341b3eff0f",
                "sha256_in_prefix": "97f1e4e4992e759fdc0059c2377e02b65d94dd56ed42150a7d4b2b341b3eff0f",
                "size_in_bytes": 3344
            },
            {
                "_path": "include/gstreamer-1.0/gst/gsttaglist.h",
                "path_type": "hardlink",
                "sha256": "0c127210a3a803e6745ee0209bd1b0fdb1e2eb703988eb5cfca8b3e2e1ea3629",
                "sha256_in_prefix": "0c127210a3a803e6745ee0209bd1b0fdb1e2eb703988eb5cfca8b3e2e1ea3629",
                "size_in_bytes": 37381
            },
            {
                "_path": "include/gstreamer-1.0/gst/gsttagsetter.h",
                "path_type": "hardlink",
                "sha256": "13e3542ca03befb9ea320bd129125da0f2c1b6ec499df555836f593aa808b876",
                "sha256_in_prefix": "13e3542ca03befb9ea320bd129125da0f2c1b6ec499df555836f593aa808b876",
                "size_in_bytes": 4345
            },
            {
                "_path": "include/gstreamer-1.0/gst/gsttask.h",
                "path_type": "hardlink",
                "sha256": "f825593bbb3a5f04c2c0192e9b84cd28310ee388b7e879876e8113ce63f62319",
                "sha256_in_prefix": "f825593bbb3a5f04c2c0192e9b84cd28310ee388b7e879876e8113ce63f62319",
                "size_in_bytes": 6243
            },
            {
                "_path": "include/gstreamer-1.0/gst/gsttaskpool.h",
                "path_type": "hardlink",
                "sha256": "8c00ea31fff7faf1f78d989581da7ce0997a2b3a877a794c839d4d9be7da6453",
                "sha256_in_prefix": "8c00ea31fff7faf1f78d989581da7ce0997a2b3a877a794c839d4d9be7da6453",
                "size_in_bytes": 5516
            },
            {
                "_path": "include/gstreamer-1.0/gst/gsttoc.h",
                "path_type": "hardlink",
                "sha256": "071246005ed8422bfbd0724adc093e265a9137bc58e57aab802bbf8f183ce6f3",
                "sha256_in_prefix": "071246005ed8422bfbd0724adc093e265a9137bc58e57aab802bbf8f183ce6f3",
                "size_in_bytes": 8167
            },
            {
                "_path": "include/gstreamer-1.0/gst/gsttocsetter.h",
                "path_type": "hardlink",
                "sha256": "70bef7cbe4f5273d1487e90f3e306845316988445ae2255db0842b7a7f492331",
                "sha256_in_prefix": "70bef7cbe4f5273d1487e90f3e306845316988445ae2255db0842b7a7f492331",
                "size_in_bytes": 2085
            },
            {
                "_path": "include/gstreamer-1.0/gst/gsttracer.h",
                "path_type": "hardlink",
                "sha256": "a159142d88fe79341b81515cc15a13ee3e0ca7eea0f2e395c30be7480dec7be0",
                "sha256_in_prefix": "a159142d88fe79341b81515cc15a13ee3e0ca7eea0f2e395c30be7480dec7be0",
                "size_in_bytes": 2491
            },
            {
                "_path": "include/gstreamer-1.0/gst/gsttracerfactory.h",
                "path_type": "hardlink",
                "sha256": "dcc31438904c611668b058d725a6ca3c206055ae997672c735ddd4c8d41c0ef2",
                "sha256_in_prefix": "dcc31438904c611668b058d725a6ca3c206055ae997672c735ddd4c8d41c0ef2",
                "size_in_bytes": 2406
            },
            {
                "_path": "include/gstreamer-1.0/gst/gsttracerrecord.h",
                "path_type": "hardlink",
                "sha256": "c11f4e2a8329105826dbc4df32dc7e2b1a79c42cd371651385c71ff33fc017dc",
                "sha256_in_prefix": "c11f4e2a8329105826dbc4df32dc7e2b1a79c42cd371651385c71ff33fc017dc",
                "size_in_bytes": 3940
            },
            {
                "_path": "include/gstreamer-1.0/gst/gsttypefind.h",
                "path_type": "hardlink",
                "sha256": "992505fe56a591daf9f5cdfb092a8afa1de8031c8f203cc5ed77392f80b95453",
                "sha256_in_prefix": "992505fe56a591daf9f5cdfb092a8afa1de8031c8f203cc5ed77392f80b95453",
                "size_in_bytes": 7982
            },
            {
                "_path": "include/gstreamer-1.0/gst/gsttypefindfactory.h",
                "path_type": "hardlink",
                "sha256": "bf770f99b83b98b621385ef01071b32e6527a9227a068bb4af872f2e8ba161c7",
                "sha256_in_prefix": "bf770f99b83b98b621385ef01071b32e6527a9227a068bb4af872f2e8ba161c7",
                "size_in_bytes": 2802
            },
            {
                "_path": "include/gstreamer-1.0/gst/gsturi.h",
                "path_type": "hardlink",
                "sha256": "ce2850a104071520cc9ce36f1051d36d1ec2fe96289b26e2042fe1eb37f967be",
                "sha256_in_prefix": "ce2850a104071520cc9ce36f1051d36d1ec2fe96289b26e2042fe1eb37f967be",
                "size_in_bytes": 12531
            },
            {
                "_path": "include/gstreamer-1.0/gst/gstutils.h",
                "path_type": "hardlink",
                "sha256": "a9cdd435aefa5569fb7ed804ede4f860b82099008d50984196c0c633974a0057",
                "sha256_in_prefix": "a9cdd435aefa5569fb7ed804ede4f860b82099008d50984196c0c633974a0057",
                "size_in_bytes": 41247
            },
            {
                "_path": "include/gstreamer-1.0/gst/gstvalue.h",
                "path_type": "hardlink",
                "sha256": "b7dd85e0c6a42d0e943c98677cc6d6025ae38e326fbf87a16773010dce36197c",
                "sha256_in_prefix": "b7dd85e0c6a42d0e943c98677cc6d6025ae38e326fbf87a16773010dce36197c",
                "size_in_bytes": 24206
            },
            {
                "_path": "include/gstreamer-1.0/gst/gstversion.h",
                "path_type": "hardlink",
                "sha256": "7e6443b52e43e3aa46a5e80cb57b7e325bb59259e8228a58a34adfa7026955de",
                "sha256_in_prefix": "7e6443b52e43e3aa46a5e80cb57b7e325bb59259e8228a58a34adfa7026955de",
                "size_in_bytes": 2975
            },
            {
                "_path": "include/gstreamer-1.0/gst/math-compat.h",
                "path_type": "hardlink",
                "sha256": "8a98107fa4b0e66be95dc6fca90412f084689c293efaa5f51d750a4f18e93e15",
                "sha256_in_prefix": "8a98107fa4b0e66be95dc6fca90412f084689c293efaa5f51d750a4f18e93e15",
                "size_in_bytes": 2823
            },
            {
                "_path": "include/gstreamer-1.0/gst/net/gstnet.h",
                "path_type": "hardlink",
                "sha256": "90d4008d38f9f4d11defbe31a07fd34d0e4c279bcb120e9d67036a9731cca3ad",
                "sha256_in_prefix": "90d4008d38f9f4d11defbe31a07fd34d0e4c279bcb120e9d67036a9731cca3ad",
                "size_in_bytes": 1077
            },
            {
                "_path": "include/gstreamer-1.0/gst/net/gstnetaddressmeta.h",
                "path_type": "hardlink",
                "sha256": "9698ebcf86aa1cf0ad1f3a6f4ae945f640e8094aee4adb454db10ef1d1fa754a",
                "sha256_in_prefix": "9698ebcf86aa1cf0ad1f3a6f4ae945f640e8094aee4adb454db10ef1d1fa754a",
                "size_in_bytes": 1872
            },
            {
                "_path": "include/gstreamer-1.0/gst/net/gstnetclientclock.h",
                "path_type": "hardlink",
                "sha256": "bb3ba07744330e07b732676d61e1f3a484a77910fc092326332e3b3c64f8a967",
                "sha256_in_prefix": "bb3ba07744330e07b732676d61e1f3a484a77910fc092326332e3b3c64f8a967",
                "size_in_bytes": 3600
            },
            {
                "_path": "include/gstreamer-1.0/gst/net/gstnetcontrolmessagemeta.h",
                "path_type": "hardlink",
                "sha256": "a91eeb0fdbaa15c01759ac02fcf7d73614bd0f6ae72a57b48d203cf8dab722ea",
                "sha256_in_prefix": "a91eeb0fdbaa15c01759ac02fcf7d73614bd0f6ae72a57b48d203cf8dab722ea",
                "size_in_bytes": 2181
            },
            {
                "_path": "include/gstreamer-1.0/gst/net/gstnettimepacket.h",
                "path_type": "hardlink",
                "sha256": "9d9f08aacfc1d759bf0aca5df566a6be455e7da5fda558cfb2a309e39e17974f",
                "sha256_in_prefix": "9d9f08aacfc1d759bf0aca5df566a6be455e7da5fda558cfb2a309e39e17974f",
                "size_in_bytes": 2654
            },
            {
                "_path": "include/gstreamer-1.0/gst/net/gstnettimeprovider.h",
                "path_type": "hardlink",
                "sha256": "49d8901ebdb8270d002fd83aee1e74f33eabd12d4a1aafe590f4c8edb734f12b",
                "sha256_in_prefix": "49d8901ebdb8270d002fd83aee1e74f33eabd12d4a1aafe590f4c8edb734f12b",
                "size_in_bytes": 2588
            },
            {
                "_path": "include/gstreamer-1.0/gst/net/gstnetutils.h",
                "path_type": "hardlink",
                "sha256": "8ea9c279db3bb67e9888f4d449bde72a11ac049207ccaf69c5f4369a61b84030",
                "sha256_in_prefix": "8ea9c279db3bb67e9888f4d449bde72a11ac049207ccaf69c5f4369a61b84030",
                "size_in_bytes": 1217
            },
            {
                "_path": "include/gstreamer-1.0/gst/net/gstptpclock.h",
                "path_type": "hardlink",
                "sha256": "a49ae4c6cb1b70f38a91fde8fc97a7bcef2ec8e178db72bc6e01230b1f37fb63",
                "sha256_in_prefix": "a49ae4c6cb1b70f38a91fde8fc97a7bcef2ec8e178db72bc6e01230b1f37fb63",
                "size_in_bytes": 6433
            },
            {
                "_path": "include/gstreamer-1.0/gst/net/net-prelude.h",
                "path_type": "hardlink",
                "sha256": "8ada1e931e406b014d702965cecb61e93217d804868799d14e29cceab69bc7c3",
                "sha256_in_prefix": "8ada1e931e406b014d702965cecb61e93217d804868799d14e29cceab69bc7c3",
                "size_in_bytes": 1161
            },
            {
                "_path": "include/gstreamer-1.0/gst/net/net.h",
                "path_type": "hardlink",
                "sha256": "8ccc8966ee5d59b6f3b21749df9d8672bb638ac7138809931cb1f6dab0626bee",
                "sha256_in_prefix": "8ccc8966ee5d59b6f3b21749df9d8672bb638ac7138809931cb1f6dab0626bee",
                "size_in_bytes": 1266
            },
            {
                "_path": "lib/girepository-1.0/Gst-1.0.typelib",
                "path_type": "hardlink",
                "sha256": "6882b25f98c69685e6eb064cd7d781a06c8586dc20eeb3fb5509a651d8ea5cc8",
                "sha256_in_prefix": "6882b25f98c69685e6eb064cd7d781a06c8586dc20eeb3fb5509a651d8ea5cc8",
                "size_in_bytes": 244020
            },
            {
                "_path": "lib/girepository-1.0/GstBase-1.0.typelib",
                "path_type": "hardlink",
                "sha256": "2e835daca5f8552e7f7237f285e2499bc60f50edf9bbc2585ea002a885678bf4",
                "sha256_in_prefix": "2e835daca5f8552e7f7237f285e2499bc60f50edf9bbc2585ea002a885678bf4",
                "size_in_bytes": 54572
            },
            {
                "_path": "lib/girepository-1.0/GstCheck-1.0.typelib",
                "path_type": "hardlink",
                "sha256": "219c89569176d5da001631450092ab27783d34fb494fae2d68a4b17ed40fed60",
                "sha256_in_prefix": "219c89569176d5da001631450092ab27783d34fb494fae2d68a4b17ed40fed60",
                "size_in_bytes": 14636
            },
            {
                "_path": "lib/girepository-1.0/GstController-1.0.typelib",
                "path_type": "hardlink",
                "sha256": "d0a45db740b728a2323d45b38948582c314eabec36d11e4e9cc74a57e66eda21",
                "sha256_in_prefix": "d0a45db740b728a2323d45b38948582c314eabec36d11e4e9cc74a57e66eda21",
                "size_in_bytes": 7212
            },
            {
                "_path": "lib/girepository-1.0/GstNet-1.0.typelib",
                "path_type": "hardlink",
                "sha256": "d98a5d8395408e05654f1dcad5b256dd9e2f5ceb6900e45d76694b117e4db63a",
                "sha256_in_prefix": "d98a5d8395408e05654f1dcad5b256dd9e2f5ceb6900e45d76694b117e4db63a",
                "size_in_bytes": 6636
            },
            {
                "_path": "lib/gstreamer-1.0/libgstcoreelements.so",
                "path_type": "hardlink",
                "sha256": "0168768b908e0e36ba76b213e6d0327a35768ce706dc1e35149664c534444268",
                "sha256_in_prefix": "0168768b908e0e36ba76b213e6d0327a35768ce706dc1e35149664c534444268",
                "size_in_bytes": 520304
            },
            {
                "_path": "lib/gstreamer-1.0/libgstcoretracers.so",
                "path_type": "hardlink",
                "sha256": "812e72c1ee20448a018834f0fcadcf7249a7879510b0069939ff81cf4b52e3ce",
                "sha256_in_prefix": "812e72c1ee20448a018834f0fcadcf7249a7879510b0069939ff81cf4b52e3ce",
                "size_in_bytes": 111480
            },
            {
                "_path": "lib/libgstbase-1.0.so",
                "path_type": "softlink",
                "sha256_in_prefix": "e2599d9ac40372c8967869f5d17d74277df22114bba03a1d30f2beb3873bcee5",
                "size_in_bytes": 629264
            },
            {
                "_path": "lib/libgstbase-1.0.so.0",
                "path_type": "softlink",
                "sha256_in_prefix": "e2599d9ac40372c8967869f5d17d74277df22114bba03a1d30f2beb3873bcee5",
                "size_in_bytes": 629264
            },
            {
                "_path": "lib/libgstbase-1.0.so.0.2405.0",
                "path_type": "hardlink",
                "sha256": "e2599d9ac40372c8967869f5d17d74277df22114bba03a1d30f2beb3873bcee5",
                "sha256_in_prefix": "e2599d9ac40372c8967869f5d17d74277df22114bba03a1d30f2beb3873bcee5",
                "size_in_bytes": 629264
            },
            {
                "_path": "lib/libgstcheck-1.0.so",
                "path_type": "softlink",
                "sha256_in_prefix": "b34653207973e16be0319de5ea52466d93dce59f5f6a4c6fbdc0da0d42085dbf",
                "size_in_bytes": 181216
            },
            {
                "_path": "lib/libgstcheck-1.0.so.0",
                "path_type": "softlink",
                "sha256_in_prefix": "b34653207973e16be0319de5ea52466d93dce59f5f6a4c6fbdc0da0d42085dbf",
                "size_in_bytes": 181216
            },
            {
                "_path": "lib/libgstcheck-1.0.so.0.2405.0",
                "path_type": "hardlink",
                "sha256": "b34653207973e16be0319de5ea52466d93dce59f5f6a4c6fbdc0da0d42085dbf",
                "sha256_in_prefix": "b34653207973e16be0319de5ea52466d93dce59f5f6a4c6fbdc0da0d42085dbf",
                "size_in_bytes": 181216
            },
            {
                "_path": "lib/libgstcontroller-1.0.so",
                "path_type": "softlink",
                "sha256_in_prefix": "1a4d468345fcf41b33a31c53413522bb6ab88f2078b7cef1228555ddc7b8b8ca",
                "size_in_bytes": 91088
            },
            {
                "_path": "lib/libgstcontroller-1.0.so.0",
                "path_type": "softlink",
                "sha256_in_prefix": "1a4d468345fcf41b33a31c53413522bb6ab88f2078b7cef1228555ddc7b8b8ca",
                "size_in_bytes": 91088
            },
            {
                "_path": "lib/libgstcontroller-1.0.so.0.2405.0",
                "path_type": "hardlink",
                "sha256": "1a4d468345fcf41b33a31c53413522bb6ab88f2078b7cef1228555ddc7b8b8ca",
                "sha256_in_prefix": "1a4d468345fcf41b33a31c53413522bb6ab88f2078b7cef1228555ddc7b8b8ca",
                "size_in_bytes": 91088
            },
            {
                "_path": "lib/libgstnet-1.0.so",
                "path_type": "softlink",
                "sha256_in_prefix": "590e928859c33a6d2752ad1de38229876ea6f0a3e86835351ff19e07dc37c087",
                "size_in_bytes": 136152
            },
            {
                "_path": "lib/libgstnet-1.0.so.0",
                "path_type": "softlink",
                "sha256_in_prefix": "590e928859c33a6d2752ad1de38229876ea6f0a3e86835351ff19e07dc37c087",
                "size_in_bytes": 136152
            },
            {
                "_path": "lib/libgstnet-1.0.so.0.2405.0",
                "path_type": "hardlink",
                "sha256": "1beba98a2219c011041c5de30aabad0bdf55d7b00aad84c4e2af70dd3f9d58ad",
                "sha256_in_prefix": "590e928859c33a6d2752ad1de38229876ea6f0a3e86835351ff19e07dc37c087",
                "size_in_bytes": 136152
            },
            {
                "_path": "lib/libgstreamer-1.0.so",
                "path_type": "softlink",
                "sha256_in_prefix": "4f3afe4f9b366ce3d129b527ca6f11657f646a47a4d1f45d03c5fc653596370e",
                "size_in_bytes": 1642384
            },
            {
                "_path": "lib/libgstreamer-1.0.so.0",
                "path_type": "softlink",
                "sha256_in_prefix": "4f3afe4f9b366ce3d129b527ca6f11657f646a47a4d1f45d03c5fc653596370e",
                "size_in_bytes": 1642384
            },
            {
                "_path": "lib/libgstreamer-1.0.so.0.2405.0",
                "path_type": "hardlink",
                "sha256": "6cef0bf1fc0380f7b1f71d218bdd0057aa733c06e34fb6c76090a5c692cc9d80",
                "sha256_in_prefix": "4f3afe4f9b366ce3d129b527ca6f11657f646a47a4d1f45d03c5fc653596370e",
                "size_in_bytes": 1642384
            },
            {
                "_path": "lib/pkgconfig/gstreamer-1.0.pc",
                "path_type": "hardlink",
                "sha256": "88c9664957501b73b68bbefb8efc8510893e588291a8c69b20e10311eabd87fa",
                "sha256_in_prefix": "1c612cd481c5ececce3adbcaa2729ed1e1d2723987f3dd24a97efbac295b92fd",
                "size_in_bytes": 821
            },
            {
                "_path": "lib/pkgconfig/gstreamer-base-1.0.pc",
                "path_type": "hardlink",
                "sha256": "6cbd711a573d931897f7ab896702083f272d08a59b47497ec4c13ad98d035bf5",
                "sha256_in_prefix": "adbf3fcb698a8711a076a98c888a8db24db804a2bda4d5434c6e098f9e37cb54",
                "size_in_bytes": 820
            },
            {
                "_path": "lib/pkgconfig/gstreamer-check-1.0.pc",
                "path_type": "hardlink",
                "sha256": "826cbc572d314ef2a4473a1e2cf66ce85d43fa3ea03239ef0c303a4ebb49439f",
                "sha256_in_prefix": "5440826f88035b4f4f9ba77ef2dbbaa8e9b2025191d8a459a1450655c99dce93",
                "size_in_bytes": 859
            },
            {
                "_path": "lib/pkgconfig/gstreamer-controller-1.0.pc",
                "path_type": "hardlink",
                "sha256": "51ab14fc2c66bd64cc93fca1cc5a464276a39f8471f10e2fd6cba1c8b5fa74c1",
                "sha256_in_prefix": "06fd8c1d6ca8b489c31a9fe22013d18270d53c470530751336684934122703bd",
                "size_in_bytes": 863
            },
            {
                "_path": "lib/pkgconfig/gstreamer-net-1.0.pc",
                "path_type": "hardlink",
                "sha256": "35765a8d023992b301ceb2e2e6a033636fd4b88382292dd79ca8655537ee704d",
                "sha256_in_prefix": "9417112aa2414d4858ba4ba2ac8631991947452b32f0383dbd1a92453e74ef3f",
                "size_in_bytes": 898
            },
            {
                "_path": "libexec/gstreamer-1.0/gst-completion-helper",
                "path_type": "hardlink",
                "sha256": "49d8ec1cd4aa8747a4c8b1e2e8addfb49654f69c84a1a3f7c49d8be8919b351e",
                "sha256_in_prefix": "49d8ec1cd4aa8747a4c8b1e2e8addfb49654f69c84a1a3f7c49d8be8919b351e",
                "size_in_bytes": 21544
            },
            {
                "_path": "libexec/gstreamer-1.0/gst-hotdoc-plugins-scanner",
                "path_type": "hardlink",
                "sha256": "d5c8ef0d4ba773e3b8819a7268d5a33e3bfddec8f7e9ff70491dbecf17c10963",
                "sha256_in_prefix": "25ebd700b53cb15588b36d801de114025ebcc80731d90fc49bd4bce64ebc6136",
                "size_in_bytes": 46248
            },
            {
                "_path": "libexec/gstreamer-1.0/gst-plugin-scanner",
                "path_type": "hardlink",
                "sha256": "2c2f661ca67c6b886528360c72b64e1cd841a4dbadc45d7929e079260c00c28b",
                "sha256_in_prefix": "2c2f661ca67c6b886528360c72b64e1cd841a4dbadc45d7929e079260c00c28b",
                "size_in_bytes": 16112
            },
            {
                "_path": "libexec/gstreamer-1.0/gst-plugins-doc-cache-generator",
                "path_type": "hardlink",
                "sha256": "70bfe58d48cd23e2d8ab439609b9c860999b8c016c18f3b3700479739e89a9b8",
                "sha256_in_prefix": "70bfe58d48cd23e2d8ab439609b9c860999b8c016c18f3b3700479739e89a9b8",
                "size_in_bytes": 7254
            },
            {
                "_path": "share/aclocal/gst-element-check-1.0.m4",
                "path_type": "hardlink",
                "sha256": "61b7e22a055c73cecd126ee1e53d18c93544d0021461036d51ee793523c6cad6",
                "sha256_in_prefix": "61b7e22a055c73cecd126ee1e53d18c93544d0021461036d51ee793523c6cad6",
                "size_in_bytes": 1194
            },
            {
                "_path": "share/gir-1.0/Gst-1.0.gir",
                "path_type": "hardlink",
                "sha256": "71afe08f88cbd8e4f0513a8afd2e6f524f1ff20f9ae06e77e3d322fedcec3914",
                "sha256_in_prefix": "71afe08f88cbd8e4f0513a8afd2e6f524f1ff20f9ae06e77e3d322fedcec3914",
                "size_in_bytes": 3649183
            },
            {
                "_path": "share/gir-1.0/GstBase-1.0.gir",
                "path_type": "hardlink",
                "sha256": "cefe1449e6de4363cb494d9f755d9b203af79570f0836f1d3965d32930008c7a",
                "sha256_in_prefix": "cefe1449e6de4363cb494d9f755d9b203af79570f0836f1d3965d32930008c7a",
                "size_in_bytes": 941537
            },
            {
                "_path": "share/gir-1.0/GstCheck-1.0.gir",
                "path_type": "hardlink",
                "sha256": "22cb6928f06db59c31561ee1fe29ed3bfe07774afcdeec40ec6021b75587fdfd",
                "sha256_in_prefix": "22cb6928f06db59c31561ee1fe29ed3bfe07774afcdeec40ec6021b75587fdfd",
                "size_in_bytes": 244551
            },
            {
                "_path": "share/gir-1.0/GstController-1.0.gir",
                "path_type": "hardlink",
                "sha256": "5b9d2d64c19d3aa59f9bd40c8ea20ea0f84b0746d849ca8ec8c79f6950b20890",
                "sha256_in_prefix": "5b9d2d64c19d3aa59f9bd40c8ea20ea0f84b0746d849ca8ec8c79f6950b20890",
                "size_in_bytes": 74136
            },
            {
                "_path": "share/gir-1.0/GstNet-1.0.gir",
                "path_type": "hardlink",
                "sha256": "acecb9943d91c4ff68a7422e3ed03bd09b5ddd5a441360c0ff01f1d913486495",
                "sha256_in_prefix": "acecb9943d91c4ff68a7422e3ed03bd09b5ddd5a441360c0ff01f1d913486495",
                "size_in_bytes": 61762
            },
            {
                "_path": "share/locale/af/LC_MESSAGES/gstreamer-1.0.mo",
                "path_type": "hardlink",
                "sha256": "db55ec5dad77ae68948bd946299e03dbde284ef5df4d1ca0eafc6060c15ad0fb",
                "sha256_in_prefix": "db55ec5dad77ae68948bd946299e03dbde284ef5df4d1ca0eafc6060c15ad0fb",
                "size_in_bytes": 14117
            },
            {
                "_path": "share/locale/ast/LC_MESSAGES/gstreamer-1.0.mo",
                "path_type": "hardlink",
                "sha256": "62bbf2079a4beecb5e1400d41428bae468951196a08890b837b3751e43d12238",
                "sha256_in_prefix": "62bbf2079a4beecb5e1400d41428bae468951196a08890b837b3751e43d12238",
                "size_in_bytes": 28587
            },
            {
                "_path": "share/locale/az/LC_MESSAGES/gstreamer-1.0.mo",
                "path_type": "hardlink",
                "sha256": "911738e5f4485d3f8c487c218a57145c9b062f4ada0a3565eb253702203d7b02",
                "sha256_in_prefix": "911738e5f4485d3f8c487c218a57145c9b062f4ada0a3565eb253702203d7b02",
                "size_in_bytes": 1680
            },
            {
                "_path": "share/locale/be/LC_MESSAGES/gstreamer-1.0.mo",
                "path_type": "hardlink",
                "sha256": "830939e494422b6d739d1b6a4b9cb90638510a65fb46a29bbbe58aa573c98e82",
                "sha256_in_prefix": "830939e494422b6d739d1b6a4b9cb90638510a65fb46a29bbbe58aa573c98e82",
                "size_in_bytes": 4840
            },
            {
                "_path": "share/locale/bg/LC_MESSAGES/gstreamer-1.0.mo",
                "path_type": "hardlink",
                "sha256": "8588e942c02c61d53e3943180b3bac8fc2bee502a81226a05edf0bd7a2c5176e",
                "sha256_in_prefix": "8588e942c02c61d53e3943180b3bac8fc2bee502a81226a05edf0bd7a2c5176e",
                "size_in_bytes": 52090
            },
            {
                "_path": "share/locale/ca/LC_MESSAGES/gstreamer-1.0.mo",
                "path_type": "hardlink",
                "sha256": "1b3a02c89e08eda681af50b4bef8521b3d96c9bb286d091b00ede3947eb1d7dd",
                "sha256_in_prefix": "1b3a02c89e08eda681af50b4bef8521b3d96c9bb286d091b00ede3947eb1d7dd",
                "size_in_bytes": 32630
            },
            {
                "_path": "share/locale/cs/LC_MESSAGES/gstreamer-1.0.mo",
                "path_type": "hardlink",
                "sha256": "9d2d4107628cb5180e87055ca7dc6273f395d154cea8cd7ccb88e54fd1b3ce22",
                "sha256_in_prefix": "9d2d4107628cb5180e87055ca7dc6273f395d154cea8cd7ccb88e54fd1b3ce22",
                "size_in_bytes": 37908
            },
            {
                "_path": "share/locale/da/LC_MESSAGES/gstreamer-1.0.mo",
                "path_type": "hardlink",
                "sha256": "5b1138dceea0e4ba43bf32700bdda38e1308d23dd0d9f3efb14a997b3effbb1e",
                "sha256_in_prefix": "5b1138dceea0e4ba43bf32700bdda38e1308d23dd0d9f3efb14a997b3effbb1e",
                "size_in_bytes": 36918
            },
            {
                "_path": "share/locale/de/LC_MESSAGES/gstreamer-1.0.mo",
                "path_type": "hardlink",
                "sha256": "7e1dad76178a0d9a97e3e5c53e58e8408f281e6e3e1162ca9e2bf9e7d257fda3",
                "sha256_in_prefix": "7e1dad76178a0d9a97e3e5c53e58e8408f281e6e3e1162ca9e2bf9e7d257fda3",
                "size_in_bytes": 40671
            },
            {
                "_path": "share/locale/el/LC_MESSAGES/gstreamer-1.0.mo",
                "path_type": "hardlink",
                "sha256": "33942daefed02f613bb49bec0ff0a0ae7122acff22b9ecf71d67bafa5470cfca",
                "sha256_in_prefix": "33942daefed02f613bb49bec0ff0a0ae7122acff22b9ecf71d67bafa5470cfca",
                "size_in_bytes": 42588
            },
            {
                "_path": "share/locale/en_GB/LC_MESSAGES/gstreamer-1.0.mo",
                "path_type": "hardlink",
                "sha256": "bc54c3e667617a942b38c53f9bfcf33115a53da148bf324dd1a3e6b0d2d8abf3",
                "sha256_in_prefix": "bc54c3e667617a942b38c53f9bfcf33115a53da148bf324dd1a3e6b0d2d8abf3",
                "size_in_bytes": 10839
            },
            {
                "_path": "share/locale/eo/LC_MESSAGES/gstreamer-1.0.mo",
                "path_type": "hardlink",
                "sha256": "386f8fd68a571dd9de48575317e29517532166f9aa29e9a431a55eb1b3925362",
                "sha256_in_prefix": "386f8fd68a571dd9de48575317e29517532166f9aa29e9a431a55eb1b3925362",
                "size_in_bytes": 38224
            },
            {
                "_path": "share/locale/es/LC_MESSAGES/gstreamer-1.0.mo",
                "path_type": "hardlink",
                "sha256": "ff9088baaf850352765c624128034710182a25eeecab599d21524e6c4711e7f4",
                "sha256_in_prefix": "ff9088baaf850352765c624128034710182a25eeecab599d21524e6c4711e7f4",
                "size_in_bytes": 40791
            },
            {
                "_path": "share/locale/eu/LC_MESSAGES/gstreamer-1.0.mo",
                "path_type": "hardlink",
                "sha256": "e08216b081ae85e9c1088f9c45578803bc7a2e8c79152118e989ce662629c244",
                "sha256_in_prefix": "e08216b081ae85e9c1088f9c45578803bc7a2e8c79152118e989ce662629c244",
                "size_in_bytes": 28385
            },
            {
                "_path": "share/locale/fi/LC_MESSAGES/gstreamer-1.0.mo",
                "path_type": "hardlink",
                "sha256": "531a7187e000084374c9f644ba483320824ec01a066ee8d2277e802836cae4a3",
                "sha256_in_prefix": "531a7187e000084374c9f644ba483320824ec01a066ee8d2277e802836cae4a3",
                "size_in_bytes": 31437
            },
            {
                "_path": "share/locale/fr/LC_MESSAGES/gstreamer-1.0.mo",
                "path_type": "hardlink",
                "sha256": "eb696a97d212b08c9fe13839f6286d1d31f71c5fda30edaaf082263fd2a87fe2",
                "sha256_in_prefix": "eb696a97d212b08c9fe13839f6286d1d31f71c5fda30edaaf082263fd2a87fe2",
                "size_in_bytes": 41327
            },
            {
                "_path": "share/locale/fur/LC_MESSAGES/gstreamer-1.0.mo",
                "path_type": "hardlink",
                "sha256": "cde31c273702aece2fa42f41b725e573eac5d6af37bfe7c2de0c327a6bdabfc6",
                "sha256_in_prefix": "cde31c273702aece2fa42f41b725e573eac5d6af37bfe7c2de0c327a6bdabfc6",
                "size_in_bytes": 27990
            },
            {
                "_path": "share/locale/gl/LC_MESSAGES/gstreamer-1.0.mo",
                "path_type": "hardlink",
                "sha256": "2cd8920bb6b908cf7c03f3d225b4052c45d6f288ac034dfb3d08ba2d01669e1e",
                "sha256_in_prefix": "2cd8920bb6b908cf7c03f3d225b4052c45d6f288ac034dfb3d08ba2d01669e1e",
                "size_in_bytes": 34222
            },
            {
                "_path": "share/locale/hr/LC_MESSAGES/gstreamer-1.0.mo",
                "path_type": "hardlink",
                "sha256": "e2257bb35e56a4f3857e901c8e2ab258095f6cb9caae20d24ac8ff83ca33cd68",
                "sha256_in_prefix": "e2257bb35e56a4f3857e901c8e2ab258095f6cb9caae20d24ac8ff83ca33cd68",
                "size_in_bytes": 39524
            },
            {
                "_path": "share/locale/hu/LC_MESSAGES/gstreamer-1.0.mo",
                "path_type": "hardlink",
                "sha256": "94380ee60b4dbf51f0e2715581faadf1cbca1a0bb3b553ebd54075b0084fc985",
                "sha256_in_prefix": "94380ee60b4dbf51f0e2715581faadf1cbca1a0bb3b553ebd54075b0084fc985",
                "size_in_bytes": 40778
            },
            {
                "_path": "share/locale/id/LC_MESSAGES/gstreamer-1.0.mo",
                "path_type": "hardlink",
                "sha256": "6d3dabbf31c78253da44c4dd839b606d09762f9b7879fa0efad3d9763bdbecb3",
                "sha256_in_prefix": "6d3dabbf31c78253da44c4dd839b606d09762f9b7879fa0efad3d9763bdbecb3",
                "size_in_bytes": 38306
            },
            {
                "_path": "share/locale/it/LC_MESSAGES/gstreamer-1.0.mo",
                "path_type": "hardlink",
                "sha256": "845a2b23160cae507488750c91bb7538e93d36632cfaeb29bf6cd73ec4c4d2a0",
                "sha256_in_prefix": "845a2b23160cae507488750c91bb7538e93d36632cfaeb29bf6cd73ec4c4d2a0",
                "size_in_bytes": 38503
            },
            {
                "_path": "share/locale/ja/LC_MESSAGES/gstreamer-1.0.mo",
                "path_type": "hardlink",
                "sha256": "019fadf1d38449a92a902fe423222ebd1c55b9faf4df3b0dc5e20dc759d8fb45",
                "sha256_in_prefix": "019fadf1d38449a92a902fe423222ebd1c55b9faf4df3b0dc5e20dc759d8fb45",
                "size_in_bytes": 16022
            },
            {
                "_path": "share/locale/ka/LC_MESSAGES/gstreamer-1.0.mo",
                "path_type": "hardlink",
                "sha256": "bd7d3366b247c86387e9b1ca750d77443319a537789975f689778cf9f6095481",
                "sha256_in_prefix": "bd7d3366b247c86387e9b1ca750d77443319a537789975f689778cf9f6095481",
                "size_in_bytes": 29341
            },
            {
                "_path": "share/locale/ko/LC_MESSAGES/gstreamer-1.0.mo",
                "path_type": "hardlink",
                "sha256": "6e2e247a9afd7737a0e51c61f8f87099270223a451d61e3fd1dadaf66c4736b3",
                "sha256_in_prefix": "6e2e247a9afd7737a0e51c61f8f87099270223a451d61e3fd1dadaf66c4736b3",
                "size_in_bytes": 14331
            },
            {
                "_path": "share/locale/lt/LC_MESSAGES/gstreamer-1.0.mo",
                "path_type": "hardlink",
                "sha256": "084854bd1b6aa042f0be3e0ac3e141c53d3cdddf5860635c16efef6d1f8f7e56",
                "sha256_in_prefix": "084854bd1b6aa042f0be3e0ac3e141c53d3cdddf5860635c16efef6d1f8f7e56",
                "size_in_bytes": 30227
            },
            {
                "_path": "share/locale/lv/LC_MESSAGES/gstreamer-1.0.mo",
                "path_type": "hardlink",
                "sha256": "e84a631213a89f7a46ad4bc63cf1604376f8564cca1f5a3b5498a38255c66382",
                "sha256_in_prefix": "e84a631213a89f7a46ad4bc63cf1604376f8564cca1f5a3b5498a38255c66382",
                "size_in_bytes": 40100
            },
            {
                "_path": "share/locale/nb/LC_MESSAGES/gstreamer-1.0.mo",
                "path_type": "hardlink",
                "sha256": "e4a025ff5b65be977bda3ce140fdbea2a13c2631af912c8ec10bfcd775833743",
                "sha256_in_prefix": "e4a025ff5b65be977bda3ce140fdbea2a13c2631af912c8ec10bfcd775833743",
                "size_in_bytes": 38238
            },
            {
                "_path": "share/locale/nl/LC_MESSAGES/gstreamer-1.0.mo",
                "path_type": "hardlink",
                "sha256": "78a94b1fc7884682b1598ee5db45724a3a7a5141540501ce5a748bab12116503",
                "sha256_in_prefix": "78a94b1fc7884682b1598ee5db45724a3a7a5141540501ce5a748bab12116503",
                "size_in_bytes": 39506
            },
            {
                "_path": "share/locale/pl/LC_MESSAGES/gstreamer-1.0.mo",
                "path_type": "hardlink",
                "sha256": "3b9ed44c961b4d4444f801eb05e80a5ec44d2c7fa9a5d1ab2a1cd473aa9b7a17",
                "sha256_in_prefix": "3b9ed44c961b4d4444f801eb05e80a5ec44d2c7fa9a5d1ab2a1cd473aa9b7a17",
                "size_in_bytes": 39912
            },
            {
                "_path": "share/locale/pt_BR/LC_MESSAGES/gstreamer-1.0.mo",
                "path_type": "hardlink",
                "sha256": "51a5d7c67fb46b19f5a8a7f454ebaefc3179e7d51900c85304b5e27564a934eb",
                "sha256_in_prefix": "51a5d7c67fb46b19f5a8a7f454ebaefc3179e7d51900c85304b5e27564a934eb",
                "size_in_bytes": 40424
            },
            {
                "_path": "share/locale/ro/LC_MESSAGES/gstreamer-1.0.mo",
                "path_type": "hardlink",
                "sha256": "d1f9f52d8bcd75a4ef0f399876c8f867299c302160bc7c31cca22d95e6242f28",
                "sha256_in_prefix": "d1f9f52d8bcd75a4ef0f399876c8f867299c302160bc7c31cca22d95e6242f28",
                "size_in_bytes": 41717
            },
            {
                "_path": "share/locale/ru/LC_MESSAGES/gstreamer-1.0.mo",
                "path_type": "hardlink",
                "sha256": "47788ce3ffa947b5284492eafefa1e94834368565c13c8b8775ebff13d2cd245",
                "sha256_in_prefix": "47788ce3ffa947b5284492eafefa1e94834368565c13c8b8775ebff13d2cd245",
                "size_in_bytes": 51178
            },
            {
                "_path": "share/locale/rw/LC_MESSAGES/gstreamer-1.0.mo",
                "path_type": "hardlink",
                "sha256": "cd84a29c3e3c5a1f4a12b4e500e54c7c5522eff2bfacdd892b6e6edbbd080dc0",
                "sha256_in_prefix": "cd84a29c3e3c5a1f4a12b4e500e54c7c5522eff2bfacdd892b6e6edbbd080dc0",
                "size_in_bytes": 622
            },
            {
                "_path": "share/locale/sk/LC_MESSAGES/gstreamer-1.0.mo",
                "path_type": "hardlink",
                "sha256": "e0e93c50c18318d11e6a03163f1f44fb8d4d50dea6ba9e1753e4839ec9de4af7",
                "sha256_in_prefix": "e0e93c50c18318d11e6a03163f1f44fb8d4d50dea6ba9e1753e4839ec9de4af7",
                "size_in_bytes": 36585
            },
            {
                "_path": "share/locale/sl/LC_MESSAGES/gstreamer-1.0.mo",
                "path_type": "hardlink",
                "sha256": "723f5d1f0032cfd5c31b669654a0e62ca6c14ed9ac45cd46a010b9ef31a50a12",
                "sha256_in_prefix": "723f5d1f0032cfd5c31b669654a0e62ca6c14ed9ac45cd46a010b9ef31a50a12",
                "size_in_bytes": 34250
            },
            {
                "_path": "share/locale/sq/LC_MESSAGES/gstreamer-1.0.mo",
                "path_type": "hardlink",
                "sha256": "1f01ff17712ce023ab44369a1e17b237e336cf853b9cc689a765cf64160a4bfd",
                "sha256_in_prefix": "1f01ff17712ce023ab44369a1e17b237e336cf853b9cc689a765cf64160a4bfd",
                "size_in_bytes": 12795
            },
            {
                "_path": "share/locale/sr/LC_MESSAGES/gstreamer-1.0.mo",
                "path_type": "hardlink",
                "sha256": "2ca4c812b03969d18f675c75136406c88cad2d254359b0f8a4728d5eb9ef7475",
                "sha256_in_prefix": "2ca4c812b03969d18f675c75136406c88cad2d254359b0f8a4728d5eb9ef7475",
                "size_in_bytes": 50816
            },
            {
                "_path": "share/locale/sv/LC_MESSAGES/gstreamer-1.0.mo",
                "path_type": "hardlink",
                "sha256": "7f3721db47299191ab290e7ca67a52e91c289c1c3dbb007082d2ce712b0bf096",
                "sha256_in_prefix": "7f3721db47299191ab290e7ca67a52e91c289c1c3dbb007082d2ce712b0bf096",
                "size_in_bytes": 39433
            },
            {
                "_path": "share/locale/tr/LC_MESSAGES/gstreamer-1.0.mo",
                "path_type": "hardlink",
                "sha256": "8a3173cb0300a82cf4c5bbccf2c4ef89d3f235a0cb7aa16f1d1c032d54356077",
                "sha256_in_prefix": "8a3173cb0300a82cf4c5bbccf2c4ef89d3f235a0cb7aa16f1d1c032d54356077",
                "size_in_bytes": 39294
            },
            {
                "_path": "share/locale/uk/LC_MESSAGES/gstreamer-1.0.mo",
                "path_type": "hardlink",
                "sha256": "e987ab2602f7958305af0c20f6d981d8fc75e288c1da046544110f37d114304a",
                "sha256_in_prefix": "e987ab2602f7958305af0c20f6d981d8fc75e288c1da046544110f37d114304a",
                "size_in_bytes": 52294
            },
            {
                "_path": "share/locale/vi/LC_MESSAGES/gstreamer-1.0.mo",
                "path_type": "hardlink",
                "sha256": "f5c4d97d5dde0a9a6ece26c39738c50f58bfb295b0cd06920eaeb43a2b1fa0a6",
                "sha256_in_prefix": "f5c4d97d5dde0a9a6ece26c39738c50f58bfb295b0cd06920eaeb43a2b1fa0a6",
                "size_in_bytes": 41225
            },
            {
                "_path": "share/locale/zh_CN/LC_MESSAGES/gstreamer-1.0.mo",
                "path_type": "hardlink",
                "sha256": "f5c05c02467645b1640728fe08205f3511c44c14ef2a03a537d8a48c23fad87f",
                "sha256_in_prefix": "f5c05c02467645b1640728fe08205f3511c44c14ef2a03a537d8a48c23fad87f",
                "size_in_bytes": 36136
            },
            {
                "_path": "share/locale/zh_TW/LC_MESSAGES/gstreamer-1.0.mo",
                "path_type": "hardlink",
                "sha256": "4772ba5d750b99960361e4d72656aa984dcbccad56a978bdff49ca0c3c5eb991",
                "sha256_in_prefix": "4772ba5d750b99960361e4d72656aa984dcbccad56a978bdff49ca0c3c5eb991",
                "size_in_bytes": 33236
            },
            {
                "_path": "share/man/man1/gst-inspect-1.0.1",
                "path_type": "hardlink",
                "sha256": "4aa01a039000c53a3058dae1cc707f7589e4c73e26ea337ba50dd273692c3401",
                "sha256_in_prefix": "4aa01a039000c53a3058dae1cc707f7589e4c73e26ea337ba50dd273692c3401",
                "size_in_bytes": 3046
            },
            {
                "_path": "share/man/man1/gst-launch-1.0.1",
                "path_type": "hardlink",
                "sha256": "8d45b481018f9d6472a59721c6488e0e5fc9f463ca6f5d99a94024f4fb6338bb",
                "sha256_in_prefix": "8d45b481018f9d6472a59721c6488e0e5fc9f463ca6f5d99a94024f4fb6338bb",
                "size_in_bytes": 19793
            },
            {
                "_path": "share/man/man1/gst-stats-1.0.1",
                "path_type": "hardlink",
                "sha256": "761581749af6be40df2268d0fc9602565c45cfee2ab7f44785b6fbe44c9553d3",
                "sha256_in_prefix": "761581749af6be40df2268d0fc9602565c45cfee2ab7f44785b6fbe44c9553d3",
                "size_in_bytes": 699
            },
            {
                "_path": "share/man/man1/gst-typefind-1.0.1",
                "path_type": "hardlink",
                "sha256": "960d62cb802b9fd53cecfdfbfa0ba75929d5bad9a64ede7a788c2e71bd65d2ba",
                "sha256_in_prefix": "960d62cb802b9fd53cecfdfbfa0ba75929d5bad9a64ede7a788c2e71bd65d2ba",
                "size_in_bytes": 981
            }
        ],
        "paths_version": 1
    },
    "platform": "linux",
    "requested_spec": "",
    "sha256": "b824bf5e8b1b2aed4b6cad08caccdb48624a3180a96e7e6b5b978f009a3a7e85",
    "size": 2020578,
    "subdir": "linux-64",
    "timestamp": 1718924252333,
    "track_features": "",
    "url": "https://conda.anaconda.org/conda-forge/linux-64/gstreamer-1.24.5-haf2f30d_0.conda",
    "version": "1.24.5"
}