{
    "arch": "x86_64",
    "build": "hc9a23c6_2_cpu",
    "build_number": 2,
    "build_string": "hc9a23c6_2_cpu",
    "channel": "https://conda.anaconda.org/conda-forge/linux-64",
    "constrains": [],
    "depends": [
        "__glibc >=2.17,<3.0.a0",
        "libabseil * cxx17*",
        "libabseil >=20240116.2,<20240117.0a0",
        "libarrow 17.0.0 h4b47046_2_cpu",
        "libarrow-acero 17.0.0 he02047a_2_cpu",
        "libarrow-dataset 17.0.0 he02047a_2_cpu",
        "libgcc-ng >=12",
        "libprotobuf >=4.25.3,<4.25.4.0a0",
        "libstdcxx-ng >=12"
    ],
    "extracted_package_dir": "/eos/home-s/staj/Higg\t/micromamba/pkgs/libarrow-substrait-17.0.0-hc9a23c6_2_cpu",
    "files": [
        "lib/cmake/ArrowSubstrait/ArrowSubstraitConfig.cmake",
        "lib/cmake/ArrowSubstrait/ArrowSubstraitConfigVersion.cmake",
        "lib/cmake/ArrowSubstrait/ArrowSubstraitTargets-release.cmake",
        "lib/cmake/ArrowSubstrait/ArrowSubstraitTargets.cmake",
        "lib/libarrow_substrait.so",
        "lib/libarrow_substrait.so.1700",
        "lib/libarrow_substrait.so.1700.0.0",
        "lib/pkgconfig/arrow-substrait.pc"
    ],
    "fn": "libarrow-substrait-17.0.0-hc9a23c6_2_cpu.conda",
    "license": "Apache-2.0",
    "link": {
        "source": "/eos/home-s/staj/Higg\t/micromamba/pkgs/libarrow-substrait-17.0.0-hc9a23c6_2_cpu",
        "type": 1
    },
    "md5": "7c6bbc213f37b593c6a90a36b371e48d",
    "name": "libarrow-substrait",
    "package_tarball_full_path": "/eos/home-s/staj/Higg\t/micromamba/pkgs/libarrow-substrait-17.0.0-hc9a23c6_2_cpu.tar.bz2",
    "paths_data": {
        "paths": [
            {
                "_path": "lib/cmake/ArrowSubstrait/ArrowSubstraitConfig.cmake",
                "path_type": "hardlink",
                "sha256": "5d2faccc8080c15f44ef953965e7158e5e06a7a882caf87be3fc591ef5836c71",
                "sha256_in_prefix": "5d2faccc8080c15f44ef953965e7158e5e06a7a882caf87be3fc591ef5836c71",
                "size_in_bytes": 2443
            },
            {
                "_path": "lib/cmake/ArrowSubstrait/ArrowSubstraitConfigVersion.cmake",
                "path_type": "hardlink",
                "sha256": "f8dcaf2b242c4ccbcd3f5b3d8ca2b3ce346a9f053d0dcdeb26467cfe34183996",
                "sha256_in_prefix": "f8dcaf2b242c4ccbcd3f5b3d8ca2b3ce346a9f053d0dcdeb26467cfe34183996",
                "size_in_bytes": 2765
            },
            {
                "_path": "lib/cmake/ArrowSubstrait/ArrowSubstraitTargets-release.cmake",
                "path_type": "hardlink",
                "sha256": "38e471c9883e2812f701fe3a3eea8d352bf33a5097ad268a203de5e86ade646d",
                "sha256_in_prefix": "38e471c9883e2812f701fe3a3eea8d352bf33a5097ad268a203de5e86ade646d",
                "size_in_bytes": 1006
            },
            {
                "_path": "lib/cmake/ArrowSubstrait/ArrowSubstraitTargets.cmake",
                "path_type": "hardlink",
                "sha256": "14ac284c7b66954b14164fd8e40a42a04a11c29cd0f93f57ce316dfa990dd849",
                "sha256_in_prefix": "14ac284c7b66954b14164fd8e40a42a04a11c29cd0f93f57ce316dfa990dd849",
                "size_in_bytes": 4287
            },
            {
                "_path": "lib/libarrow_substrait.so",
                "path_type": "softlink",
                "sha256_in_prefix": "16b88cd27938594d5e2798f7bff331fd83d1ba762e74e3ea63b8bae80f3bfef8",
                "size_in_bytes": 2552488
            },
            {
                "_path": "lib/libarrow_substrait.so.1700",
                "path_type": "softlink",
                "sha256_in_prefix": "16b88cd27938594d5e2798f7bff331fd83d1ba762e74e3ea63b8bae80f3bfef8",
                "size_in_bytes": 2552488
            },
            {
                "_path": "lib/libarrow_substrait.so.1700.0.0",
                "path_type": "hardlink",
                "sha256": "16b88cd27938594d5e2798f7bff331fd83d1ba762e74e3ea63b8bae80f3bfef8",
                "sha256_in_prefix": "16b88cd27938594d5e2798f7bff331fd83d1ba762e74e3ea63b8bae80f3bfef8",
                "size_in_bytes": 2552488
            },
            {
                "_path": "lib/pkgconfig/arrow-substrait.pc",
                "path_type": "hardlink",
                "sha256": "4ba65c39064f1a34e8fce14d4d88ca81cc81ba275389ed2386de55db909f6cf1",
                "sha256_in_prefix": "4dbf2cda7964efe8d10eab4353a906a4f238aaafd68a75971381d400df1183b7",
                "size_in_bytes": 1300
            }
        ],
        "paths_version": 1
    },
    "platform": "linux",
    "requested_spec": "",
    "sha256": "29c0670577e2a6a298b9119a28dfb6e1b11649587c5abd9e31d89d6b52da8f24",
    "size": 548676,
    "subdir": "linux-64",
    "timestamp": 1721955219102,
    "track_features": "",
    "url": "https://conda.anaconda.org/conda-forge/linux-64/libarrow-substrait-17.0.0-hc9a23c6_2_cpu.conda",
    "version": "17.0.0"
}