{
    "arch": "x86_64",
    "build": "h9e5060d_2_cpu",
    "build_number": 2,
    "build_string": "h9e5060d_2_cpu",
    "channel": "https://conda.anaconda.org/conda-forge/linux-64",
    "constrains": [],
    "depends": [
        "__glibc >=2.17,<3.0.a0",
        "libarrow 17.0.0 h4b47046_2_cpu",
        "libgcc-ng >=12",
        "libstdcxx-ng >=12",
        "libthrift >=0.19.0,<0.19.1.0a0",
        "openssl >=3.3.1,<4.0a0"
    ],
    "extracted_package_dir": "/eos/home-s/staj/Higg\t/micromamba/pkgs/libparquet-17.0.0-h9e5060d_2_cpu",
    "files": [
        "include/parquet/api/io.h",
        "include/parquet/api/reader.h",
        "include/parquet/api/schema.h",
        "include/parquet/api/writer.h",
        "include/parquet/arrow/reader.h",
        "include/parquet/arrow/schema.h",
        "include/parquet/arrow/test_util.h",
        "include/parquet/arrow/writer.h",
        "include/parquet/benchmark_util.h",
        "include/parquet/bloom_filter.h",
        "include/parquet/bloom_filter_reader.h",
        "include/parquet/column_page.h",
        "include/parquet/column_reader.h",
        "include/parquet/column_scanner.h",
        "include/parquet/column_writer.h",
        "include/parquet/encoding.h",
        "include/parquet/encryption/crypto_factory.h",
        "include/parquet/encryption/encryption.h",
        "include/parquet/encryption/file_key_material_store.h",
        "include/parquet/encryption/file_key_unwrapper.h",
        "include/parquet/encryption/file_key_wrapper.h",
        "include/parquet/encryption/file_system_key_material_store.h",
        "include/parquet/encryption/key_encryption_key.h",
        "include/parquet/encryption/key_material.h",
        "include/parquet/encryption/key_metadata.h",
        "include/parquet/encryption/key_toolkit.h",
        "include/parquet/encryption/kms_client.h",
        "include/parquet/encryption/kms_client_factory.h",
        "include/parquet/encryption/local_wrap_kms_client.h",
        "include/parquet/encryption/test_encryption_util.h",
        "include/parquet/encryption/test_in_memory_kms.h",
        "include/parquet/encryption/two_level_cache_with_expiration.h",
        "include/parquet/encryption/type_fwd.h",
        "include/parquet/exception.h",
        "include/parquet/file_reader.h",
        "include/parquet/file_writer.h",
        "include/parquet/hasher.h",
        "include/parquet/level_comparison.h",
        "include/parquet/level_comparison_inc.h",
        "include/parquet/level_conversion.h",
        "include/parquet/level_conversion_inc.h",
        "include/parquet/metadata.h",
        "include/parquet/page_index.h",
        "include/parquet/parquet_version.h",
        "include/parquet/pch.h",
        "include/parquet/platform.h",
        "include/parquet/printer.h",
        "include/parquet/properties.h",
        "include/parquet/schema.h",
        "include/parquet/statistics.h",
        "include/parquet/stream_reader.h",
        "include/parquet/stream_writer.h",
        "include/parquet/test_util.h",
        "include/parquet/type_fwd.h",
        "include/parquet/types.h",
        "include/parquet/windows_compatibility.h",
        "include/parquet/windows_fixup.h",
        "include/parquet/xxhasher.h",
        "lib/cmake/Parquet/FindThriftAlt.cmake",
        "lib/cmake/Parquet/ParquetConfig.cmake",
        "lib/cmake/Parquet/ParquetConfigVersion.cmake",
        "lib/cmake/Parquet/ParquetTargets-release.cmake",
        "lib/cmake/Parquet/ParquetTargets.cmake",
        "lib/libparquet.so",
        "lib/libparquet.so.1700",
        "lib/libparquet.so.1700.0.0",
        "lib/pkgconfig/parquet.pc"
    ],
    "fn": "libparquet-17.0.0-h9e5060d_2_cpu.conda",
    "license": "Apache-2.0",
    "link": {
        "source": "/eos/home-s/staj/Higg\t/micromamba/pkgs/libparquet-17.0.0-h9e5060d_2_cpu",
        "type": 1
    },
    "md5": "e4a82f087e5b915a7ee4cd199a7678df",
    "name": "libparquet",
    "package_tarball_full_path": "/eos/home-s/staj/Higg\t/micromamba/pkgs/libparquet-17.0.0-h9e5060d_2_cpu.tar.bz2",
    "paths_data": {
        "paths": [
            {
                "_path": "include/parquet/api/io.h",
                "path_type": "hardlink",
                "sha256": "46272ad1dd91e105c78866426e3c59ff417f4262aad08adf4e274dbb93685cf2",
                "sha256_in_prefix": "46272ad1dd91e105c78866426e3c59ff417f4262aad08adf4e274dbb93685cf2",
                "size_in_bytes": 847
            },
            {
                "_path": "include/parquet/api/reader.h",
                "path_type": "hardlink",
                "sha256": "be73395c33e7d5356c0c993848381bdd95364dae2f76b4730a90d63bdd2b6079",
                "sha256_in_prefix": "be73395c33e7d5356c0c993848381bdd95364dae2f76b4730a90d63bdd2b6079",
                "size_in_bytes": 1204
            },
            {
                "_path": "include/parquet/api/schema.h",
                "path_type": "hardlink",
                "sha256": "2ac349e76f69121edb1946b4acb50271f6a723dad6dae4938ab829bcaab485d7",
                "sha256_in_prefix": "2ac349e76f69121edb1946b4acb50271f6a723dad6dae4938ab829bcaab485d7",
                "size_in_bytes": 855
            },
            {
                "_path": "include/parquet/api/writer.h",
                "path_type": "hardlink",
                "sha256": "50965b63c40655132d026a33ce3a0cf539c8e20b2caa534550a097070d887ee2",
                "sha256_in_prefix": "50965b63c40655132d026a33ce3a0cf539c8e20b2caa534550a097070d887ee2",
                "size_in_bytes": 1007
            },
            {
                "_path": "include/parquet/arrow/reader.h",
                "path_type": "hardlink",
                "sha256": "978477e75055396a5824ebffbf2a96997749504ae6db3ff3b6f4c0bf9dfbab4c",
                "sha256_in_prefix": "978477e75055396a5824ebffbf2a96997749504ae6db3ff3b6f4c0bf9dfbab4c",
                "size_in_bytes": 15305
            },
            {
                "_path": "include/parquet/arrow/schema.h",
                "path_type": "hardlink",
                "sha256": "322e7aba5ee2b4d4ba3436cca4a3890ae7e31d5a9a498e7fadbb0d44d2c4e7ad",
                "sha256_in_prefix": "322e7aba5ee2b4d4ba3436cca4a3890ae7e31d5a9a498e7fadbb0d44d2c4e7ad",
                "size_in_bytes": 6204
            },
            {
                "_path": "include/parquet/arrow/test_util.h",
                "path_type": "hardlink",
                "sha256": "0e983ef48c87b028e928e677289e159b4229d975d82cf5164d1ffab2abf7674d",
                "sha256_in_prefix": "0e983ef48c87b028e928e677289e159b4229d975d82cf5164d1ffab2abf7674d",
                "size_in_bytes": 20301
            },
            {
                "_path": "include/parquet/arrow/writer.h",
                "path_type": "hardlink",
                "sha256": "ae171593ee71441391cef2e4d3ba9b9efa99867c9160ef80cc68f9d6b324e5d5",
                "sha256_in_prefix": "ae171593ee71441391cef2e4d3ba9b9efa99867c9160ef80cc68f9d6b324e5d5",
                "size_in_bytes": 7953
            },
            {
                "_path": "include/parquet/benchmark_util.h",
                "path_type": "hardlink",
                "sha256": "46116fa03055c9f7794afd1f9bd24ee09ad758944661898822b1d78b471224fd",
                "sha256_in_prefix": "46116fa03055c9f7794afd1f9bd24ee09ad758944661898822b1d78b471224fd",
                "size_in_bytes": 1756
            },
            {
                "_path": "include/parquet/bloom_filter.h",
                "path_type": "hardlink",
                "sha256": "98edd145f79d5967078820938f414843e8d04e1916b363ecca6ebba0809dbad5",
                "sha256_in_prefix": "98edd145f79d5967078820938f414843e8d04e1916b363ecca6ebba0809dbad5",
                "size_in_bytes": 14987
            },
            {
                "_path": "include/parquet/bloom_filter_reader.h",
                "path_type": "hardlink",
                "sha256": "eb79291d82ace533eb6d16a69012d9b0361b0fe23d51e56117e47c77b24778b8",
                "sha256_in_prefix": "eb79291d82ace533eb6d16a69012d9b0361b0fe23d51e56117e47c77b24778b8",
                "size_in_bytes": 2892
            },
            {
                "_path": "include/parquet/column_page.h",
                "path_type": "hardlink",
                "sha256": "fc16cf70c7d26b9d899ad79431db1cec15ba296a065e7f5a41ea4382bd2f7921",
                "sha256_in_prefix": "fc16cf70c7d26b9d899ad79431db1cec15ba296a065e7f5a41ea4382bd2f7921",
                "size_in_bytes": 6526
            },
            {
                "_path": "include/parquet/column_reader.h",
                "path_type": "hardlink",
                "sha256": "4e0cca401e7ef17d7c4774e8cdad57cb909ad5c9a84bb5ba18c5ff80776d0d76",
                "sha256_in_prefix": "4e0cca401e7ef17d7c4774e8cdad57cb909ad5c9a84bb5ba18c5ff80776d0d76",
                "size_in_bytes": 21549
            },
            {
                "_path": "include/parquet/column_scanner.h",
                "path_type": "hardlink",
                "sha256": "1de701be1fb3d27ff51c9b03f8621d7061d002f0ce1ca94bce9a41f5106c0fdb",
                "sha256_in_prefix": "1de701be1fb3d27ff51c9b03f8621d7061d002f0ce1ca94bce9a41f5106c0fdb",
                "size_in_bytes": 8863
            },
            {
                "_path": "include/parquet/column_writer.h",
                "path_type": "hardlink",
                "sha256": "f80f9f192537a059f34072c6494ee3c39fd50cf65ea9d03d0704c67bf80ad61d",
                "sha256_in_prefix": "f80f9f192537a059f34072c6494ee3c39fd50cf65ea9d03d0704c67bf80ad61d",
                "size_in_bytes": 12588
            },
            {
                "_path": "include/parquet/encoding.h",
                "path_type": "hardlink",
                "sha256": "ca094dd40a0eac8342a7f30c05efee46e0455d8b30db2be332666c00ca0416de",
                "sha256_in_prefix": "ca094dd40a0eac8342a7f30c05efee46e0455d8b30db2be332666c00ca0416de",
                "size_in_bytes": 17141
            },
            {
                "_path": "include/parquet/encryption/crypto_factory.h",
                "path_type": "hardlink",
                "sha256": "453e22ce7afabaf4883db53387feece827b17bcb8c6d093382b8c24c66010ba2",
                "sha256_in_prefix": "453e22ce7afabaf4883db53387feece827b17bcb8c6d093382b8c24c66010ba2",
                "size_in_bytes": 7057
            },
            {
                "_path": "include/parquet/encryption/encryption.h",
                "path_type": "hardlink",
                "sha256": "6c727b512724cdecd77f276a8c9b2d963723b91d79afc53ace1f33dc8a08342a",
                "sha256_in_prefix": "6c727b512724cdecd77f276a8c9b2d963723b91d79afc53ace1f33dc8a08342a",
                "size_in_bytes": 19842
            },
            {
                "_path": "include/parquet/encryption/file_key_material_store.h",
                "path_type": "hardlink",
                "sha256": "6330153b73361f9bf9173d9bfd6966077184e7055b3049c54cbdd2f573c7ea4d",
                "sha256_in_prefix": "6330153b73361f9bf9173d9bfd6966077184e7055b3049c54cbdd2f573c7ea4d",
                "size_in_bytes": 2200
            },
            {
                "_path": "include/parquet/encryption/file_key_unwrapper.h",
                "path_type": "hardlink",
                "sha256": "a41df44adf2518468403135cc270e7946b404d3bdcd66b8cccd3aeb1f82acd3f",
                "sha256_in_prefix": "a41df44adf2518468403135cc270e7946b404d3bdcd66b8cccd3aeb1f82acd3f",
                "size_in_bytes": 4635
            },
            {
                "_path": "include/parquet/encryption/file_key_wrapper.h",
                "path_type": "hardlink",
                "sha256": "7765b8c4809b491032eda3dee5129a8613e18890dfbf11d8feffe589fabbc2a6",
                "sha256_in_prefix": "7765b8c4809b491032eda3dee5129a8613e18890dfbf11d8feffe589fabbc2a6",
                "size_in_bytes": 3762
            },
            {
                "_path": "include/parquet/encryption/file_system_key_material_store.h",
                "path_type": "hardlink",
                "sha256": "f47d5ecb43b72cbe1d83d5557852cdc6567b56bdbadc955a6472954aee2cf0c2",
                "sha256_in_prefix": "f47d5ecb43b72cbe1d83d5557852cdc6567b56bdbadc955a6472954aee2cf0c2",
                "size_in_bytes": 3573
            },
            {
                "_path": "include/parquet/encryption/key_encryption_key.h",
                "path_type": "hardlink",
                "sha256": "d1cdd9ad1b9ddafac2bb9cf9d77a1cc8f63196c3f6920d5f43c9b426aafbd358",
                "sha256_in_prefix": "d1cdd9ad1b9ddafac2bb9cf9d77a1cc8f63196c3f6920d5f43c9b426aafbd358",
                "size_in_bytes": 2232
            },
            {
                "_path": "include/parquet/encryption/key_material.h",
                "path_type": "hardlink",
                "sha256": "90f4d222e44560e9c7e0108f201df7cc6f61a790f605afb9919565ab7ac59d12",
                "sha256_in_prefix": "90f4d222e44560e9c7e0108f201df7cc6f61a790f605afb9919565ab7ac59d12",
                "size_in_bytes": 6221
            },
            {
                "_path": "include/parquet/encryption/key_metadata.h",
                "path_type": "hardlink",
                "sha256": "3dcd2703d2d6dc573d34b30cc73ee8b1bc3cb22da34a23954c44be27ef51d32d",
                "sha256_in_prefix": "3dcd2703d2d6dc573d34b30cc73ee8b1bc3cb22da34a23954c44be27ef51d32d",
                "size_in_bytes": 4003
            },
            {
                "_path": "include/parquet/encryption/key_toolkit.h",
                "path_type": "hardlink",
                "sha256": "1cf69b23ca859c8320c596211e05c2cd85742d4d5ce72275eb18d4c76d48f5bd",
                "sha256_in_prefix": "1cf69b23ca859c8320c596211e05c2cd85742d4d5ce72275eb18d4c76d48f5bd",
                "size_in_bytes": 4577
            },
            {
                "_path": "include/parquet/encryption/kms_client.h",
                "path_type": "hardlink",
                "sha256": "0f7e29547ce409b5aa2a73c80587ece9c38dc66b98cf22d24bdf82e76645873d",
                "sha256_in_prefix": "0f7e29547ce409b5aa2a73c80587ece9c38dc66b98cf22d24bdf82e76645873d",
                "size_in_bytes": 3151
            },
            {
                "_path": "include/parquet/encryption/kms_client_factory.h",
                "path_type": "hardlink",
                "sha256": "559f7b08c803431c79a195851a9ae35ec68cd61674c0db9d3e6154d7f9678807",
                "sha256_in_prefix": "559f7b08c803431c79a195851a9ae35ec68cd61674c0db9d3e6154d7f9678807",
                "size_in_bytes": 1293
            },
            {
                "_path": "include/parquet/encryption/local_wrap_kms_client.h",
                "path_type": "hardlink",
                "sha256": "5d9c6411cb74f93bfddd50e975af6c0e8bb5929f6a91328cc6bdfa6e955c23cb",
                "sha256_in_prefix": "5d9c6411cb74f93bfddd50e975af6c0e8bb5929f6a91328cc6bdfa6e955c23cb",
                "size_in_bytes": 3954
            },
            {
                "_path": "include/parquet/encryption/test_encryption_util.h",
                "path_type": "hardlink",
                "sha256": "cc819e50b79338253537e5d81ddbc8a69b61e709e74d81307f687e3ae4dc4194",
                "sha256_in_prefix": "cc819e50b79338253537e5d81ddbc8a69b61e709e74d81307f687e3ae4dc4194",
                "size_in_bytes": 5209
            },
            {
                "_path": "include/parquet/encryption/test_in_memory_kms.h",
                "path_type": "hardlink",
                "sha256": "8d873958fb2b87fc1c69a6967237f6dc66e2c9eddafdb760daba3251fba4584b",
                "sha256_in_prefix": "8d873958fb2b87fc1c69a6967237f6dc66e2c9eddafdb760daba3251fba4584b",
                "size_in_bytes": 3521
            },
            {
                "_path": "include/parquet/encryption/two_level_cache_with_expiration.h",
                "path_type": "hardlink",
                "sha256": "72e1db5fd801596c9dd083d73558cc987c633f0ee89984e7b3821fe188418123",
                "sha256_in_prefix": "72e1db5fd801596c9dd083d73558cc987c633f0ee89984e7b3821fe188418123",
                "size_in_bytes": 5075
            },
            {
                "_path": "include/parquet/encryption/type_fwd.h",
                "path_type": "hardlink",
                "sha256": "74bf2c9f2530363853404d854367570148d36e8117847d8939e850a2f1df8b17",
                "sha256_in_prefix": "74bf2c9f2530363853404d854367570148d36e8117847d8939e850a2f1df8b17",
                "size_in_bytes": 955
            },
            {
                "_path": "include/parquet/exception.h",
                "path_type": "hardlink",
                "sha256": "df925a9a01c55c1cb042dd4229ec46f9844d3538758662851d5012438f9690e1",
                "sha256_in_prefix": "df925a9a01c55c1cb042dd4229ec46f9844d3538758662851d5012438f9690e1",
                "size_in_bytes": 5597
            },
            {
                "_path": "include/parquet/file_reader.h",
                "path_type": "hardlink",
                "sha256": "38544a870030c36376e1a64e65cce7ceb6a5d4eaf54c620519177568008044b4",
                "sha256_in_prefix": "38544a870030c36376e1a64e65cce7ceb6a5d4eaf54c620519177568008044b4",
                "size_in_bytes": 9664
            },
            {
                "_path": "include/parquet/file_writer.h",
                "path_type": "hardlink",
                "sha256": "e9f2ba327f8c76243e278a28f014e2fde55556c8657dfa10889cc568b46ba9ca",
                "sha256_in_prefix": "e9f2ba327f8c76243e278a28f014e2fde55556c8657dfa10889cc568b46ba9ca",
                "size_in_bytes": 9343
            },
            {
                "_path": "include/parquet/hasher.h",
                "path_type": "hardlink",
                "sha256": "1d26351233c3db1c7f741f47b4083e9572fb841e23f4c0c4d1c02547bbb434e7",
                "sha256_in_prefix": "1d26351233c3db1c7f741f47b4083e9572fb841e23f4c0c4d1c02547bbb434e7",
                "size_in_bytes": 5227
            },
            {
                "_path": "include/parquet/level_comparison.h",
                "path_type": "hardlink",
                "sha256": "e73e1f50924f5aaf56eb49760ac008ed3ec4d9ab86603ee6d1fa51e6b7cb9acc",
                "sha256_in_prefix": "e73e1f50924f5aaf56eb49760ac008ed3ec4d9ab86603ee6d1fa51e6b7cb9acc",
                "size_in_bytes": 1306
            },
            {
                "_path": "include/parquet/level_comparison_inc.h",
                "path_type": "hardlink",
                "sha256": "608775bccba41859a738df0707b499ea654aef18fb014ff1b383afbd4302812b",
                "sha256_in_prefix": "608775bccba41859a738df0707b499ea654aef18fb014ff1b383afbd4302812b",
                "size_in_bytes": 2492
            },
            {
                "_path": "include/parquet/level_conversion.h",
                "path_type": "hardlink",
                "sha256": "3acbaa2b5c6252712738b3cac1f9bd5fea574da5d13250c8923de5c066f68202",
                "sha256_in_prefix": "3acbaa2b5c6252712738b3cac1f9bd5fea574da5d13250c8923de5c066f68202",
                "size_in_bytes": 9432
            },
            {
                "_path": "include/parquet/level_conversion_inc.h",
                "path_type": "hardlink",
                "sha256": "bce0b4b0189a5bcf717ef201ebbaf9cc30c63c506300f7b32c476ab195825fbb",
                "sha256_in_prefix": "bce0b4b0189a5bcf717ef201ebbaf9cc30c63c506300f7b32c476ab195825fbb",
                "size_in_bytes": 14147
            },
            {
                "_path": "include/parquet/metadata.h",
                "path_type": "hardlink",
                "sha256": "d54eb2d038c2b68396cba72a8083366a7c611cfb6413c1ed927fedd25f6f3ddd",
                "sha256_in_prefix": "d54eb2d038c2b68396cba72a8083366a7c611cfb6413c1ed927fedd25f6f3ddd",
                "size_in_bytes": 21163
            },
            {
                "_path": "include/parquet/page_index.h",
                "path_type": "hardlink",
                "sha256": "a812aa8aad77d63094aed1427f094191e6fc3cbf7ac8e3ca83b02a92c96733ad",
                "sha256_in_prefix": "a812aa8aad77d63094aed1427f094191e6fc3cbf7ac8e3ca83b02a92c96733ad",
                "size_in_bytes": 16399
            },
            {
                "_path": "include/parquet/parquet_version.h",
                "path_type": "hardlink",
                "sha256": "5bf7a67d0d524e2f444e029c031bbedbfbb1eeea3d0a44252fb991084366289e",
                "sha256_in_prefix": "5bf7a67d0d524e2f444e029c031bbedbfbb1eeea3d0a44252fb991084366289e",
                "size_in_bytes": 1164
            },
            {
                "_path": "include/parquet/pch.h",
                "path_type": "hardlink",
                "sha256": "cc87648d94b892e158adadf0a063239af6170b007821a5dda66fe7479373f219",
                "sha256_in_prefix": "cc87648d94b892e158adadf0a063239af6170b007821a5dda66fe7479373f219",
                "size_in_bytes": 1249
            },
            {
                "_path": "include/parquet/platform.h",
                "path_type": "hardlink",
                "sha256": "efc10c6cd0b929a2aff481f4823f0fc1a83b4f1148b491381b1ae3c69ec91299",
                "sha256_in_prefix": "efc10c6cd0b929a2aff481f4823f0fc1a83b4f1148b491381b1ae3c69ec91299",
                "size_in_bytes": 3820
            },
            {
                "_path": "include/parquet/printer.h",
                "path_type": "hardlink",
                "sha256": "fec279228123e276924d6c6585bab63dce9690d1b7c0cbb1472f337ca7ec009f",
                "sha256_in_prefix": "fec279228123e276924d6c6585bab63dce9690d1b7c0cbb1472f337ca7ec009f",
                "size_in_bytes": 1540
            },
            {
                "_path": "include/parquet/properties.h",
                "path_type": "hardlink",
                "sha256": "4982df117905ff2fb697c695aabf79ca40dbb18003bb300d97cd4d22b5fb4243",
                "sha256_in_prefix": "4982df117905ff2fb697c695aabf79ca40dbb18003bb300d97cd4d22b5fb4243",
                "size_in_bytes": 45676
            },
            {
                "_path": "include/parquet/schema.h",
                "path_type": "hardlink",
                "sha256": "62b9714856364937202b1f46afaa19a707f8f82557278e6d7785efdfc38dbe14",
                "sha256_in_prefix": "62b9714856364937202b1f46afaa19a707f8f82557278e6d7785efdfc38dbe14",
                "size_in_bytes": 18129
            },
            {
                "_path": "include/parquet/statistics.h",
                "path_type": "hardlink",
                "sha256": "05c6f2d56224928f117130fbc7c3df4e944801ca19f41f8f7c7fba2c42cdaaa0",
                "sha256_in_prefix": "05c6f2d56224928f117130fbc7c3df4e944801ca19f41f8f7c7fba2c42cdaaa0",
                "size_in_bytes": 15175
            },
            {
                "_path": "include/parquet/stream_reader.h",
                "path_type": "hardlink",
                "sha256": "d5698dd2f602a93cf52f06ff0e2e313d64c4f956c2410bb366b6a54a95909b75",
                "sha256_in_prefix": "d5698dd2f602a93cf52f06ff0e2e313d64c4f956c2410bb366b6a54a95909b75",
                "size_in_bytes": 8791
            },
            {
                "_path": "include/parquet/stream_writer.h",
                "path_type": "hardlink",
                "sha256": "9f0fefde786b2faf36a336762992959079ceb23c1ec5b9815d357608a72ae184",
                "sha256_in_prefix": "9f0fefde786b2faf36a336762992959079ceb23c1ec5b9815d357608a72ae184",
                "size_in_bytes": 7505
            },
            {
                "_path": "include/parquet/test_util.h",
                "path_type": "hardlink",
                "sha256": "8242683a5fcde1c1b72f9eae5d5262d512e20d5065ef7c97d350e4c763e5b7d8",
                "sha256_in_prefix": "8242683a5fcde1c1b72f9eae5d5262d512e20d5065ef7c97d350e4c763e5b7d8",
                "size_in_bytes": 31180
            },
            {
                "_path": "include/parquet/type_fwd.h",
                "path_type": "hardlink",
                "sha256": "ab1e83860d473b453df6376251fbb7ac2ef386643ede2ed65ec7c486bcdadeb1",
                "sha256_in_prefix": "ab1e83860d473b453df6376251fbb7ac2ef386643ede2ed65ec7c486bcdadeb1",
                "size_in_bytes": 3046
            },
            {
                "_path": "include/parquet/types.h",
                "path_type": "hardlink",
                "sha256": "2056ca94fd1a6735bc0a7e14d1008819ba156fc84e9c3e94bd21a2e84aa9bef1",
                "sha256_in_prefix": "2056ca94fd1a6735bc0a7e14d1008819ba156fc84e9c3e94bd21a2e84aa9bef1",
                "size_in_bytes": 25482
            },
            {
                "_path": "include/parquet/windows_compatibility.h",
                "path_type": "hardlink",
                "sha256": "c481061d6df9e144607483fd038577d374c92fc035224084be9d3c6cc2ac1d35",
                "sha256_in_prefix": "c481061d6df9e144607483fd038577d374c92fc035224084be9d3c6cc2ac1d35",
                "size_in_bytes": 897
            },
            {
                "_path": "include/parquet/windows_fixup.h",
                "path_type": "hardlink",
                "sha256": "173bb70b926cb231294e92c9bbbdc44ca3494947c0faa487e3e8cf8c6c61999e",
                "sha256_in_prefix": "173bb70b926cb231294e92c9bbbdc44ca3494947c0faa487e3e8cf8c6c61999e",
                "size_in_bytes": 1044
            },
            {
                "_path": "include/parquet/xxhasher.h",
                "path_type": "hardlink",
                "sha256": "4006bb644ed2dd416d53f568cf7a22dd872521885b86f88991a7cb398822b968",
                "sha256_in_prefix": "4006bb644ed2dd416d53f568cf7a22dd872521885b86f88991a7cb398822b968",
                "size_in_bytes": 2074
            },
            {
                "_path": "lib/cmake/Parquet/FindThriftAlt.cmake",
                "path_type": "hardlink",
                "sha256": "1bcb25ab8ba2ac1a097054cca8df4b3b8dfb30f194749343f0b8d185614e308d",
                "sha256_in_prefix": "1bcb25ab8ba2ac1a097054cca8df4b3b8dfb30f194749343f0b8d185614e308d",
                "size_in_bytes": 7040
            },
            {
                "_path": "lib/cmake/Parquet/ParquetConfig.cmake",
                "path_type": "hardlink",
                "sha256": "bf1c73f0f8f249bb8030627565b299baacc68f0afd04b79f83e9da257c3a4d37",
                "sha256_in_prefix": "bf1c73f0f8f249bb8030627565b299baacc68f0afd04b79f83e9da257c3a4d37",
                "size_in_bytes": 2703
            },
            {
                "_path": "lib/cmake/Parquet/ParquetConfigVersion.cmake",
                "path_type": "hardlink",
                "sha256": "f8dcaf2b242c4ccbcd3f5b3d8ca2b3ce346a9f053d0dcdeb26467cfe34183996",
                "sha256_in_prefix": "f8dcaf2b242c4ccbcd3f5b3d8ca2b3ce346a9f053d0dcdeb26467cfe34183996",
                "size_in_bytes": 2765
            },
            {
                "_path": "lib/cmake/Parquet/ParquetTargets-release.cmake",
                "path_type": "hardlink",
                "sha256": "6e3819222d9b4f1f2097bed14148185161e9e29aa7758f2fe8b21c02aef5ccfd",
                "sha256_in_prefix": "6e3819222d9b4f1f2097bed14148185161e9e29aa7758f2fe8b21c02aef5ccfd",
                "size_in_bytes": 968
            },
            {
                "_path": "lib/cmake/Parquet/ParquetTargets.cmake",
                "path_type": "hardlink",
                "sha256": "19a89146cfda51b4bff372852fc0f54a9afe0fabc03e7f45b202ab09f7b12d5b",
                "sha256_in_prefix": "19a89146cfda51b4bff372852fc0f54a9afe0fabc03e7f45b202ab09f7b12d5b",
                "size_in_bytes": 4205
            },
            {
                "_path": "lib/libparquet.so",
                "path_type": "softlink",
                "sha256_in_prefix": "d0d7080a4cb582664c2cc5306a14c6157f3bb7d898f6fc40e1282f29e65509c4",
                "size_in_bytes": 5060624
            },
            {
                "_path": "lib/libparquet.so.1700",
                "path_type": "softlink",
                "sha256_in_prefix": "d0d7080a4cb582664c2cc5306a14c6157f3bb7d898f6fc40e1282f29e65509c4",
                "size_in_bytes": 5060624
            },
            {
                "_path": "lib/libparquet.so.1700.0.0",
                "path_type": "hardlink",
                "sha256": "d0d7080a4cb582664c2cc5306a14c6157f3bb7d898f6fc40e1282f29e65509c4",
                "sha256_in_prefix": "d0d7080a4cb582664c2cc5306a14c6157f3bb7d898f6fc40e1282f29e65509c4",
                "size_in_bytes": 5060624
            },
            {
                "_path": "lib/pkgconfig/parquet.pc",
                "path_type": "hardlink",
                "sha256": "6694cb64bf2c5f81b2451d56588d788e359cebf544625dc943aa5fdb52b5c7eb",
                "sha256_in_prefix": "c9f23616e92d53de5e98a979982430a07b83145e9841bdcf3207fb0685bbc422",
                "size_in_bytes": 1373
            }
        ],
        "paths_version": 1
    },
    "platform": "linux",
    "requested_spec": "",
    "sha256": "d7283a8bf46b6203b600fa87dc94505fc54ac893071a5e8a44024b75e1c2f82f",
    "size": 1173349,
    "subdir": "linux-64",
    "timestamp": 1721955166629,
    "track_features": "",
    "url": "https://conda.anaconda.org/conda-forge/linux-64/libparquet-17.0.0-h9e5060d_2_cpu.conda",
    "version": "17.0.0"
}