{
    "arch": "x86_64",
    "build": "h3516f8a_1",
    "build_number": 1,
    "build_string": "h3516f8a_1",
    "channel": "https://conda.anaconda.org/conda-forge/linux-64",
    "constrains": [],
    "depends": [
        "__glibc >=2.17,<3.0.a0",
        "libcap >=2.69,<2.70.0a0",
        "libgcc-ng >=12",
        "libgcrypt >=1.10.3,<2.0a0",
        "lz4-c >=1.9.3,<1.10.0a0",
        "xz >=5.2.6,<6.0a0",
        "zstd >=1.5.5,<1.6.0a0"
    ],
    "extracted_package_dir": "/eos/home-s/staj/Higg\t/micromamba/pkgs/libsystemd0-255-h3516f8a_1",
    "files": [
        "lib/libsystemd.so.0",
        "lib/libsystemd.so.0.38.0"
    ],
    "fn": "libsystemd0-255-h3516f8a_1.conda",
    "license": "LGPL-2.1-or-later",
    "link": {
        "source": "/eos/home-s/staj/Higg\t/micromamba/pkgs/libsystemd0-255-h3516f8a_1",
        "type": 1
    },
    "md5": "3366af27f0b593544a6cd453c7932ac5",
    "name": "libsystemd0",
    "package_tarball_full_path": "/eos/home-s/staj/Higg\t/micromamba/pkgs/libsystemd0-255-h3516f8a_1.tar.bz2",
    "paths_data": {
        "paths": [
            {
                "_path": "lib/libsystemd.so.0",
                "path_type": "softlink",
                "sha256_in_prefix": "2196dd5606ef33d95519fef4e97a766b06a722997b32ccfad84b36b81d8b16ed",
                "size_in_bytes": 1095744
            },
            {
                "_path": "lib/libsystemd.so.0.38.0",
                "path_type": "hardlink",
                "sha256": "dc4b89e5700739d8291c1d469d67a0f3350ff1fa6b78c9563efbd795e12abe51",
                "sha256_in_prefix": "2196dd5606ef33d95519fef4e97a766b06a722997b32ccfad84b36b81d8b16ed",
                "size_in_bytes": 1095744
            }
        ],
        "paths_version": 1
    },
    "platform": "linux",
    "requested_spec": "",
    "sha256": "af27b0d225435d03f378a119f8eab6b280c53557a3c84cdb3bb8fd3167615aed",
    "size": 402592,
    "subdir": "linux-64",
    "timestamp": 1709568499820,
    "track_features": "",
    "url": "https://conda.anaconda.org/conda-forge/linux-64/libsystemd0-255-h3516f8a_1.conda",
    "version": "255"
}