{
    "arch": "x86_64",
    "build": "h4ab18f5_1",
    "build_number": 1,
    "build_string": "h4ab18f5_1",
    "channel": "https://conda.anaconda.org/conda-forge/linux-64",
    "constrains": [
        "zlib 1.3.1 *_1"
    ],
    "depends": [
        "libgcc-ng >=12"
    ],
    "extracted_package_dir": "/eos/home-s/staj/Higg\t/micromamba/pkgs/libzlib-1.3.1-h4ab18f5_1",
    "files": [
        "lib/libz.so.1",
        "lib/libz.so.1.3.1"
    ],
    "fn": "libzlib-1.3.1-h4ab18f5_1.conda",
    "license": "Zlib",
    "license_family": "Other",
    "link": {
        "source": "/eos/home-s/staj/Higg\t/micromamba/pkgs/libzlib-1.3.1-h4ab18f5_1",
        "type": 1
    },
    "md5": "57d7dc60e9325e3de37ff8dffd18e814",
    "name": "libzlib",
    "package_tarball_full_path": "/eos/home-s/staj/Higg\t/micromamba/pkgs/libzlib-1.3.1-h4ab18f5_1.tar.bz2",
    "paths_data": {
        "paths": [
            {
                "_path": "lib/libz.so.1",
                "path_type": "softlink",
                "sha256_in_prefix": "5d487d1a584bd4dccfb9ed699f4cde96ef759c7fa7410f99c7bdb968a2745027",
                "size_in_bytes": 112800
            },
            {
                "_path": "lib/libz.so.1.3.1",
                "path_type": "hardlink",
                "sha256": "5d487d1a584bd4dccfb9ed699f4cde96ef759c7fa7410f99c7bdb968a2745027",
                "sha256_in_prefix": "5d487d1a584bd4dccfb9ed699f4cde96ef759c7fa7410f99c7bdb968a2745027",
                "size_in_bytes": 112800
            }
        ],
        "paths_version": 1
    },
    "platform": "linux",
    "requested_spec": "",
    "sha256": "adf6096f98b537a11ae3729eaa642b0811478f0ea0402ca67b5108fe2cb0010d",
    "size": 61574,
    "subdir": "linux-64",
    "timestamp": 1716874187109,
    "track_features": "",
    "url": "https://conda.anaconda.org/conda-forge/linux-64/libzlib-1.3.1-h4ab18f5_1.conda",
    "version": "1.3.1"
}