{
    "arch": "x86_64",
    "build": "py310hb7f781d_0",
    "build_number": 0,
    "build_string": "py310hb7f781d_0",
    "channel": "https://conda.anaconda.org/conda-forge/linux-64",
    "constrains": [],
    "depends": [
        "libarrow-acero 17.0.0.*",
        "libarrow-dataset 17.0.0.*",
        "libarrow-substrait 17.0.0.*",
        "libparquet 17.0.0.*",
        "numpy >=1.19,<3",
        "pyarrow-core 17.0.0 *_0_*",
        "python >=3.10,<3.11.0a0",
        "python_abi 3.10.* *_cp310"
    ],
    "extracted_package_dir": "/eos/home-s/staj/Higg\t/micromamba/pkgs/pyarrow-17.0.0-py310hb7f781d_0",
    "files": [],
    "fn": "pyarrow-17.0.0-py310hb7f781d_0.conda",
    "license": "Apache-2.0",
    "link": {
        "source": "/eos/home-s/staj/Higg\t/micromamba/pkgs/pyarrow-17.0.0-py310hb7f781d_0",
        "type": 1
    },
    "md5": "52d038523ca69ea6ba3312fdbbff6e0f",
    "name": "pyarrow",
    "package_tarball_full_path": "/eos/home-s/staj/Higg\t/micromamba/pkgs/pyarrow-17.0.0-py310hb7f781d_0.tar.bz2",
    "paths_data": {
        "paths": [],
        "paths_version": 1
    },
    "platform": "linux",
    "requested_spec": "pyarrow",
    "sha256": "d170f39644072a1d9292ff8483ccd6f15471f205e91b4e97da9718fddb554e3e",
    "size": 25917,
    "subdir": "linux-64",
    "timestamp": 1721675351769,
    "track_features": "",
    "url": "https://conda.anaconda.org/conda-forge/linux-64/pyarrow-17.0.0-py310hb7f781d_0.conda",
    "version": "17.0.0"
}