{
    "arch": null,
    "build": "pyhd8ed1ab_0",
    "build_number": 0,
    "build_string": "pyhd8ed1ab_0",
    "channel": "https://conda.anaconda.org/conda-forge/noarch",
    "constrains": [],
    "depends": [
        "annotated-types >=0.4.0",
        "pydantic-core 2.20.1",
        "python >=3.7",
        "typing-extensions >=4.6.1"
    ],
    "extracted_package_dir": "/eos/home-s/staj/Higg\t/micromamba/pkgs/pydantic-2.8.2-pyhd8ed1ab_0",
    "files": [
        "lib/python3.10/site-packages/pydantic-2.8.2.dist-info/INSTALLER",
        "lib/python3.10/site-packages/pydantic-2.8.2.dist-info/METADATA",
        "lib/python3.10/site-packages/pydantic-2.8.2.dist-info/RECORD",
        "lib/python3.10/site-packages/pydantic-2.8.2.dist-info/REQUESTED",
        "lib/python3.10/site-packages/pydantic-2.8.2.dist-info/WHEEL",
        "lib/python3.10/site-packages/pydantic-2.8.2.dist-info/direct_url.json",
        "lib/python3.10/site-packages/pydantic-2.8.2.dist-info/licenses/LICENSE",
        "lib/python3.10/site-packages/pydantic/__init__.py",
        "lib/python3.10/site-packages/pydantic/_internal/__init__.py",
        "lib/python3.10/site-packages/pydantic/_internal/_config.py",
        "lib/python3.10/site-packages/pydantic/_internal/_core_metadata.py",
        "lib/python3.10/site-packages/pydantic/_internal/_core_utils.py",
        "lib/python3.10/site-packages/pydantic/_internal/_dataclasses.py",
        "lib/python3.10/site-packages/pydantic/_internal/_decorators.py",
        "lib/python3.10/site-packages/pydantic/_internal/_decorators_v1.py",
        "lib/python3.10/site-packages/pydantic/_internal/_discriminated_union.py",
        "lib/python3.10/site-packages/pydantic/_internal/_docs_extraction.py",
        "lib/python3.10/site-packages/pydantic/_internal/_fields.py",
        "lib/python3.10/site-packages/pydantic/_internal/_forward_ref.py",
        "lib/python3.10/site-packages/pydantic/_internal/_generate_schema.py",
        "lib/python3.10/site-packages/pydantic/_internal/_generics.py",
        "lib/python3.10/site-packages/pydantic/_internal/_git.py",
        "lib/python3.10/site-packages/pydantic/_internal/_internal_dataclass.py",
        "lib/python3.10/site-packages/pydantic/_internal/_known_annotated_metadata.py",
        "lib/python3.10/site-packages/pydantic/_internal/_mock_val_ser.py",
        "lib/python3.10/site-packages/pydantic/_internal/_model_construction.py",
        "lib/python3.10/site-packages/pydantic/_internal/_repr.py",
        "lib/python3.10/site-packages/pydantic/_internal/_schema_generation_shared.py",
        "lib/python3.10/site-packages/pydantic/_internal/_signature.py",
        "lib/python3.10/site-packages/pydantic/_internal/_std_types_schema.py",
        "lib/python3.10/site-packages/pydantic/_internal/_typing_extra.py",
        "lib/python3.10/site-packages/pydantic/_internal/_utils.py",
        "lib/python3.10/site-packages/pydantic/_internal/_validate_call.py",
        "lib/python3.10/site-packages/pydantic/_internal/_validators.py",
        "lib/python3.10/site-packages/pydantic/_migration.py",
        "lib/python3.10/site-packages/pydantic/alias_generators.py",
        "lib/python3.10/site-packages/pydantic/aliases.py",
        "lib/python3.10/site-packages/pydantic/annotated_handlers.py",
        "lib/python3.10/site-packages/pydantic/class_validators.py",
        "lib/python3.10/site-packages/pydantic/color.py",
        "lib/python3.10/site-packages/pydantic/config.py",
        "lib/python3.10/site-packages/pydantic/dataclasses.py",
        "lib/python3.10/site-packages/pydantic/datetime_parse.py",
        "lib/python3.10/site-packages/pydantic/decorator.py",
        "lib/python3.10/site-packages/pydantic/deprecated/__init__.py",
        "lib/python3.10/site-packages/pydantic/deprecated/class_validators.py",
        "lib/python3.10/site-packages/pydantic/deprecated/config.py",
        "lib/python3.10/site-packages/pydantic/deprecated/copy_internals.py",
        "lib/python3.10/site-packages/pydantic/deprecated/decorator.py",
        "lib/python3.10/site-packages/pydantic/deprecated/json.py",
        "lib/python3.10/site-packages/pydantic/deprecated/parse.py",
        "lib/python3.10/site-packages/pydantic/deprecated/tools.py",
        "lib/python3.10/site-packages/pydantic/env_settings.py",
        "lib/python3.10/site-packages/pydantic/error_wrappers.py",
        "lib/python3.10/site-packages/pydantic/errors.py",
        "lib/python3.10/site-packages/pydantic/experimental/__init__.py",
        "lib/python3.10/site-packages/pydantic/experimental/pipeline.py",
        "lib/python3.10/site-packages/pydantic/fields.py",
        "lib/python3.10/site-packages/pydantic/functional_serializers.py",
        "lib/python3.10/site-packages/pydantic/functional_validators.py",
        "lib/python3.10/site-packages/pydantic/generics.py",
        "lib/python3.10/site-packages/pydantic/json.py",
        "lib/python3.10/site-packages/pydantic/json_schema.py",
        "lib/python3.10/site-packages/pydantic/main.py",
        "lib/python3.10/site-packages/pydantic/mypy.py",
        "lib/python3.10/site-packages/pydantic/networks.py",
        "lib/python3.10/site-packages/pydantic/parse.py",
        "lib/python3.10/site-packages/pydantic/plugin/__init__.py",
        "lib/python3.10/site-packages/pydantic/plugin/_loader.py",
        "lib/python3.10/site-packages/pydantic/plugin/_schema_validator.py",
        "lib/python3.10/site-packages/pydantic/py.typed",
        "lib/python3.10/site-packages/pydantic/root_model.py",
        "lib/python3.10/site-packages/pydantic/schema.py",
        "lib/python3.10/site-packages/pydantic/tools.py",
        "lib/python3.10/site-packages/pydantic/type_adapter.py",
        "lib/python3.10/site-packages/pydantic/types.py",
        "lib/python3.10/site-packages/pydantic/typing.py",
        "lib/python3.10/site-packages/pydantic/utils.py",
        "lib/python3.10/site-packages/pydantic/v1/__init__.py",
        "lib/python3.10/site-packages/pydantic/v1/_hypothesis_plugin.py",
        "lib/python3.10/site-packages/pydantic/v1/annotated_types.py",
        "lib/python3.10/site-packages/pydantic/v1/class_validators.py",
        "lib/python3.10/site-packages/pydantic/v1/color.py",
        "lib/python3.10/site-packages/pydantic/v1/config.py",
        "lib/python3.10/site-packages/pydantic/v1/dataclasses.py",
        "lib/python3.10/site-packages/pydantic/v1/datetime_parse.py",
        "lib/python3.10/site-packages/pydantic/v1/decorator.py",
        "lib/python3.10/site-packages/pydantic/v1/env_settings.py",
        "lib/python3.10/site-packages/pydantic/v1/error_wrappers.py",
        "lib/python3.10/site-packages/pydantic/v1/errors.py",
        "lib/python3.10/site-packages/pydantic/v1/fields.py",
        "lib/python3.10/site-packages/pydantic/v1/generics.py",
        "lib/python3.10/site-packages/pydantic/v1/json.py",
        "lib/python3.10/site-packages/pydantic/v1/main.py",
        "lib/python3.10/site-packages/pydantic/v1/mypy.py",
        "lib/python3.10/site-packages/pydantic/v1/networks.py",
        "lib/python3.10/site-packages/pydantic/v1/parse.py",
        "lib/python3.10/site-packages/pydantic/v1/py.typed",
        "lib/python3.10/site-packages/pydantic/v1/schema.py",
        "lib/python3.10/site-packages/pydantic/v1/tools.py",
        "lib/python3.10/site-packages/pydantic/v1/types.py",
        "lib/python3.10/site-packages/pydantic/v1/typing.py",
        "lib/python3.10/site-packages/pydantic/v1/utils.py",
        "lib/python3.10/site-packages/pydantic/v1/validators.py",
        "lib/python3.10/site-packages/pydantic/v1/version.py",
        "lib/python3.10/site-packages/pydantic/validate_call_decorator.py",
        "lib/python3.10/site-packages/pydantic/validators.py",
        "lib/python3.10/site-packages/pydantic/version.py",
        "lib/python3.10/site-packages/pydantic/warnings.py",
        "lib/python3.10/site-packages/pydantic/__pycache__/__init__.cpython-310.pyc",
        "lib/python3.10/site-packages/pydantic/_internal/__pycache__/__init__.cpython-310.pyc",
        "lib/python3.10/site-packages/pydantic/_internal/__pycache__/_config.cpython-310.pyc",
        "lib/python3.10/site-packages/pydantic/_internal/__pycache__/_core_metadata.cpython-310.pyc",
        "lib/python3.10/site-packages/pydantic/_internal/__pycache__/_core_utils.cpython-310.pyc",
        "lib/python3.10/site-packages/pydantic/_internal/__pycache__/_dataclasses.cpython-310.pyc",
        "lib/python3.10/site-packages/pydantic/_internal/__pycache__/_decorators.cpython-310.pyc",
        "lib/python3.10/site-packages/pydantic/_internal/__pycache__/_decorators_v1.cpython-310.pyc",
        "lib/python3.10/site-packages/pydantic/_internal/__pycache__/_discriminated_union.cpython-310.pyc",
        "lib/python3.10/site-packages/pydantic/_internal/__pycache__/_docs_extraction.cpython-310.pyc",
        "lib/python3.10/site-packages/pydantic/_internal/__pycache__/_fields.cpython-310.pyc",
        "lib/python3.10/site-packages/pydantic/_internal/__pycache__/_forward_ref.cpython-310.pyc",
        "lib/python3.10/site-packages/pydantic/_internal/__pycache__/_generate_schema.cpython-310.pyc",
        "lib/python3.10/site-packages/pydantic/_internal/__pycache__/_generics.cpython-310.pyc",
        "lib/python3.10/site-packages/pydantic/_internal/__pycache__/_git.cpython-310.pyc",
        "lib/python3.10/site-packages/pydantic/_internal/__pycache__/_internal_dataclass.cpython-310.pyc",
        "lib/python3.10/site-packages/pydantic/_internal/__pycache__/_known_annotated_metadata.cpython-310.pyc",
        "lib/python3.10/site-packages/pydantic/_internal/__pycache__/_mock_val_ser.cpython-310.pyc",
        "lib/python3.10/site-packages/pydantic/_internal/__pycache__/_model_construction.cpython-310.pyc",
        "lib/python3.10/site-packages/pydantic/_internal/__pycache__/_repr.cpython-310.pyc",
        "lib/python3.10/site-packages/pydantic/_internal/__pycache__/_schema_generation_shared.cpython-310.pyc",
        "lib/python3.10/site-packages/pydantic/_internal/__pycache__/_signature.cpython-310.pyc",
        "lib/python3.10/site-packages/pydantic/_internal/__pycache__/_std_types_schema.cpython-310.pyc",
        "lib/python3.10/site-packages/pydantic/_internal/__pycache__/_typing_extra.cpython-310.pyc",
        "lib/python3.10/site-packages/pydantic/_internal/__pycache__/_utils.cpython-310.pyc",
        "lib/python3.10/site-packages/pydantic/_internal/__pycache__/_validate_call.cpython-310.pyc",
        "lib/python3.10/site-packages/pydantic/_internal/__pycache__/_validators.cpython-310.pyc",
        "lib/python3.10/site-packages/pydantic/__pycache__/_migration.cpython-310.pyc",
        "lib/python3.10/site-packages/pydantic/__pycache__/alias_generators.cpython-310.pyc",
        "lib/python3.10/site-packages/pydantic/__pycache__/aliases.cpython-310.pyc",
        "lib/python3.10/site-packages/pydantic/__pycache__/annotated_handlers.cpython-310.pyc",
        "lib/python3.10/site-packages/pydantic/__pycache__/class_validators.cpython-310.pyc",
        "lib/python3.10/site-packages/pydantic/__pycache__/color.cpython-310.pyc",
        "lib/python3.10/site-packages/pydantic/__pycache__/config.cpython-310.pyc",
        "lib/python3.10/site-packages/pydantic/__pycache__/dataclasses.cpython-310.pyc",
        "lib/python3.10/site-packages/pydantic/__pycache__/datetime_parse.cpython-310.pyc",
        "lib/python3.10/site-packages/pydantic/__pycache__/decorator.cpython-310.pyc",
        "lib/python3.10/site-packages/pydantic/deprecated/__pycache__/__init__.cpython-310.pyc",
        "lib/python3.10/site-packages/pydantic/deprecated/__pycache__/class_validators.cpython-310.pyc",
        "lib/python3.10/site-packages/pydantic/deprecated/__pycache__/config.cpython-310.pyc",
        "lib/python3.10/site-packages/pydantic/deprecated/__pycache__/copy_internals.cpython-310.pyc",
        "lib/python3.10/site-packages/pydantic/deprecated/__pycache__/decorator.cpython-310.pyc",
        "lib/python3.10/site-packages/pydantic/deprecated/__pycache__/json.cpython-310.pyc",
        "lib/python3.10/site-packages/pydantic/deprecated/__pycache__/parse.cpython-310.pyc",
        "lib/python3.10/site-packages/pydantic/deprecated/__pycache__/tools.cpython-310.pyc",
        "lib/python3.10/site-packages/pydantic/__pycache__/env_settings.cpython-310.pyc",
        "lib/python3.10/site-packages/pydantic/__pycache__/error_wrappers.cpython-310.pyc",
        "lib/python3.10/site-packages/pydantic/__pycache__/errors.cpython-310.pyc",
        "lib/python3.10/site-packages/pydantic/experimental/__pycache__/__init__.cpython-310.pyc",
        "lib/python3.10/site-packages/pydantic/experimental/__pycache__/pipeline.cpython-310.pyc",
        "lib/python3.10/site-packages/pydantic/__pycache__/fields.cpython-310.pyc",
        "lib/python3.10/site-packages/pydantic/__pycache__/functional_serializers.cpython-310.pyc",
        "lib/python3.10/site-packages/pydantic/__pycache__/functional_validators.cpython-310.pyc",
        "lib/python3.10/site-packages/pydantic/__pycache__/generics.cpython-310.pyc",
        "lib/python3.10/site-packages/pydantic/__pycache__/json.cpython-310.pyc",
        "lib/python3.10/site-packages/pydantic/__pycache__/json_schema.cpython-310.pyc",
        "lib/python3.10/site-packages/pydantic/__pycache__/main.cpython-310.pyc",
        "lib/python3.10/site-packages/pydantic/__pycache__/mypy.cpython-310.pyc",
        "lib/python3.10/site-packages/pydantic/__pycache__/networks.cpython-310.pyc",
        "lib/python3.10/site-packages/pydantic/__pycache__/parse.cpython-310.pyc",
        "lib/python3.10/site-packages/pydantic/plugin/__pycache__/__init__.cpython-310.pyc",
        "lib/python3.10/site-packages/pydantic/plugin/__pycache__/_loader.cpython-310.pyc",
        "lib/python3.10/site-packages/pydantic/plugin/__pycache__/_schema_validator.cpython-310.pyc",
        "lib/python3.10/site-packages/pydantic/__pycache__/root_model.cpython-310.pyc",
        "lib/python3.10/site-packages/pydantic/__pycache__/schema.cpython-310.pyc",
        "lib/python3.10/site-packages/pydantic/__pycache__/tools.cpython-310.pyc",
        "lib/python3.10/site-packages/pydantic/__pycache__/type_adapter.cpython-310.pyc",
        "lib/python3.10/site-packages/pydantic/__pycache__/types.cpython-310.pyc",
        "lib/python3.10/site-packages/pydantic/__pycache__/typing.cpython-310.pyc",
        "lib/python3.10/site-packages/pydantic/__pycache__/utils.cpython-310.pyc",
        "lib/python3.10/site-packages/pydantic/v1/__pycache__/__init__.cpython-310.pyc",
        "lib/python3.10/site-packages/pydantic/v1/__pycache__/_hypothesis_plugin.cpython-310.pyc",
        "lib/python3.10/site-packages/pydantic/v1/__pycache__/annotated_types.cpython-310.pyc",
        "lib/python3.10/site-packages/pydantic/v1/__pycache__/class_validators.cpython-310.pyc",
        "lib/python3.10/site-packages/pydantic/v1/__pycache__/color.cpython-310.pyc",
        "lib/python3.10/site-packages/pydantic/v1/__pycache__/config.cpython-310.pyc",
        "lib/python3.10/site-packages/pydantic/v1/__pycache__/dataclasses.cpython-310.pyc",
        "lib/python3.10/site-packages/pydantic/v1/__pycache__/datetime_parse.cpython-310.pyc",
        "lib/python3.10/site-packages/pydantic/v1/__pycache__/decorator.cpython-310.pyc",
        "lib/python3.10/site-packages/pydantic/v1/__pycache__/env_settings.cpython-310.pyc",
        "lib/python3.10/site-packages/pydantic/v1/__pycache__/error_wrappers.cpython-310.pyc",
        "lib/python3.10/site-packages/pydantic/v1/__pycache__/errors.cpython-310.pyc",
        "lib/python3.10/site-packages/pydantic/v1/__pycache__/fields.cpython-310.pyc",
        "lib/python3.10/site-packages/pydantic/v1/__pycache__/generics.cpython-310.pyc",
        "lib/python3.10/site-packages/pydantic/v1/__pycache__/json.cpython-310.pyc",
        "lib/python3.10/site-packages/pydantic/v1/__pycache__/main.cpython-310.pyc",
        "lib/python3.10/site-packages/pydantic/v1/__pycache__/mypy.cpython-310.pyc",
        "lib/python3.10/site-packages/pydantic/v1/__pycache__/networks.cpython-310.pyc",
        "lib/python3.10/site-packages/pydantic/v1/__pycache__/parse.cpython-310.pyc",
        "lib/python3.10/site-packages/pydantic/v1/__pycache__/schema.cpython-310.pyc",
        "lib/python3.10/site-packages/pydantic/v1/__pycache__/tools.cpython-310.pyc",
        "lib/python3.10/site-packages/pydantic/v1/__pycache__/types.cpython-310.pyc",
        "lib/python3.10/site-packages/pydantic/v1/__pycache__/typing.cpython-310.pyc",
        "lib/python3.10/site-packages/pydantic/v1/__pycache__/utils.cpython-310.pyc",
        "lib/python3.10/site-packages/pydantic/v1/__pycache__/validators.cpython-310.pyc",
        "lib/python3.10/site-packages/pydantic/v1/__pycache__/version.cpython-310.pyc",
        "lib/python3.10/site-packages/pydantic/__pycache__/validate_call_decorator.cpython-310.pyc",
        "lib/python3.10/site-packages/pydantic/__pycache__/validators.cpython-310.pyc",
        "lib/python3.10/site-packages/pydantic/__pycache__/version.cpython-310.pyc",
        "lib/python3.10/site-packages/pydantic/__pycache__/warnings.cpython-310.pyc"
    ],
    "fn": "pydantic-2.8.2-pyhd8ed1ab_0.conda",
    "license": "MIT",
    "license_family": "MIT",
    "link": {
        "source": "/eos/home-s/staj/Higg\t/micromamba/pkgs/pydantic-2.8.2-pyhd8ed1ab_0",
        "type": 1
    },
    "md5": "539a038a24a959662df1fcaa2cfc5c3e",
    "name": "pydantic",
    "noarch": "python",
    "package_tarball_full_path": "/eos/home-s/staj/Higg\t/micromamba/pkgs/pydantic-2.8.2-pyhd8ed1ab_0.tar.bz2",
    "paths_data": {
        "paths": [
            {
                "_path": "lib/python3.10/site-packages/pydantic-2.8.2.dist-info/INSTALLER",
                "path_type": "hardlink",
                "sha256": "d0edee15f91b406f3f99726e44eb990be6e34fd0345b52b910c568e0eef6a2a8",
                "sha256_in_prefix": "d0edee15f91b406f3f99726e44eb990be6e34fd0345b52b910c568e0eef6a2a8",
                "size_in_bytes": 5
            },
            {
                "_path": "lib/python3.10/site-packages/pydantic-2.8.2.dist-info/METADATA",
                "path_type": "hardlink",
                "sha256": "1fc20f9fa977df1368dd247ec490ded4d844633c44b02225d82d9192142886ee",
                "sha256_in_prefix": "1fc20f9fa977df1368dd247ec490ded4d844633c44b02225d82d9192142886ee",
                "size_in_bytes": 125181
            },
            {
                "_path": "lib/python3.10/site-packages/pydantic-2.8.2.dist-info/RECORD",
                "path_type": "hardlink",
                "sha256": "1eea5970a6fa7d858e7a7de2139b6157101126c91ad8ab11fdd430f9fcdcb452",
                "sha256_in_prefix": "1eea5970a6fa7d858e7a7de2139b6157101126c91ad8ab11fdd430f9fcdcb452",
                "size_in_bytes": 14831
            },
            {
                "_path": "lib/python3.10/site-packages/pydantic-2.8.2.dist-info/REQUESTED",
                "path_type": "hardlink",
                "sha256": "e3b0c44298fc1c149afbf4c8996fb92427ae41e4649b934ca495991b7852b855",
                "sha256_in_prefix": "e3b0c44298fc1c149afbf4c8996fb92427ae41e4649b934ca495991b7852b855"
            },
            {
                "_path": "lib/python3.10/site-packages/pydantic-2.8.2.dist-info/WHEEL",
                "path_type": "hardlink",
                "sha256": "d7215d7625cc9af60aed0613aad44db57eba589d0ccfc3d8122114a0e514c516",
                "sha256_in_prefix": "d7215d7625cc9af60aed0613aad44db57eba589d0ccfc3d8122114a0e514c516",
                "size_in_bytes": 87
            },
            {
                "_path": "lib/python3.10/site-packages/pydantic-2.8.2.dist-info/direct_url.json",
                "path_type": "hardlink",
                "sha256": "936a10339a5dad1aaf8166313d82b03d1283df7c3bbcfeb9d1bc998c6e52b324",
                "sha256_in_prefix": "936a10339a5dad1aaf8166313d82b03d1283df7c3bbcfeb9d1bc998c6e52b324",
                "size_in_bytes": 104
            },
            {
                "_path": "lib/python3.10/site-packages/pydantic-2.8.2.dist-info/licenses/LICENSE",
                "path_type": "hardlink",
                "sha256": "a9e186f3ca16b5eef84318e7a701721351a00cb7b8ae3a4394b67b49e3529ef3",
                "sha256_in_prefix": "a9e186f3ca16b5eef84318e7a701721351a00cb7b8ae3a4394b67b49e3529ef3",
                "size_in_bytes": 1129
            },
            {
                "_path": "lib/python3.10/site-packages/pydantic/__init__.py",
                "path_type": "hardlink",
                "sha256": "51f706203274721c5d9e5d3fa3a753cb2b3ee62b1aa19c25295300c300703cfa",
                "sha256_in_prefix": "51f706203274721c5d9e5d3fa3a753cb2b3ee62b1aa19c25295300c300703cfa",
                "size_in_bytes": 13931
            },
            {
                "_path": "lib/python3.10/site-packages/pydantic/_internal/__init__.py",
                "path_type": "hardlink",
                "sha256": "e3b0c44298fc1c149afbf4c8996fb92427ae41e4649b934ca495991b7852b855",
                "sha256_in_prefix": "e3b0c44298fc1c149afbf4c8996fb92427ae41e4649b934ca495991b7852b855"
            },
            {
                "_path": "lib/python3.10/site-packages/pydantic/_internal/_config.py",
                "path_type": "hardlink",
                "sha256": "82855ca0430cb1fda5b451375874c4883beeea1e603e8d35649e61e8f550aab5",
                "sha256_in_prefix": "82855ca0430cb1fda5b451375874c4883beeea1e603e8d35649e61e8f550aab5",
                "size_in_bytes": 12605
            },
            {
                "_path": "lib/python3.10/site-packages/pydantic/_internal/_core_metadata.py",
                "path_type": "hardlink",
                "sha256": "0daf9ed3e0d72bffdd26fa20d1ef0264b438aff93d46995d1ba2904c6ad89478",
                "sha256_in_prefix": "0daf9ed3e0d72bffdd26fa20d1ef0264b438aff93d46995d1ba2904c6ad89478",
                "size_in_bytes": 3521
            },
            {
                "_path": "lib/python3.10/site-packages/pydantic/_internal/_core_utils.py",
                "path_type": "hardlink",
                "sha256": "e9a0fc276ea7e3fb4fd91f927ab9a4eba0c6c07a45a64b0eaf01dd2343b6da38",
                "sha256_in_prefix": "e9a0fc276ea7e3fb4fd91f927ab9a4eba0c6c07a45a64b0eaf01dd2343b6da38",
                "size_in_bytes": 24268
            },
            {
                "_path": "lib/python3.10/site-packages/pydantic/_internal/_dataclasses.py",
                "path_type": "hardlink",
                "sha256": "12f138dd41d3559672755b7c0e3ae460bc9c8b2e52e3a6d7160b7c6ec7d6116a",
                "sha256_in_prefix": "12f138dd41d3559672755b7c0e3ae460bc9c8b2e52e3a6d7160b7c6ec7d6116a",
                "size_in_bytes": 8733
            },
            {
                "_path": "lib/python3.10/site-packages/pydantic/_internal/_decorators.py",
                "path_type": "hardlink",
                "sha256": "3a750801b5ff093707457bb82b941abfc6b94c2d18097bb03eaddb462650d386",
                "sha256_in_prefix": "3a750801b5ff093707457bb82b941abfc6b94c2d18097bb03eaddb462650d386",
                "size_in_bytes": 31954
            },
            {
                "_path": "lib/python3.10/site-packages/pydantic/_internal/_decorators_v1.py",
                "path_type": "hardlink",
                "sha256": "23b3f1f2050c26877cd3fcc1325364455ab4329d99ea69354f50386ffd1adcfb",
                "sha256_in_prefix": "23b3f1f2050c26877cd3fcc1325364455ab4329d99ea69354f50386ffd1adcfb",
                "size_in_bytes": 6203
            },
            {
                "_path": "lib/python3.10/site-packages/pydantic/_internal/_discriminated_union.py",
                "path_type": "hardlink",
                "sha256": "5c3ce57ca73b2c0909244ad058067812e3ff1bf0905c949514ab70b874491268",
                "sha256_in_prefix": "5c3ce57ca73b2c0909244ad058067812e3ff1bf0905c949514ab70b874491268",
                "size_in_bytes": 26435
            },
            {
                "_path": "lib/python3.10/site-packages/pydantic/_internal/_docs_extraction.py",
                "path_type": "hardlink",
                "sha256": "6c85a1c3b9c5285b7ea83fadc6d29101be55a869400f41fd6331045c4dcf1e3e",
                "sha256_in_prefix": "6c85a1c3b9c5285b7ea83fadc6d29101be55a869400f41fd6331045c4dcf1e3e",
                "size_in_bytes": 3791
            },
            {
                "_path": "lib/python3.10/site-packages/pydantic/_internal/_fields.py",
                "path_type": "hardlink",
                "sha256": "fc20b302ba3b806037c2c7d4543b912bd4dcae9f843331f975dc90e497e05908",
                "sha256_in_prefix": "fc20b302ba3b806037c2c7d4543b912bd4dcae9f843331f975dc90e497e05908",
                "size_in_bytes": 14934
            },
            {
                "_path": "lib/python3.10/site-packages/pydantic/_internal/_forward_ref.py",
                "path_type": "hardlink",
                "sha256": "e67dd8efedc028b9fcfc54b761cecabad2e23d48725e602d90464e6859e89f03",
                "sha256_in_prefix": "e67dd8efedc028b9fcfc54b761cecabad2e23d48725e602d90464e6859e89f03",
                "size_in_bytes": 611
            },
            {
                "_path": "lib/python3.10/site-packages/pydantic/_internal/_generate_schema.py",
                "path_type": "hardlink",
                "sha256": "256b7f77bfdb430fd768bccf01657f0abbe2ff737537ebac02dda5ad41a3e414",
                "sha256_in_prefix": "256b7f77bfdb430fd768bccf01657f0abbe2ff737537ebac02dda5ad41a3e414",
                "size_in_bytes": 105375
            },
            {
                "_path": "lib/python3.10/site-packages/pydantic/_internal/_generics.py",
                "path_type": "hardlink",
                "sha256": "e7ace0726bc738c4085d39f4af668a7e814ebe906e16258a7c1bbf7579c44a28",
                "sha256_in_prefix": "e7ace0726bc738c4085d39f4af668a7e814ebe906e16258a7c1bbf7579c44a28",
                "size_in_bytes": 22206
            },
            {
                "_path": "lib/python3.10/site-packages/pydantic/_internal/_git.py",
                "path_type": "hardlink",
                "sha256": "94de909599bc44d4ae36c51d1c70b51796b8553a1ef2fbb9b6553101f6898061",
                "sha256_in_prefix": "94de909599bc44d4ae36c51d1c70b51796b8553a1ef2fbb9b6553101f6898061",
                "size_in_bytes": 784
            },
            {
                "_path": "lib/python3.10/site-packages/pydantic/_internal/_internal_dataclass.py",
                "path_type": "hardlink",
                "sha256": "fdb79d7355dbbaeca044688b66a914930c05a506a847584a2e5479d359f2c926",
                "sha256_in_prefix": "fdb79d7355dbbaeca044688b66a914930c05a506a847584a2e5479d359f2c926",
                "size_in_bytes": 144
            },
            {
                "_path": "lib/python3.10/site-packages/pydantic/_internal/_known_annotated_metadata.py",
                "path_type": "hardlink",
                "sha256": "a990e342cc3b6d98aacefcd8fed87654b7c6d0ab304f6dadc30607a78426134b",
                "sha256_in_prefix": "a990e342cc3b6d98aacefcd8fed87654b7c6d0ab304f6dadc30607a78426134b",
                "size_in_bytes": 14189
            },
            {
                "_path": "lib/python3.10/site-packages/pydantic/_internal/_mock_val_ser.py",
                "path_type": "hardlink",
                "sha256": "83f449861a1d24e5a722bc7061118d180d6fdb57a1e54ae57d33feefea2698cc",
                "sha256_in_prefix": "83f449861a1d24e5a722bc7061118d180d6fdb57a1e54ae57d33feefea2698cc",
                "size_in_bytes": 7315
            },
            {
                "_path": "lib/python3.10/site-packages/pydantic/_internal/_model_construction.py",
                "path_type": "hardlink",
                "sha256": "9e5a057eaa8198f56898c61e79f7840bff79b6e4dfab88f20d35bf8997d1f9ba",
                "sha256_in_prefix": "9e5a057eaa8198f56898c61e79f7840bff79b6e4dfab88f20d35bf8997d1f9ba",
                "size_in_bytes": 31361
            },
            {
                "_path": "lib/python3.10/site-packages/pydantic/_internal/_repr.py",
                "path_type": "hardlink",
                "sha256": "3b114dfa024c4de7c2bf5ca3b22e5246882cb5333144b8614ca0a647c8f224d5",
                "sha256_in_prefix": "3b114dfa024c4de7c2bf5ca3b22e5246882cb5333144b8614ca0a647c8f224d5",
                "size_in_bytes": 4569
            },
            {
                "_path": "lib/python3.10/site-packages/pydantic/_internal/_schema_generation_shared.py",
                "path_type": "hardlink",
                "sha256": "481e6432a77da735bd578338aa3c88ed1f7d307cd4d6b7d05643563fe2ac88b3",
                "sha256_in_prefix": "481e6432a77da735bd578338aa3c88ed1f7d307cd4d6b7d05643563fe2ac88b3",
                "size_in_bytes": 4853
            },
            {
                "_path": "lib/python3.10/site-packages/pydantic/_internal/_signature.py",
                "path_type": "hardlink",
                "sha256": "809be943dbe4950b987d8288e1dd33bc7386842478e0e6bfc65b5d314320e7d8",
                "sha256_in_prefix": "809be943dbe4950b987d8288e1dd33bc7386842478e0e6bfc65b5d314320e7d8",
                "size_in_bytes": 6293
            },
            {
                "_path": "lib/python3.10/site-packages/pydantic/_internal/_std_types_schema.py",
                "path_type": "hardlink",
                "sha256": "de4bcd9d644a99a07d470a2bc50a0c6974541dd31f4875796c5cfd00deadea4f",
                "sha256_in_prefix": "de4bcd9d644a99a07d470a2bc50a0c6974541dd31f4875796c5cfd00deadea4f",
                "size_in_bytes": 28881
            },
            {
                "_path": "lib/python3.10/site-packages/pydantic/_internal/_typing_extra.py",
                "path_type": "hardlink",
                "sha256": "f5d0fee1b45e67e1520738ebbc528c6376905ef10673039d7300a57f9ca99fce",
                "sha256_in_prefix": "f5d0fee1b45e67e1520738ebbc528c6376905ef10673039d7300a57f9ca99fce",
                "size_in_bytes": 19430
            },
            {
                "_path": "lib/python3.10/site-packages/pydantic/_internal/_utils.py",
                "path_type": "hardlink",
                "sha256": "0ccf82743bda09dd77e99148271be381a36e68cea862363389ffa71317302f59",
                "sha256_in_prefix": "0ccf82743bda09dd77e99148271be381a36e68cea862363389ffa71317302f59",
                "size_in_bytes": 12661
            },
            {
                "_path": "lib/python3.10/site-packages/pydantic/_internal/_validate_call.py",
                "path_type": "hardlink",
                "sha256": "da42d24231f5341d1ddcf2afe898ae8dca8ef2cee62a2c88e42bf238b733e94d",
                "sha256_in_prefix": "da42d24231f5341d1ddcf2afe898ae8dca8ef2cee62a2c88e42bf238b733e94d",
                "size_in_bytes": 3791
            },
            {
                "_path": "lib/python3.10/site-packages/pydantic/_internal/_validators.py",
                "path_type": "hardlink",
                "sha256": "ca2df4d48d2c2d001f5d6b6af768d4c17da88356b156c5ef0eb47ea6c3eedcfa",
                "sha256_in_prefix": "ca2df4d48d2c2d001f5d6b6af768d4c17da88356b156c5ef0eb47ea6c3eedcfa",
                "size_in_bytes": 11118
            },
            {
                "_path": "lib/python3.10/site-packages/pydantic/_migration.py",
                "path_type": "hardlink",
                "sha256": "8fa4db4692687e3017f25afe9369d59d070147d443d81f7523b525730fd9cc4a",
                "sha256_in_prefix": "8fa4db4692687e3017f25afe9369d59d070147d443d81f7523b525730fd9cc4a",
                "size_in_bytes": 11913
            },
            {
                "_path": "lib/python3.10/site-packages/pydantic/alias_generators.py",
                "path_type": "hardlink",
                "sha256": "28cd67deee097cb48197552e620de1a181f35c90fecaf82b9eaf2ed5c73087f0",
                "sha256_in_prefix": "28cd67deee097cb48197552e620de1a181f35c90fecaf82b9eaf2ed5c73087f0",
                "size_in_bytes": 2124
            },
            {
                "_path": "lib/python3.10/site-packages/pydantic/aliases.py",
                "path_type": "hardlink",
                "sha256": "5f7e18c0f9a45925d3a9a8958ac467c683d770c6dc79e0d984cb0c3f19ce6729",
                "sha256_in_prefix": "5f7e18c0f9a45925d3a9a8958ac467c683d770c6dc79e0d984cb0c3f19ce6729",
                "size_in_bytes": 4819
            },
            {
                "_path": "lib/python3.10/site-packages/pydantic/annotated_handlers.py",
                "path_type": "hardlink",
                "sha256": "c82784f244272f16425b34fc7faf3d86fc2aa9ea44056fdbc835295512709eb3",
                "sha256_in_prefix": "c82784f244272f16425b34fc7faf3d86fc2aa9ea44056fdbc835295512709eb3",
                "size_in_bytes": 4353
            },
            {
                "_path": "lib/python3.10/site-packages/pydantic/class_validators.py",
                "path_type": "hardlink",
                "sha256": "8bf5778fe3d87462d22e68ff20965e913463ba73bc488573f0b325aae3f23fb1",
                "sha256_in_prefix": "8bf5778fe3d87462d22e68ff20965e913463ba73bc488573f0b325aae3f23fb1",
                "size_in_bytes": 148
            },
            {
                "_path": "lib/python3.10/site-packages/pydantic/color.py",
                "path_type": "hardlink",
                "sha256": "e06aed3ef14204a74cfb53692d514e0bb2a42de8f265dd418842df08abd3db2c",
                "sha256_in_prefix": "e06aed3ef14204a74cfb53692d514e0bb2a42de8f265dd418842df08abd3db2c",
                "size_in_bytes": 21494
            },
            {
                "_path": "lib/python3.10/site-packages/pydantic/config.py",
                "path_type": "hardlink",
                "sha256": "f48e44caacc12af16d969a08c64aed32eda8c6f62110d3da341039df6ab60217",
                "sha256_in_prefix": "f48e44caacc12af16d969a08c64aed32eda8c6f62110d3da341039df6ab60217",
                "size_in_bytes": 35112
            },
            {
                "_path": "lib/python3.10/site-packages/pydantic/dataclasses.py",
                "path_type": "hardlink",
                "sha256": "c043c73ac1460631f6c2c8b6c287dfed2a70626ff66ffdbcf98bfe71822f34e7",
                "sha256_in_prefix": "c043c73ac1460631f6c2c8b6c287dfed2a70626ff66ffdbcf98bfe71822f34e7",
                "size_in_bytes": 13909
            },
            {
                "_path": "lib/python3.10/site-packages/pydantic/datetime_parse.py",
                "path_type": "hardlink",
                "sha256": "402f9680cc4caffc10fe6357512ec055ffb684b121befb0f6353d0ca148639d9",
                "sha256_in_prefix": "402f9680cc4caffc10fe6357512ec055ffb684b121befb0f6353d0ca148639d9",
                "size_in_bytes": 150
            },
            {
                "_path": "lib/python3.10/site-packages/pydantic/decorator.py",
                "path_type": "hardlink",
                "sha256": "617fa3500a6ee4029a55628fa1a57e9fee25ed46d2ebd184b7d45ade1b3398a2",
                "sha256_in_prefix": "617fa3500a6ee4029a55628fa1a57e9fee25ed46d2ebd184b7d45ade1b3398a2",
                "size_in_bytes": 145
            },
            {
                "_path": "lib/python3.10/site-packages/pydantic/deprecated/__init__.py",
                "path_type": "hardlink",
                "sha256": "e3b0c44298fc1c149afbf4c8996fb92427ae41e4649b934ca495991b7852b855",
                "sha256_in_prefix": "e3b0c44298fc1c149afbf4c8996fb92427ae41e4649b934ca495991b7852b855"
            },
            {
                "_path": "lib/python3.10/site-packages/pydantic/deprecated/class_validators.py",
                "path_type": "hardlink",
                "sha256": "5adebc64b4f97107bf0703acc4dce54bd6114b16352eb4345c2d1ef5e8eebfbd",
                "sha256_in_prefix": "5adebc64b4f97107bf0703acc4dce54bd6114b16352eb4345c2d1ef5e8eebfbd",
                "size_in_bytes": 10254
            },
            {
                "_path": "lib/python3.10/site-packages/pydantic/deprecated/config.py",
                "path_type": "hardlink",
                "sha256": "78a8671bef9942d27803b280df1785efa135e7ee2955abb70794fc0f7f69b45b",
                "sha256_in_prefix": "78a8671bef9942d27803b280df1785efa135e7ee2955abb70794fc0f7f69b45b",
                "size_in_bytes": 2663
            },
            {
                "_path": "lib/python3.10/site-packages/pydantic/deprecated/copy_internals.py",
                "path_type": "hardlink",
                "sha256": "4a8523d4c7af5edddf9e5a2a360e708af4941d20cf9ee4a3fd8c9dce410cceed",
                "sha256_in_prefix": "4a8523d4c7af5edddf9e5a2a360e708af4941d20cf9ee4a3fd8c9dce410cceed",
                "size_in_bytes": 7595
            },
            {
                "_path": "lib/python3.10/site-packages/pydantic/deprecated/decorator.py",
                "path_type": "hardlink",
                "sha256": "3f65756c2c24f30349de0fecda9d8048579f5cf2ca9fc6ec515c3e63c5b072f9",
                "sha256_in_prefix": "3f65756c2c24f30349de0fecda9d8048579f5cf2ca9fc6ec515c3e63c5b072f9",
                "size_in_bytes": 10776
            },
            {
                "_path": "lib/python3.10/site-packages/pydantic/deprecated/json.py",
                "path_type": "hardlink",
                "sha256": "0a7e1fe6be09477a2774740dfa3a414900b9ee7be748d21ba97977b5c05c131d",
                "sha256_in_prefix": "0a7e1fe6be09477a2774740dfa3a414900b9ee7be748d21ba97977b5c05c131d",
                "size_in_bytes": 4596
            },
            {
                "_path": "lib/python3.10/site-packages/pydantic/deprecated/parse.py",
                "path_type": "hardlink",
                "sha256": "1b377a6ff83ccc95dcb84ed046ae5a761c7f10c25a8577dca57085d1182baaa2",
                "sha256_in_prefix": "1b377a6ff83ccc95dcb84ed046ae5a761c7f10c25a8577dca57085d1182baaa2",
                "size_in_bytes": 2511
            },
            {
                "_path": "lib/python3.10/site-packages/pydantic/deprecated/tools.py",
                "path_type": "hardlink",
                "sha256": "5d4a085bd5b8b20394590e97cdff99fcdba4502d65ff2530cf6fe7d1f1373042",
                "sha256_in_prefix": "5d4a085bd5b8b20394590e97cdff99fcdba4502d65ff2530cf6fe7d1f1373042",
                "size_in_bytes": 3336
            },
            {
                "_path": "lib/python3.10/site-packages/pydantic/env_settings.py",
                "path_type": "hardlink",
                "sha256": "e881de79612a9543d152fdd5f805e217f5bdd5f836270fccdced25df827f7b20",
                "sha256_in_prefix": "e881de79612a9543d152fdd5f805e217f5bdd5f836270fccdced25df827f7b20",
                "size_in_bytes": 148
            },
            {
                "_path": "lib/python3.10/site-packages/pydantic/error_wrappers.py",
                "path_type": "hardlink",
                "sha256": "44aea6a804dcf72303f8a043f48252f47a4a0a9ad61ddf30a3ce019e6fb77d1f",
                "sha256_in_prefix": "44aea6a804dcf72303f8a043f48252f47a4a0a9ad61ddf30a3ce019e6fb77d1f",
                "size_in_bytes": 150
            },
            {
                "_path": "lib/python3.10/site-packages/pydantic/errors.py",
                "path_type": "hardlink",
                "sha256": "86de5bc2d5d6cead83af021523ba54d2d93d20052342371580f0542c45d73029",
                "sha256_in_prefix": "86de5bc2d5d6cead83af021523ba54d2d93d20052342371580f0542c45d73029",
                "size_in_bytes": 4835
            },
            {
                "_path": "lib/python3.10/site-packages/pydantic/experimental/__init__.py",
                "path_type": "hardlink",
                "sha256": "8f4f1e44e7f3fb15b893f5fd5b89b6016dba215772177120d4ece5206035d6f9",
                "sha256_in_prefix": "8f4f1e44e7f3fb15b893f5fd5b89b6016dba215772177120d4ece5206035d6f9",
                "size_in_bytes": 328
            },
            {
                "_path": "lib/python3.10/site-packages/pydantic/experimental/pipeline.py",
                "path_type": "hardlink",
                "sha256": "3e38939e668de57c0b524f8d9737ebd82d91fb1acccfb373f97542f248851b25",
                "sha256_in_prefix": "3e38939e668de57c0b524f8d9737ebd82d91fb1acccfb373f97542f248851b25",
                "size_in_bytes": 23979
            },
            {
                "_path": "lib/python3.10/site-packages/pydantic/fields.py",
                "path_type": "hardlink",
                "sha256": "cdecf59527684999b77cdec02b786d4edab2b7788eec52017f969155d751502f",
                "sha256_in_prefix": "cdecf59527684999b77cdec02b786d4edab2b7788eec52017f969155d751502f",
                "size_in_bytes": 51746
            },
            {
                "_path": "lib/python3.10/site-packages/pydantic/functional_serializers.py",
                "path_type": "hardlink",
                "sha256": "dd18d0bbfa7159a79eb1b26bd6bc0c8005253bac1d4c2f23ffc08187bdbd6fb0",
                "sha256_in_prefix": "dd18d0bbfa7159a79eb1b26bd6bc0c8005253bac1d4c2f23ffc08187bdbd6fb0",
                "size_in_bytes": 14616
            },
            {
                "_path": "lib/python3.10/site-packages/pydantic/functional_validators.py",
                "path_type": "hardlink",
                "sha256": "38aacbfa7ca6d0c7b96c7a2efc1242b3d87e9b619bf9bdc0b32e7cac91be9643",
                "sha256_in_prefix": "38aacbfa7ca6d0c7b96c7a2efc1242b3d87e9b619bf9bdc0b32e7cac91be9643",
                "size_in_bytes": 24224
            },
            {
                "_path": "lib/python3.10/site-packages/pydantic/generics.py",
                "path_type": "hardlink",
                "sha256": "d19a99f4ef5a9e7223ff7986051aa9b3886d7b2ddbe65575f9ddad5313cc3270",
                "sha256_in_prefix": "d19a99f4ef5a9e7223ff7986051aa9b3886d7b2ddbe65575f9ddad5313cc3270",
                "size_in_bytes": 144
            },
            {
                "_path": "lib/python3.10/site-packages/pydantic/json.py",
                "path_type": "hardlink",
                "sha256": "647f11908ee1e01cfece9f0e7530316c952856f72853e8e131d459d01fa4d317",
                "sha256_in_prefix": "647f11908ee1e01cfece9f0e7530316c952856f72853e8e131d459d01fa4d317",
                "size_in_bytes": 140
            },
            {
                "_path": "lib/python3.10/site-packages/pydantic/json_schema.py",
                "path_type": "hardlink",
                "sha256": "03619788d8a091f25bd727914ed7846805a5246b5e452065810c870df024f71f",
                "sha256_in_prefix": "03619788d8a091f25bd727914ed7846805a5246b5e452065810c870df024f71f",
                "size_in_bytes": 106297
            },
            {
                "_path": "lib/python3.10/site-packages/pydantic/main.py",
                "path_type": "hardlink",
                "sha256": "cd0572d1760f378faf7b7a820b2c6bf3fe9d6dd993499616b4a59ecf04178350",
                "sha256_in_prefix": "cd0572d1760f378faf7b7a820b2c6bf3fe9d6dd993499616b4a59ecf04178350",
                "size_in_bytes": 70106
            },
            {
                "_path": "lib/python3.10/site-packages/pydantic/mypy.py",
                "path_type": "hardlink",
                "sha256": "7624e990167d84e3401b2114d27a683e756a7fbace95e2822280476feaaa8ad4",
                "sha256_in_prefix": "7624e990167d84e3401b2114d27a683e756a7fbace95e2822280476feaaa8ad4",
                "size_in_bytes": 56972
            },
            {
                "_path": "lib/python3.10/site-packages/pydantic/networks.py",
                "path_type": "hardlink",
                "sha256": "5e328f70a4c354688235323ff41f2240ab0ef316bd95fce48149af134248932e",
                "sha256_in_prefix": "5e328f70a4c354688235323ff41f2240ab0ef316bd95fce48149af134248932e",
                "size_in_bytes": 22713
            },
            {
                "_path": "lib/python3.10/site-packages/pydantic/parse.py",
                "path_type": "hardlink",
                "sha256": "c2477cd9d82dbd6b43f3de54fc8e84d61b6a3251a1052604577f5cb8149ea370",
                "sha256_in_prefix": "c2477cd9d82dbd6b43f3de54fc8e84d61b6a3251a1052604577f5cb8149ea370",
                "size_in_bytes": 141
            },
            {
                "_path": "lib/python3.10/site-packages/pydantic/plugin/__init__.py",
                "path_type": "hardlink",
                "sha256": "e69807804280e64657b1a2a12588f645d599276da72b54006288e5732d8cc40b",
                "sha256_in_prefix": "e69807804280e64657b1a2a12588f645d599276da72b54006288e5732d8cc40b",
                "size_in_bytes": 6116
            },
            {
                "_path": "lib/python3.10/site-packages/pydantic/plugin/_loader.py",
                "path_type": "hardlink",
                "sha256": "ae62db2304e10e6551d49c05562fd7beb2c7edbd40e6d78c103f8ede9afa1a4e",
                "sha256_in_prefix": "ae62db2304e10e6551d49c05562fd7beb2c7edbd40e6d78c103f8ede9afa1a4e",
                "size_in_bytes": 2140
            },
            {
                "_path": "lib/python3.10/site-packages/pydantic/plugin/_schema_validator.py",
                "path_type": "hardlink",
                "sha256": "54568d42954d4ae236ca6443913c0119a30a78a9b24a4d536d6fb7ad07a8cf19",
                "sha256_in_prefix": "54568d42954d4ae236ca6443913c0119a30a78a9b24a4d536d6fb7ad07a8cf19",
                "size_in_bytes": 5240
            },
            {
                "_path": "lib/python3.10/site-packages/pydantic/py.typed",
                "path_type": "hardlink",
                "sha256": "e3b0c44298fc1c149afbf4c8996fb92427ae41e4649b934ca495991b7852b855",
                "sha256_in_prefix": "e3b0c44298fc1c149afbf4c8996fb92427ae41e4649b934ca495991b7852b855"
            },
            {
                "_path": "lib/python3.10/site-packages/pydantic/root_model.py",
                "path_type": "hardlink",
                "sha256": "e7824ba9edffc7964e1286ec68c98d1c154f229432d6d756e2d267646508d696",
                "sha256_in_prefix": "e7824ba9edffc7964e1286ec68c98d1c154f229432d6d756e2d267646508d696",
                "size_in_bytes": 6194
            },
            {
                "_path": "lib/python3.10/site-packages/pydantic/schema.py",
                "path_type": "hardlink",
                "sha256": "56aaa3beafcb9daa5592779b51ddc1a7f275a768176599d94602f8f1b5441bba",
                "sha256_in_prefix": "56aaa3beafcb9daa5592779b51ddc1a7f275a768176599d94602f8f1b5441bba",
                "size_in_bytes": 142
            },
            {
                "_path": "lib/python3.10/site-packages/pydantic/tools.py",
                "path_type": "hardlink",
                "sha256": "88742977c489e43093b4f5796ad015d3a4fcf5b8d268c15e659d8b5fd95ab196",
                "sha256_in_prefix": "88742977c489e43093b4f5796ad015d3a4fcf5b8d268c15e659d8b5fd95ab196",
                "size_in_bytes": 141
            },
            {
                "_path": "lib/python3.10/site-packages/pydantic/type_adapter.py",
                "path_type": "hardlink",
                "sha256": "f89afa37768f05baceaff9125ee2445c7c284faaac57a1bcc59f6d582ef85202",
                "sha256_in_prefix": "f89afa37768f05baceaff9125ee2445c7c284faaac57a1bcc59f6d582ef85202",
                "size_in_bytes": 24974
            },
            {
                "_path": "lib/python3.10/site-packages/pydantic/types.py",
                "path_type": "hardlink",
                "sha256": "c0152897ac38c1c2ed574c0b0b486b7ba65d5ac79949266b4637ff47add8fee6",
                "sha256_in_prefix": "c0152897ac38c1c2ed574c0b0b486b7ba65d5ac79949266b4637ff47add8fee6",
                "size_in_bytes": 95744
            },
            {
                "_path": "lib/python3.10/site-packages/pydantic/typing.py",
                "path_type": "hardlink",
                "sha256": "3fb7de037e4cc1370bb11d6e2fb75bd12fa8c9d071a1b9976b9e580e80606a34",
                "sha256_in_prefix": "3fb7de037e4cc1370bb11d6e2fb75bd12fa8c9d071a1b9976b9e580e80606a34",
                "size_in_bytes": 138
            },
            {
                "_path": "lib/python3.10/site-packages/pydantic/utils.py",
                "path_type": "hardlink",
                "sha256": "d799d1d90a6a4c1165415e1336d4c8b4cc93271fdf6f257e80f988118d46a287",
                "sha256_in_prefix": "d799d1d90a6a4c1165415e1336d4c8b4cc93271fdf6f257e80f988118d46a287",
                "size_in_bytes": 141
            },
            {
                "_path": "lib/python3.10/site-packages/pydantic/v1/__init__.py",
                "path_type": "hardlink",
                "sha256": "4b140f925801b385c727013a059f6aa1ec18a0688dc98527987cc414265b7e72",
                "sha256_in_prefix": "4b140f925801b385c727013a059f6aa1ec18a0688dc98527987cc414265b7e72",
                "size_in_bytes": 2946
            },
            {
                "_path": "lib/python3.10/site-packages/pydantic/v1/_hypothesis_plugin.py",
                "path_type": "hardlink",
                "sha256": "e444b9c56bb0d45400b3298b7b3cbc4209d5cf466955f5378e4993ef81f6ed54",
                "sha256_in_prefix": "e444b9c56bb0d45400b3298b7b3cbc4209d5cf466955f5378e4993ef81f6ed54",
                "size_in_bytes": 14847
            },
            {
                "_path": "lib/python3.10/site-packages/pydantic/v1/annotated_types.py",
                "path_type": "hardlink",
                "sha256": "ba4d8d000c6a88d10b2a388787287129a20e87c1759585bf2f3ad6dd7ee86417",
                "sha256_in_prefix": "ba4d8d000c6a88d10b2a388787287129a20e87c1759585bf2f3ad6dd7ee86417",
                "size_in_bytes": 3157
            },
            {
                "_path": "lib/python3.10/site-packages/pydantic/v1/class_validators.py",
                "path_type": "hardlink",
                "sha256": "50b39a21481850306c1cbec411511aadc33e52e6ca52082837c8526c3a27b051",
                "sha256_in_prefix": "50b39a21481850306c1cbec411511aadc33e52e6ca52082837c8526c3a27b051",
                "size_in_bytes": 14672
            },
            {
                "_path": "lib/python3.10/site-packages/pydantic/v1/color.py",
                "path_type": "hardlink",
                "sha256": "8990012d8a7a395a28d801643fd229ae2ff049cebe2a496ef18ba149aaed7798",
                "sha256_in_prefix": "8990012d8a7a395a28d801643fd229ae2ff049cebe2a496ef18ba149aaed7798",
                "size_in_bytes": 16844
            },
            {
                "_path": "lib/python3.10/site-packages/pydantic/v1/config.py",
                "path_type": "hardlink",
                "sha256": "6ba3f459eafdc7871bc0a5bb5eff29a1252a33858ff912d6c17e9832962af400",
                "sha256_in_prefix": "6ba3f459eafdc7871bc0a5bb5eff29a1252a33858ff912d6c17e9832962af400",
                "size_in_bytes": 6532
            },
            {
                "_path": "lib/python3.10/site-packages/pydantic/v1/dataclasses.py",
                "path_type": "hardlink",
                "sha256": "efce1caaf2276f020f5abf6eb1fa57ddc87bcf8b77276b532ba374ebbff0935a",
                "sha256_in_prefix": "efce1caaf2276f020f5abf6eb1fa57ddc87bcf8b77276b532ba374ebbff0935a",
                "size_in_bytes": 18172
            },
            {
                "_path": "lib/python3.10/site-packages/pydantic/v1/datetime_parse.py",
                "path_type": "hardlink",
                "sha256": "e10cb5910a6adeb3556497881de48f0e9b92d81be1a7528fb73246d71bbe1f4d",
                "sha256_in_prefix": "e10cb5910a6adeb3556497881de48f0e9b92d81be1a7528fb73246d71bbe1f4d",
                "size_in_bytes": 7724
            },
            {
                "_path": "lib/python3.10/site-packages/pydantic/v1/decorator.py",
                "path_type": "hardlink",
                "sha256": "cda6b1c71a163c29bcd7c0f56ecd3285aa518d79b7d95f06d191d609d335b970",
                "sha256_in_prefix": "cda6b1c71a163c29bcd7c0f56ecd3285aa518d79b7d95f06d191d609d335b970",
                "size_in_bytes": 10339
            },
            {
                "_path": "lib/python3.10/site-packages/pydantic/v1/env_settings.py",
                "path_type": "hardlink",
                "sha256": "03d557c2d465d36018fa31f40b4a2ecb954dc377e2e85fe9933b870e380000e3",
                "sha256_in_prefix": "03d557c2d465d36018fa31f40b4a2ecb954dc377e2e85fe9933b870e380000e3",
                "size_in_bytes": 14105
            },
            {
                "_path": "lib/python3.10/site-packages/pydantic/v1/error_wrappers.py",
                "path_type": "hardlink",
                "sha256": "ebadb931fc3daa40b63708ad07f2450167bc07e5efeb3054eeb2fd936f2d7f2a",
                "sha256_in_prefix": "ebadb931fc3daa40b63708ad07f2450167bc07e5efeb3054eeb2fd936f2d7f2a",
                "size_in_bytes": 5196
            },
            {
                "_path": "lib/python3.10/site-packages/pydantic/v1/errors.py",
                "path_type": "hardlink",
                "sha256": "988c0f103e6f18ce50e6fe02e19d493e5753447fa89af132947ea4b0c84e98fc",
                "sha256_in_prefix": "988c0f103e6f18ce50e6fe02e19d493e5753447fa89af132947ea4b0c84e98fc",
                "size_in_bytes": 17726
            },
            {
                "_path": "lib/python3.10/site-packages/pydantic/v1/fields.py",
                "path_type": "hardlink",
                "sha256": "56a5890ab894362132a6d5eba03549e74d49a550347a7d9500d724b2a5cbd9bf",
                "sha256_in_prefix": "56a5890ab894362132a6d5eba03549e74d49a550347a7d9500d724b2a5cbd9bf",
                "size_in_bytes": 50649
            },
            {
                "_path": "lib/python3.10/site-packages/pydantic/v1/generics.py",
                "path_type": "hardlink",
                "sha256": "5730bd61457e11b3e94376807e4d5c3457a3efdfc8cf39e443b5ab9934d94bd1",
                "sha256_in_prefix": "5730bd61457e11b3e94376807e4d5c3457a3efdfc8cf39e443b5ab9934d94bd1",
                "size_in_bytes": 17871
            },
            {
                "_path": "lib/python3.10/site-packages/pydantic/v1/json.py",
                "path_type": "hardlink",
                "sha256": "590e47cbf848a5f751dd84bc93a37613a28c273b1d6c18bf95d58e3c9695f353",
                "sha256_in_prefix": "590e47cbf848a5f751dd84bc93a37613a28c273b1d6c18bf95d58e3c9695f353",
                "size_in_bytes": 3390
            },
            {
                "_path": "lib/python3.10/site-packages/pydantic/v1/main.py",
                "path_type": "hardlink",
                "sha256": "038f1db382893784a0237e182e03c6aa2e8adcb84eecec19dd0132e861118947",
                "sha256_in_prefix": "038f1db382893784a0237e182e03c6aa2e8adcb84eecec19dd0132e861118947",
                "size_in_bytes": 44541
            },
            {
                "_path": "lib/python3.10/site-packages/pydantic/v1/mypy.py",
                "path_type": "hardlink",
                "sha256": "90b43b487c22b05c60d2a6faf1c9422f2a22c04e9f9754e88de13acbe2d8f08d",
                "sha256_in_prefix": "90b43b487c22b05c60d2a6faf1c9422f2a22c04e9f9754e88de13acbe2d8f08d",
                "size_in_bytes": 38774
            },
            {
                "_path": "lib/python3.10/site-packages/pydantic/v1/networks.py",
                "path_type": "hardlink",
                "sha256": "1d836d2807ce98e9ca269b0383583a488923f563e153ffa2f25e5ed89281a46e",
                "sha256_in_prefix": "1d836d2807ce98e9ca269b0383583a488923f563e153ffa2f25e5ed89281a46e",
                "size_in_bytes": 22124
            },
            {
                "_path": "lib/python3.10/site-packages/pydantic/v1/parse.py",
                "path_type": "hardlink",
                "sha256": "049b5daa2651b5abfd55114298ec6863e2889909a33f2f80fcda288e21546716",
                "sha256_in_prefix": "049b5daa2651b5abfd55114298ec6863e2889909a33f2f80fcda288e21546716",
                "size_in_bytes": 1821
            },
            {
                "_path": "lib/python3.10/site-packages/pydantic/v1/py.typed",
                "path_type": "hardlink",
                "sha256": "e3b0c44298fc1c149afbf4c8996fb92427ae41e4649b934ca495991b7852b855",
                "sha256_in_prefix": "e3b0c44298fc1c149afbf4c8996fb92427ae41e4649b934ca495991b7852b855"
            },
            {
                "_path": "lib/python3.10/site-packages/pydantic/v1/schema.py",
                "path_type": "hardlink",
                "sha256": "24b9eaf79e7417aab1f629a865b739989bcc313aaa5388eefb9ad7e50836dea4",
                "sha256_in_prefix": "24b9eaf79e7417aab1f629a865b739989bcc313aaa5388eefb9ad7e50836dea4",
                "size_in_bytes": 47760
            },
            {
                "_path": "lib/python3.10/site-packages/pydantic/v1/tools.py",
                "path_type": "hardlink",
                "sha256": "d650dd5c79348cbe6e3f7bb9442600bd402518296000efb8e6592af63edfc810",
                "sha256_in_prefix": "d650dd5c79348cbe6e3f7bb9442600bd402518296000efb8e6592af63edfc810",
                "size_in_bytes": 2881
            },
            {
                "_path": "lib/python3.10/site-packages/pydantic/v1/types.py",
                "path_type": "hardlink",
                "sha256": "165b71e46a0ffea69498092d946cfb9c57896b5df2372dc5635f9170ccc456df",
                "sha256_in_prefix": "165b71e46a0ffea69498092d946cfb9c57896b5df2372dc5635f9170ccc456df",
                "size_in_bytes": 35455
            },
            {
                "_path": "lib/python3.10/site-packages/pydantic/v1/typing.py",
                "path_type": "hardlink",
                "sha256": "1a34e139b6aa1cc84b6840b3614ac39345fe4478e8ef1eafb2fe19e2a51857c2",
                "sha256_in_prefix": "1a34e139b6aa1cc84b6840b3614ac39345fe4478e8ef1eafb2fe19e2a51857c2",
                "size_in_bytes": 19387
            },
            {
                "_path": "lib/python3.10/site-packages/pydantic/v1/utils.py",
                "path_type": "hardlink",
                "sha256": "7e39562fc492b45663d30dec6dfb8e55f0c84cad6f7457d9e697209a5f4aabb9",
                "sha256_in_prefix": "7e39562fc492b45663d30dec6dfb8e55f0c84cad6f7457d9e697209a5f4aabb9",
                "size_in_bytes": 25919
            },
            {
                "_path": "lib/python3.10/site-packages/pydantic/v1/validators.py",
                "path_type": "hardlink",
                "sha256": "0f1731dfacd54230547d876340bb3f134aa962a4de35bac5f0f41371ab1882b2",
                "sha256_in_prefix": "0f1731dfacd54230547d876340bb3f134aa962a4de35bac5f0f41371ab1882b2",
                "size_in_bytes": 21996
            },
            {
                "_path": "lib/python3.10/site-packages/pydantic/v1/version.py",
                "path_type": "hardlink",
                "sha256": "0c5378b8c05e9b1fe01e4ffa8b548ad2831add531ef46ff02c5cb0e8a2278a98",
                "sha256_in_prefix": "0c5378b8c05e9b1fe01e4ffa8b548ad2831add531ef46ff02c5cb0e8a2278a98",
                "size_in_bytes": 1039
            },
            {
                "_path": "lib/python3.10/site-packages/pydantic/validate_call_decorator.py",
                "path_type": "hardlink",
                "sha256": "8e3d53f58cfdfec40c8418c19949fdb2fed82bd7722d7266e69a1dc71b1b0df2",
                "sha256_in_prefix": "8e3d53f58cfdfec40c8418c19949fdb2fed82bd7722d7266e69a1dc71b1b0df2",
                "size_in_bytes": 2127
            },
            {
                "_path": "lib/python3.10/site-packages/pydantic/validators.py",
                "path_type": "hardlink",
                "sha256": "a706c825755bd42576980138c3f1067cd8fb0f0cec29a5b0fed4cbe9cbe24eeb",
                "sha256_in_prefix": "a706c825755bd42576980138c3f1067cd8fb0f0cec29a5b0fed4cbe9cbe24eeb",
                "size_in_bytes": 146
            },
            {
                "_path": "lib/python3.10/site-packages/pydantic/version.py",
                "path_type": "hardlink",
                "sha256": "e6e74f125f606033e6aa2776412f75aa764d0612f2a3af8a1d397fb5790f32fd",
                "sha256_in_prefix": "e6e74f125f606033e6aa2776412f75aa764d0612f2a3af8a1d397fb5790f32fd",
                "size_in_bytes": 2442
            },
            {
                "_path": "lib/python3.10/site-packages/pydantic/warnings.py",
                "path_type": "hardlink",
                "sha256": "edfe53c5898b91938230f6f6b862e524213ab8019de17174a9e6ba9fe86ffb2b",
                "sha256_in_prefix": "edfe53c5898b91938230f6f6b862e524213ab8019de17174a9e6ba9fe86ffb2b",
                "size_in_bytes": 2711
            },
            {
                "_path": "lib/python3.10/site-packages/pydantic/__pycache__/__init__.cpython-310.pyc",
                "path_type": "pyc_file"
            },
            {
                "_path": "lib/python3.10/site-packages/pydantic/_internal/__pycache__/__init__.cpython-310.pyc",
                "path_type": "pyc_file"
            },
            {
                "_path": "lib/python3.10/site-packages/pydantic/_internal/__pycache__/_config.cpython-310.pyc",
                "path_type": "pyc_file"
            },
            {
                "_path": "lib/python3.10/site-packages/pydantic/_internal/__pycache__/_core_metadata.cpython-310.pyc",
                "path_type": "pyc_file"
            },
            {
                "_path": "lib/python3.10/site-packages/pydantic/_internal/__pycache__/_core_utils.cpython-310.pyc",
                "path_type": "pyc_file"
            },
            {
                "_path": "lib/python3.10/site-packages/pydantic/_internal/__pycache__/_dataclasses.cpython-310.pyc",
                "path_type": "pyc_file"
            },
            {
                "_path": "lib/python3.10/site-packages/pydantic/_internal/__pycache__/_decorators.cpython-310.pyc",
                "path_type": "pyc_file"
            },
            {
                "_path": "lib/python3.10/site-packages/pydantic/_internal/__pycache__/_decorators_v1.cpython-310.pyc",
                "path_type": "pyc_file"
            },
            {
                "_path": "lib/python3.10/site-packages/pydantic/_internal/__pycache__/_discriminated_union.cpython-310.pyc",
                "path_type": "pyc_file"
            },
            {
                "_path": "lib/python3.10/site-packages/pydantic/_internal/__pycache__/_docs_extraction.cpython-310.pyc",
                "path_type": "pyc_file"
            },
            {
                "_path": "lib/python3.10/site-packages/pydantic/_internal/__pycache__/_fields.cpython-310.pyc",
                "path_type": "pyc_file"
            },
            {
                "_path": "lib/python3.10/site-packages/pydantic/_internal/__pycache__/_forward_ref.cpython-310.pyc",
                "path_type": "pyc_file"
            },
            {
                "_path": "lib/python3.10/site-packages/pydantic/_internal/__pycache__/_generate_schema.cpython-310.pyc",
                "path_type": "pyc_file"
            },
            {
                "_path": "lib/python3.10/site-packages/pydantic/_internal/__pycache__/_generics.cpython-310.pyc",
                "path_type": "pyc_file"
            },
            {
                "_path": "lib/python3.10/site-packages/pydantic/_internal/__pycache__/_git.cpython-310.pyc",
                "path_type": "pyc_file"
            },
            {
                "_path": "lib/python3.10/site-packages/pydantic/_internal/__pycache__/_internal_dataclass.cpython-310.pyc",
                "path_type": "pyc_file"
            },
            {
                "_path": "lib/python3.10/site-packages/pydantic/_internal/__pycache__/_known_annotated_metadata.cpython-310.pyc",
                "path_type": "pyc_file"
            },
            {
                "_path": "lib/python3.10/site-packages/pydantic/_internal/__pycache__/_mock_val_ser.cpython-310.pyc",
                "path_type": "pyc_file"
            },
            {
                "_path": "lib/python3.10/site-packages/pydantic/_internal/__pycache__/_model_construction.cpython-310.pyc",
                "path_type": "pyc_file"
            },
            {
                "_path": "lib/python3.10/site-packages/pydantic/_internal/__pycache__/_repr.cpython-310.pyc",
                "path_type": "pyc_file"
            },
            {
                "_path": "lib/python3.10/site-packages/pydantic/_internal/__pycache__/_schema_generation_shared.cpython-310.pyc",
                "path_type": "pyc_file"
            },
            {
                "_path": "lib/python3.10/site-packages/pydantic/_internal/__pycache__/_signature.cpython-310.pyc",
                "path_type": "pyc_file"
            },
            {
                "_path": "lib/python3.10/site-packages/pydantic/_internal/__pycache__/_std_types_schema.cpython-310.pyc",
                "path_type": "pyc_file"
            },
            {
                "_path": "lib/python3.10/site-packages/pydantic/_internal/__pycache__/_typing_extra.cpython-310.pyc",
                "path_type": "pyc_file"
            },
            {
                "_path": "lib/python3.10/site-packages/pydantic/_internal/__pycache__/_utils.cpython-310.pyc",
                "path_type": "pyc_file"
            },
            {
                "_path": "lib/python3.10/site-packages/pydantic/_internal/__pycache__/_validate_call.cpython-310.pyc",
                "path_type": "pyc_file"
            },
            {
                "_path": "lib/python3.10/site-packages/pydantic/_internal/__pycache__/_validators.cpython-310.pyc",
                "path_type": "pyc_file"
            },
            {
                "_path": "lib/python3.10/site-packages/pydantic/__pycache__/_migration.cpython-310.pyc",
                "path_type": "pyc_file"
            },
            {
                "_path": "lib/python3.10/site-packages/pydantic/__pycache__/alias_generators.cpython-310.pyc",
                "path_type": "pyc_file"
            },
            {
                "_path": "lib/python3.10/site-packages/pydantic/__pycache__/aliases.cpython-310.pyc",
                "path_type": "pyc_file"
            },
            {
                "_path": "lib/python3.10/site-packages/pydantic/__pycache__/annotated_handlers.cpython-310.pyc",
                "path_type": "pyc_file"
            },
            {
                "_path": "lib/python3.10/site-packages/pydantic/__pycache__/class_validators.cpython-310.pyc",
                "path_type": "pyc_file"
            },
            {
                "_path": "lib/python3.10/site-packages/pydantic/__pycache__/color.cpython-310.pyc",
                "path_type": "pyc_file"
            },
            {
                "_path": "lib/python3.10/site-packages/pydantic/__pycache__/config.cpython-310.pyc",
                "path_type": "pyc_file"
            },
            {
                "_path": "lib/python3.10/site-packages/pydantic/__pycache__/dataclasses.cpython-310.pyc",
                "path_type": "pyc_file"
            },
            {
                "_path": "lib/python3.10/site-packages/pydantic/__pycache__/datetime_parse.cpython-310.pyc",
                "path_type": "pyc_file"
            },
            {
                "_path": "lib/python3.10/site-packages/pydantic/__pycache__/decorator.cpython-310.pyc",
                "path_type": "pyc_file"
            },
            {
                "_path": "lib/python3.10/site-packages/pydantic/deprecated/__pycache__/__init__.cpython-310.pyc",
                "path_type": "pyc_file"
            },
            {
                "_path": "lib/python3.10/site-packages/pydantic/deprecated/__pycache__/class_validators.cpython-310.pyc",
                "path_type": "pyc_file"
            },
            {
                "_path": "lib/python3.10/site-packages/pydantic/deprecated/__pycache__/config.cpython-310.pyc",
                "path_type": "pyc_file"
            },
            {
                "_path": "lib/python3.10/site-packages/pydantic/deprecated/__pycache__/copy_internals.cpython-310.pyc",
                "path_type": "pyc_file"
            },
            {
                "_path": "lib/python3.10/site-packages/pydantic/deprecated/__pycache__/decorator.cpython-310.pyc",
                "path_type": "pyc_file"
            },
            {
                "_path": "lib/python3.10/site-packages/pydantic/deprecated/__pycache__/json.cpython-310.pyc",
                "path_type": "pyc_file"
            },
            {
                "_path": "lib/python3.10/site-packages/pydantic/deprecated/__pycache__/parse.cpython-310.pyc",
                "path_type": "pyc_file"
            },
            {
                "_path": "lib/python3.10/site-packages/pydantic/deprecated/__pycache__/tools.cpython-310.pyc",
                "path_type": "pyc_file"
            },
            {
                "_path": "lib/python3.10/site-packages/pydantic/__pycache__/env_settings.cpython-310.pyc",
                "path_type": "pyc_file"
            },
            {
                "_path": "lib/python3.10/site-packages/pydantic/__pycache__/error_wrappers.cpython-310.pyc",
                "path_type": "pyc_file"
            },
            {
                "_path": "lib/python3.10/site-packages/pydantic/__pycache__/errors.cpython-310.pyc",
                "path_type": "pyc_file"
            },
            {
                "_path": "lib/python3.10/site-packages/pydantic/experimental/__pycache__/__init__.cpython-310.pyc",
                "path_type": "pyc_file"
            },
            {
                "_path": "lib/python3.10/site-packages/pydantic/experimental/__pycache__/pipeline.cpython-310.pyc",
                "path_type": "pyc_file"
            },
            {
                "_path": "lib/python3.10/site-packages/pydantic/__pycache__/fields.cpython-310.pyc",
                "path_type": "pyc_file"
            },
            {
                "_path": "lib/python3.10/site-packages/pydantic/__pycache__/functional_serializers.cpython-310.pyc",
                "path_type": "pyc_file"
            },
            {
                "_path": "lib/python3.10/site-packages/pydantic/__pycache__/functional_validators.cpython-310.pyc",
                "path_type": "pyc_file"
            },
            {
                "_path": "lib/python3.10/site-packages/pydantic/__pycache__/generics.cpython-310.pyc",
                "path_type": "pyc_file"
            },
            {
                "_path": "lib/python3.10/site-packages/pydantic/__pycache__/json.cpython-310.pyc",
                "path_type": "pyc_file"
            },
            {
                "_path": "lib/python3.10/site-packages/pydantic/__pycache__/json_schema.cpython-310.pyc",
                "path_type": "pyc_file"
            },
            {
                "_path": "lib/python3.10/site-packages/pydantic/__pycache__/main.cpython-310.pyc",
                "path_type": "pyc_file"
            },
            {
                "_path": "lib/python3.10/site-packages/pydantic/__pycache__/mypy.cpython-310.pyc",
                "path_type": "pyc_file"
            },
            {
                "_path": "lib/python3.10/site-packages/pydantic/__pycache__/networks.cpython-310.pyc",
                "path_type": "pyc_file"
            },
            {
                "_path": "lib/python3.10/site-packages/pydantic/__pycache__/parse.cpython-310.pyc",
                "path_type": "pyc_file"
            },
            {
                "_path": "lib/python3.10/site-packages/pydantic/plugin/__pycache__/__init__.cpython-310.pyc",
                "path_type": "pyc_file"
            },
            {
                "_path": "lib/python3.10/site-packages/pydantic/plugin/__pycache__/_loader.cpython-310.pyc",
                "path_type": "pyc_file"
            },
            {
                "_path": "lib/python3.10/site-packages/pydantic/plugin/__pycache__/_schema_validator.cpython-310.pyc",
                "path_type": "pyc_file"
            },
            {
                "_path": "lib/python3.10/site-packages/pydantic/__pycache__/root_model.cpython-310.pyc",
                "path_type": "pyc_file"
            },
            {
                "_path": "lib/python3.10/site-packages/pydantic/__pycache__/schema.cpython-310.pyc",
                "path_type": "pyc_file"
            },
            {
                "_path": "lib/python3.10/site-packages/pydantic/__pycache__/tools.cpython-310.pyc",
                "path_type": "pyc_file"
            },
            {
                "_path": "lib/python3.10/site-packages/pydantic/__pycache__/type_adapter.cpython-310.pyc",
                "path_type": "pyc_file"
            },
            {
                "_path": "lib/python3.10/site-packages/pydantic/__pycache__/types.cpython-310.pyc",
                "path_type": "pyc_file"
            },
            {
                "_path": "lib/python3.10/site-packages/pydantic/__pycache__/typing.cpython-310.pyc",
                "path_type": "pyc_file"
            },
            {
                "_path": "lib/python3.10/site-packages/pydantic/__pycache__/utils.cpython-310.pyc",
                "path_type": "pyc_file"
            },
            {
                "_path": "lib/python3.10/site-packages/pydantic/v1/__pycache__/__init__.cpython-310.pyc",
                "path_type": "pyc_file"
            },
            {
                "_path": "lib/python3.10/site-packages/pydantic/v1/__pycache__/_hypothesis_plugin.cpython-310.pyc",
                "path_type": "pyc_file"
            },
            {
                "_path": "lib/python3.10/site-packages/pydantic/v1/__pycache__/annotated_types.cpython-310.pyc",
                "path_type": "pyc_file"
            },
            {
                "_path": "lib/python3.10/site-packages/pydantic/v1/__pycache__/class_validators.cpython-310.pyc",
                "path_type": "pyc_file"
            },
            {
                "_path": "lib/python3.10/site-packages/pydantic/v1/__pycache__/color.cpython-310.pyc",
                "path_type": "pyc_file"
            },
            {
                "_path": "lib/python3.10/site-packages/pydantic/v1/__pycache__/config.cpython-310.pyc",
                "path_type": "pyc_file"
            },
            {
                "_path": "lib/python3.10/site-packages/pydantic/v1/__pycache__/dataclasses.cpython-310.pyc",
                "path_type": "pyc_file"
            },
            {
                "_path": "lib/python3.10/site-packages/pydantic/v1/__pycache__/datetime_parse.cpython-310.pyc",
                "path_type": "pyc_file"
            },
            {
                "_path": "lib/python3.10/site-packages/pydantic/v1/__pycache__/decorator.cpython-310.pyc",
                "path_type": "pyc_file"
            },
            {
                "_path": "lib/python3.10/site-packages/pydantic/v1/__pycache__/env_settings.cpython-310.pyc",
                "path_type": "pyc_file"
            },
            {
                "_path": "lib/python3.10/site-packages/pydantic/v1/__pycache__/error_wrappers.cpython-310.pyc",
                "path_type": "pyc_file"
            },
            {
                "_path": "lib/python3.10/site-packages/pydantic/v1/__pycache__/errors.cpython-310.pyc",
                "path_type": "pyc_file"
            },
            {
                "_path": "lib/python3.10/site-packages/pydantic/v1/__pycache__/fields.cpython-310.pyc",
                "path_type": "pyc_file"
            },
            {
                "_path": "lib/python3.10/site-packages/pydantic/v1/__pycache__/generics.cpython-310.pyc",
                "path_type": "pyc_file"
            },
            {
                "_path": "lib/python3.10/site-packages/pydantic/v1/__pycache__/json.cpython-310.pyc",
                "path_type": "pyc_file"
            },
            {
                "_path": "lib/python3.10/site-packages/pydantic/v1/__pycache__/main.cpython-310.pyc",
                "path_type": "pyc_file"
            },
            {
                "_path": "lib/python3.10/site-packages/pydantic/v1/__pycache__/mypy.cpython-310.pyc",
                "path_type": "pyc_file"
            },
            {
                "_path": "lib/python3.10/site-packages/pydantic/v1/__pycache__/networks.cpython-310.pyc",
                "path_type": "pyc_file"
            },
            {
                "_path": "lib/python3.10/site-packages/pydantic/v1/__pycache__/parse.cpython-310.pyc",
                "path_type": "pyc_file"
            },
            {
                "_path": "lib/python3.10/site-packages/pydantic/v1/__pycache__/schema.cpython-310.pyc",
                "path_type": "pyc_file"
            },
            {
                "_path": "lib/python3.10/site-packages/pydantic/v1/__pycache__/tools.cpython-310.pyc",
                "path_type": "pyc_file"
            },
            {
                "_path": "lib/python3.10/site-packages/pydantic/v1/__pycache__/types.cpython-310.pyc",
                "path_type": "pyc_file"
            },
            {
                "_path": "lib/python3.10/site-packages/pydantic/v1/__pycache__/typing.cpython-310.pyc",
                "path_type": "pyc_file"
            },
            {
                "_path": "lib/python3.10/site-packages/pydantic/v1/__pycache__/utils.cpython-310.pyc",
                "path_type": "pyc_file"
            },
            {
                "_path": "lib/python3.10/site-packages/pydantic/v1/__pycache__/validators.cpython-310.pyc",
                "path_type": "pyc_file"
            },
            {
                "_path": "lib/python3.10/site-packages/pydantic/v1/__pycache__/version.cpython-310.pyc",
                "path_type": "pyc_file"
            },
            {
                "_path": "lib/python3.10/site-packages/pydantic/__pycache__/validate_call_decorator.cpython-310.pyc",
                "path_type": "pyc_file"
            },
            {
                "_path": "lib/python3.10/site-packages/pydantic/__pycache__/validators.cpython-310.pyc",
                "path_type": "pyc_file"
            },
            {
                "_path": "lib/python3.10/site-packages/pydantic/__pycache__/version.cpython-310.pyc",
                "path_type": "pyc_file"
            },
            {
                "_path": "lib/python3.10/site-packages/pydantic/__pycache__/warnings.cpython-310.pyc",
                "path_type": "pyc_file"
            }
        ],
        "paths_version": 1
    },
    "platform": null,
    "requested_spec": "",
    "sha256": "5a877153f7eaaab9724db5b64366a35e346007c9c104c1d6a6042f83b2f4f0df",
    "size": 292538,
    "subdir": "noarch",
    "timestamp": 1720293163725,
    "track_features": "",
    "url": "https://conda.anaconda.org/conda-forge/noarch/pydantic-2.8.2-pyhd8ed1ab_0.conda",
    "version": "2.8.2"
}