{
    "arch": null,
    "build": "pyha770c72_0",
    "build_number": 0,
    "build_string": "pyha770c72_0",
    "channel": "https://conda.anaconda.org/conda-forge/noarch",
    "constrains": [],
    "depends": [
        "docutils <0.21",
        "python >=3.6",
        "sphinx >=5,<8",
        "sphinxcontrib-jquery >=4,<5"
    ],
    "extracted_package_dir": "/eos/home-s/staj/Higg\t/micromamba/pkgs/sphinx_rtd_theme-2.0.0-pyha770c72_0",
    "files": [
        "lib/python3.10/site-packages/sphinx_rtd_theme-2.0.0.dist-info/INSTALLER",
        "lib/python3.10/site-packages/sphinx_rtd_theme-2.0.0.dist-info/LICENSE",
        "lib/python3.10/site-packages/sphinx_rtd_theme-2.0.0.dist-info/METADATA",
        "lib/python3.10/site-packages/sphinx_rtd_theme-2.0.0.dist-info/RECORD",
        "lib/python3.10/site-packages/sphinx_rtd_theme-2.0.0.dist-info/REQUESTED",
        "lib/python3.10/site-packages/sphinx_rtd_theme-2.0.0.dist-info/WHEEL",
        "lib/python3.10/site-packages/sphinx_rtd_theme-2.0.0.dist-info/direct_url.json",
        "lib/python3.10/site-packages/sphinx_rtd_theme-2.0.0.dist-info/entry_points.txt",
        "lib/python3.10/site-packages/sphinx_rtd_theme-2.0.0.dist-info/top_level.txt",
        "lib/python3.10/site-packages/sphinx_rtd_theme/__init__.py",
        "lib/python3.10/site-packages/sphinx_rtd_theme/breadcrumbs.html",
        "lib/python3.10/site-packages/sphinx_rtd_theme/footer.html",
        "lib/python3.10/site-packages/sphinx_rtd_theme/layout.html",
        "lib/python3.10/site-packages/sphinx_rtd_theme/locale/da/LC_MESSAGES/sphinx.mo",
        "lib/python3.10/site-packages/sphinx_rtd_theme/locale/da/LC_MESSAGES/sphinx.po",
        "lib/python3.10/site-packages/sphinx_rtd_theme/locale/de/LC_MESSAGES/sphinx.mo",
        "lib/python3.10/site-packages/sphinx_rtd_theme/locale/de/LC_MESSAGES/sphinx.po",
        "lib/python3.10/site-packages/sphinx_rtd_theme/locale/en/LC_MESSAGES/sphinx.mo",
        "lib/python3.10/site-packages/sphinx_rtd_theme/locale/en/LC_MESSAGES/sphinx.po",
        "lib/python3.10/site-packages/sphinx_rtd_theme/locale/es/LC_MESSAGES/sphinx.mo",
        "lib/python3.10/site-packages/sphinx_rtd_theme/locale/es/LC_MESSAGES/sphinx.po",
        "lib/python3.10/site-packages/sphinx_rtd_theme/locale/et/LC_MESSAGES/sphinx.mo",
        "lib/python3.10/site-packages/sphinx_rtd_theme/locale/et/LC_MESSAGES/sphinx.po",
        "lib/python3.10/site-packages/sphinx_rtd_theme/locale/fa_IR/LC_MESSAGES/sphinx.mo",
        "lib/python3.10/site-packages/sphinx_rtd_theme/locale/fa_IR/LC_MESSAGES/sphinx.po",
        "lib/python3.10/site-packages/sphinx_rtd_theme/locale/fr/LC_MESSAGES/sphinx.mo",
        "lib/python3.10/site-packages/sphinx_rtd_theme/locale/fr/LC_MESSAGES/sphinx.po",
        "lib/python3.10/site-packages/sphinx_rtd_theme/locale/hr/LC_MESSAGES/sphinx.mo",
        "lib/python3.10/site-packages/sphinx_rtd_theme/locale/hr/LC_MESSAGES/sphinx.po",
        "lib/python3.10/site-packages/sphinx_rtd_theme/locale/hu/LC_MESSAGES/sphinx.mo",
        "lib/python3.10/site-packages/sphinx_rtd_theme/locale/hu/LC_MESSAGES/sphinx.po",
        "lib/python3.10/site-packages/sphinx_rtd_theme/locale/it/LC_MESSAGES/sphinx.mo",
        "lib/python3.10/site-packages/sphinx_rtd_theme/locale/it/LC_MESSAGES/sphinx.po",
        "lib/python3.10/site-packages/sphinx_rtd_theme/locale/lt/LC_MESSAGES/sphinx.mo",
        "lib/python3.10/site-packages/sphinx_rtd_theme/locale/lt/LC_MESSAGES/sphinx.po",
        "lib/python3.10/site-packages/sphinx_rtd_theme/locale/nl/LC_MESSAGES/sphinx.mo",
        "lib/python3.10/site-packages/sphinx_rtd_theme/locale/nl/LC_MESSAGES/sphinx.po",
        "lib/python3.10/site-packages/sphinx_rtd_theme/locale/pl/LC_MESSAGES/sphinx.mo",
        "lib/python3.10/site-packages/sphinx_rtd_theme/locale/pl/LC_MESSAGES/sphinx.po",
        "lib/python3.10/site-packages/sphinx_rtd_theme/locale/pt/LC_MESSAGES/sphinx.mo",
        "lib/python3.10/site-packages/sphinx_rtd_theme/locale/pt/LC_MESSAGES/sphinx.po",
        "lib/python3.10/site-packages/sphinx_rtd_theme/locale/pt_BR/LC_MESSAGES/sphinx.mo",
        "lib/python3.10/site-packages/sphinx_rtd_theme/locale/pt_BR/LC_MESSAGES/sphinx.po",
        "lib/python3.10/site-packages/sphinx_rtd_theme/locale/ru/LC_MESSAGES/sphinx.mo",
        "lib/python3.10/site-packages/sphinx_rtd_theme/locale/ru/LC_MESSAGES/sphinx.po",
        "lib/python3.10/site-packages/sphinx_rtd_theme/locale/sphinx.pot",
        "lib/python3.10/site-packages/sphinx_rtd_theme/locale/sv/LC_MESSAGES/sphinx.mo",
        "lib/python3.10/site-packages/sphinx_rtd_theme/locale/sv/LC_MESSAGES/sphinx.po",
        "lib/python3.10/site-packages/sphinx_rtd_theme/locale/tr/LC_MESSAGES/sphinx.mo",
        "lib/python3.10/site-packages/sphinx_rtd_theme/locale/tr/LC_MESSAGES/sphinx.po",
        "lib/python3.10/site-packages/sphinx_rtd_theme/locale/zh_CN/LC_MESSAGES/sphinx.mo",
        "lib/python3.10/site-packages/sphinx_rtd_theme/locale/zh_CN/LC_MESSAGES/sphinx.po",
        "lib/python3.10/site-packages/sphinx_rtd_theme/locale/zh_TW/LC_MESSAGES/sphinx.mo",
        "lib/python3.10/site-packages/sphinx_rtd_theme/locale/zh_TW/LC_MESSAGES/sphinx.po",
        "lib/python3.10/site-packages/sphinx_rtd_theme/search.html",
        "lib/python3.10/site-packages/sphinx_rtd_theme/searchbox.html",
        "lib/python3.10/site-packages/sphinx_rtd_theme/static/css/badge_only.css",
        "lib/python3.10/site-packages/sphinx_rtd_theme/static/css/fonts/Roboto-Slab-Bold.woff",
        "lib/python3.10/site-packages/sphinx_rtd_theme/static/css/fonts/Roboto-Slab-Bold.woff2",
        "lib/python3.10/site-packages/sphinx_rtd_theme/static/css/fonts/Roboto-Slab-Regular.woff",
        "lib/python3.10/site-packages/sphinx_rtd_theme/static/css/fonts/Roboto-Slab-Regular.woff2",
        "lib/python3.10/site-packages/sphinx_rtd_theme/static/css/fonts/fontawesome-webfont.eot",
        "lib/python3.10/site-packages/sphinx_rtd_theme/static/css/fonts/fontawesome-webfont.svg",
        "lib/python3.10/site-packages/sphinx_rtd_theme/static/css/fonts/fontawesome-webfont.ttf",
        "lib/python3.10/site-packages/sphinx_rtd_theme/static/css/fonts/fontawesome-webfont.woff",
        "lib/python3.10/site-packages/sphinx_rtd_theme/static/css/fonts/fontawesome-webfont.woff2",
        "lib/python3.10/site-packages/sphinx_rtd_theme/static/css/fonts/lato-bold-italic.woff",
        "lib/python3.10/site-packages/sphinx_rtd_theme/static/css/fonts/lato-bold-italic.woff2",
        "lib/python3.10/site-packages/sphinx_rtd_theme/static/css/fonts/lato-bold.woff",
        "lib/python3.10/site-packages/sphinx_rtd_theme/static/css/fonts/lato-bold.woff2",
        "lib/python3.10/site-packages/sphinx_rtd_theme/static/css/fonts/lato-normal-italic.woff",
        "lib/python3.10/site-packages/sphinx_rtd_theme/static/css/fonts/lato-normal-italic.woff2",
        "lib/python3.10/site-packages/sphinx_rtd_theme/static/css/fonts/lato-normal.woff",
        "lib/python3.10/site-packages/sphinx_rtd_theme/static/css/fonts/lato-normal.woff2",
        "lib/python3.10/site-packages/sphinx_rtd_theme/static/css/theme.css",
        "lib/python3.10/site-packages/sphinx_rtd_theme/static/js/badge_only.js",
        "lib/python3.10/site-packages/sphinx_rtd_theme/static/js/html5shiv-printshiv.min.js",
        "lib/python3.10/site-packages/sphinx_rtd_theme/static/js/html5shiv.min.js",
        "lib/python3.10/site-packages/sphinx_rtd_theme/static/js/theme.js",
        "lib/python3.10/site-packages/sphinx_rtd_theme/theme.conf",
        "lib/python3.10/site-packages/sphinx_rtd_theme/versions.html",
        "lib/python3.10/site-packages/sphinx_rtd_theme/__pycache__/__init__.cpython-310.pyc"
    ],
    "fn": "sphinx_rtd_theme-2.0.0-pyha770c72_0.conda",
    "license": "MIT",
    "link": {
        "source": "/eos/home-s/staj/Higg\t/micromamba/pkgs/sphinx_rtd_theme-2.0.0-pyha770c72_0",
        "type": 1
    },
    "md5": "baf6d9a33df1a789ca55e3b404c7ea28",
    "name": "sphinx_rtd_theme",
    "noarch": "python",
    "package_tarball_full_path": "/eos/home-s/staj/Higg\t/micromamba/pkgs/sphinx_rtd_theme-2.0.0-pyha770c72_0.tar.bz2",
    "paths_data": {
        "paths": [
            {
                "_path": "lib/python3.10/site-packages/sphinx_rtd_theme-2.0.0.dist-info/INSTALLER",
                "path_type": "hardlink",
                "sha256": "d0edee15f91b406f3f99726e44eb990be6e34fd0345b52b910c568e0eef6a2a8",
                "sha256_in_prefix": "d0edee15f91b406f3f99726e44eb990be6e34fd0345b52b910c568e0eef6a2a8",
                "size_in_bytes": 5
            },
            {
                "_path": "lib/python3.10/site-packages/sphinx_rtd_theme-2.0.0.dist-info/LICENSE",
                "path_type": "hardlink",
                "sha256": "4864896421b8a49112eefa899a6b4366329bd6fe669f38efefb29f81487cef1e",
                "sha256_in_prefix": "4864896421b8a49112eefa899a6b4366329bd6fe669f38efefb29f81487cef1e",
                "size_in_bytes": 1119
            },
            {
                "_path": "lib/python3.10/site-packages/sphinx_rtd_theme-2.0.0.dist-info/METADATA",
                "path_type": "hardlink",
                "sha256": "3204f372eaea375c1bf5b187930c7aeb7124dda651e3c16254d7871e54312bfd",
                "sha256_in_prefix": "3204f372eaea375c1bf5b187930c7aeb7124dda651e3c16254d7871e54312bfd",
                "size_in_bytes": 4431
            },
            {
                "_path": "lib/python3.10/site-packages/sphinx_rtd_theme-2.0.0.dist-info/RECORD",
                "path_type": "hardlink",
                "sha256": "f13dc788eb817e6f891981dc92aefa7193cce69b3675f5cad73d7bc68e16d16a",
                "sha256_in_prefix": "f13dc788eb817e6f891981dc92aefa7193cce69b3675f5cad73d7bc68e16d16a",
                "size_in_bytes": 8495
            },
            {
                "_path": "lib/python3.10/site-packages/sphinx_rtd_theme-2.0.0.dist-info/REQUESTED",
                "path_type": "hardlink",
                "sha256": "e3b0c44298fc1c149afbf4c8996fb92427ae41e4649b934ca495991b7852b855",
                "sha256_in_prefix": "e3b0c44298fc1c149afbf4c8996fb92427ae41e4649b934ca495991b7852b855"
            },
            {
                "_path": "lib/python3.10/site-packages/sphinx_rtd_theme-2.0.0.dist-info/WHEEL",
                "path_type": "hardlink",
                "sha256": "f86fedd281ae13b503d03ad2a55667ab584730157d0c3d97912e6fed7a664e79",
                "sha256_in_prefix": "f86fedd281ae13b503d03ad2a55667ab584730157d0c3d97912e6fed7a664e79",
                "size_in_bytes": 110
            },
            {
                "_path": "lib/python3.10/site-packages/sphinx_rtd_theme-2.0.0.dist-info/direct_url.json",
                "path_type": "hardlink",
                "sha256": "8de0d42fab52a2eabda49240ab3143975d16fbf5800d44e7860e158d72bc172c",
                "sha256_in_prefix": "8de0d42fab52a2eabda49240ab3143975d16fbf5800d44e7860e158d72bc172c",
                "size_in_bytes": 112
            },
            {
                "_path": "lib/python3.10/site-packages/sphinx_rtd_theme-2.0.0.dist-info/entry_points.txt",
                "path_type": "hardlink",
                "sha256": "34dba17362c7d2a50cbc417395eb68395bdddccf795b7a22e035a46fa5cd0e4d",
                "sha256_in_prefix": "34dba17362c7d2a50cbc417395eb68395bdddccf795b7a22e035a46fa5cd0e4d",
                "size_in_bytes": 57
            },
            {
                "_path": "lib/python3.10/site-packages/sphinx_rtd_theme-2.0.0.dist-info/top_level.txt",
                "path_type": "hardlink",
                "sha256": "7c93d921726cfe09e6826e94ffa6b31933660eccfccdae06a6b6b880619c5ca8",
                "sha256_in_prefix": "7c93d921726cfe09e6826e94ffa6b31933660eccfccdae06a6b6b880619c5ca8",
                "size_in_bytes": 17
            },
            {
                "_path": "lib/python3.10/site-packages/sphinx_rtd_theme/__init__.py",
                "path_type": "hardlink",
                "sha256": "a1d6791bbe41a83aa029cd1111936bbf8dda6808a8087b95c0fbd930c6b9f58a",
                "sha256_in_prefix": "a1d6791bbe41a83aa029cd1111936bbf8dda6808a8087b95c0fbd930c6b9f58a",
                "size_in_bytes": 3027
            },
            {
                "_path": "lib/python3.10/site-packages/sphinx_rtd_theme/breadcrumbs.html",
                "path_type": "hardlink",
                "sha256": "d95a906967d7d699d4a912e69f9a22f6d7829b5b441717e26513455260558ce9",
                "sha256_in_prefix": "d95a906967d7d699d4a912e69f9a22f6d7829b5b441717e26513455260558ce9",
                "size_in_bytes": 4277
            },
            {
                "_path": "lib/python3.10/site-packages/sphinx_rtd_theme/footer.html",
                "path_type": "hardlink",
                "sha256": "5f9af92a6d4339c5833d3fd0b10a1930a466ca9f719df8bd4c8899b28e29ff60",
                "sha256_in_prefix": "5f9af92a6d4339c5833d3fd0b10a1930a466ca9f719df8bd4c8899b28e29ff60",
                "size_in_bytes": 2915
            },
            {
                "_path": "lib/python3.10/site-packages/sphinx_rtd_theme/layout.html",
                "path_type": "hardlink",
                "sha256": "9518c0d21700c934b304004a25b619e36d3fc0c6bc471cf1b8465ac8080d9b90",
                "sha256_in_prefix": "9518c0d21700c934b304004a25b619e36d3fc0c6bc471cf1b8465ac8080d9b90",
                "size_in_bytes": 9785
            },
            {
                "_path": "lib/python3.10/site-packages/sphinx_rtd_theme/locale/da/LC_MESSAGES/sphinx.mo",
                "path_type": "hardlink",
                "sha256": "489b1b0b6ab8de7e9543cd27ef1a8794d0d42d2fb37d6b87f9919b45bdff1334",
                "sha256_in_prefix": "489b1b0b6ab8de7e9543cd27ef1a8794d0d42d2fb37d6b87f9919b45bdff1334",
                "size_in_bytes": 2514
            },
            {
                "_path": "lib/python3.10/site-packages/sphinx_rtd_theme/locale/da/LC_MESSAGES/sphinx.po",
                "path_type": "hardlink",
                "sha256": "9729008c8e52dbec090e75235aac70df8c214dab0c35b99d1b0d821fd6911ae4",
                "sha256_in_prefix": "9729008c8e52dbec090e75235aac70df8c214dab0c35b99d1b0d821fd6911ae4",
                "size_in_bytes": 5820
            },
            {
                "_path": "lib/python3.10/site-packages/sphinx_rtd_theme/locale/de/LC_MESSAGES/sphinx.mo",
                "path_type": "hardlink",
                "sha256": "ec5b898d07e7d79b6f2d54c1a0cb9ed294a8ebd8ee0e80140f562ab2396aa43a",
                "sha256_in_prefix": "ec5b898d07e7d79b6f2d54c1a0cb9ed294a8ebd8ee0e80140f562ab2396aa43a",
                "size_in_bytes": 2087
            },
            {
                "_path": "lib/python3.10/site-packages/sphinx_rtd_theme/locale/de/LC_MESSAGES/sphinx.po",
                "path_type": "hardlink",
                "sha256": "280b8d8e1b913c35463b3b1dc37a7b6abae6f5046ba1ebe4f79e705369e4bf51",
                "sha256_in_prefix": "280b8d8e1b913c35463b3b1dc37a7b6abae6f5046ba1ebe4f79e705369e4bf51",
                "size_in_bytes": 4023
            },
            {
                "_path": "lib/python3.10/site-packages/sphinx_rtd_theme/locale/en/LC_MESSAGES/sphinx.mo",
                "path_type": "hardlink",
                "sha256": "29cdd7a8602060011bea6c54e725f9161f4ff090ef3187011068fff79d23d237",
                "sha256_in_prefix": "29cdd7a8602060011bea6c54e725f9161f4ff090ef3187011068fff79d23d237",
                "size_in_bytes": 457
            },
            {
                "_path": "lib/python3.10/site-packages/sphinx_rtd_theme/locale/en/LC_MESSAGES/sphinx.po",
                "path_type": "hardlink",
                "sha256": "a1a50fb27057be6b603c736905b4c2f8f029d3af80eb7816c094c3a05fade288",
                "sha256_in_prefix": "a1a50fb27057be6b603c736905b4c2f8f029d3af80eb7816c094c3a05fade288",
                "size_in_bytes": 4912
            },
            {
                "_path": "lib/python3.10/site-packages/sphinx_rtd_theme/locale/es/LC_MESSAGES/sphinx.mo",
                "path_type": "hardlink",
                "sha256": "3b27c928f8d90b58113db4ec2ef92d7e372f9c7a7c7791e216f7817d6edfa6c4",
                "sha256_in_prefix": "3b27c928f8d90b58113db4ec2ef92d7e372f9c7a7c7791e216f7817d6edfa6c4",
                "size_in_bytes": 2567
            },
            {
                "_path": "lib/python3.10/site-packages/sphinx_rtd_theme/locale/es/LC_MESSAGES/sphinx.po",
                "path_type": "hardlink",
                "sha256": "6a6bff854fee44e895ac3823bf09ac486126fb8f87fd7df145d1b8dedae10afc",
                "sha256_in_prefix": "6a6bff854fee44e895ac3823bf09ac486126fb8f87fd7df145d1b8dedae10afc",
                "size_in_bytes": 5094
            },
            {
                "_path": "lib/python3.10/site-packages/sphinx_rtd_theme/locale/et/LC_MESSAGES/sphinx.mo",
                "path_type": "hardlink",
                "sha256": "ea692744b2c509203ffe7c303502c67d84f1e342799b476ef28dce39a9fba233",
                "sha256_in_prefix": "ea692744b2c509203ffe7c303502c67d84f1e342799b476ef28dce39a9fba233",
                "size_in_bytes": 2380
            },
            {
                "_path": "lib/python3.10/site-packages/sphinx_rtd_theme/locale/et/LC_MESSAGES/sphinx.po",
                "path_type": "hardlink",
                "sha256": "75f64502539fcfca15bf9d49992df9e80e7c48792fe052027c330084f7382aea",
                "sha256_in_prefix": "75f64502539fcfca15bf9d49992df9e80e7c48792fe052027c330084f7382aea",
                "size_in_bytes": 4828
            },
            {
                "_path": "lib/python3.10/site-packages/sphinx_rtd_theme/locale/fa_IR/LC_MESSAGES/sphinx.mo",
                "path_type": "hardlink",
                "sha256": "33d728ff48ecd27fc041e5df1b70242cb7ee38ea028587564f97eb441857d99d",
                "sha256_in_prefix": "33d728ff48ecd27fc041e5df1b70242cb7ee38ea028587564f97eb441857d99d",
                "size_in_bytes": 2693
            },
            {
                "_path": "lib/python3.10/site-packages/sphinx_rtd_theme/locale/fa_IR/LC_MESSAGES/sphinx.po",
                "path_type": "hardlink",
                "sha256": "6add33d3c61decb654b7a3b816256577ded9977acb2bcd4d498bbadd8e8686ae",
                "sha256_in_prefix": "6add33d3c61decb654b7a3b816256577ded9977acb2bcd4d498bbadd8e8686ae",
                "size_in_bytes": 5018
            },
            {
                "_path": "lib/python3.10/site-packages/sphinx_rtd_theme/locale/fr/LC_MESSAGES/sphinx.mo",
                "path_type": "hardlink",
                "sha256": "d7f291bc1d2a1bf1f1c57d57f2b7129482ee103ab8eda941ad7685f42c1f665a",
                "sha256_in_prefix": "d7f291bc1d2a1bf1f1c57d57f2b7129482ee103ab8eda941ad7685f42c1f665a",
                "size_in_bytes": 2522
            },
            {
                "_path": "lib/python3.10/site-packages/sphinx_rtd_theme/locale/fr/LC_MESSAGES/sphinx.po",
                "path_type": "hardlink",
                "sha256": "00cacdd907033ce6d2e35af3d633115580165c6f9a4b08c91ec9ba06250ecbe5",
                "sha256_in_prefix": "00cacdd907033ce6d2e35af3d633115580165c6f9a4b08c91ec9ba06250ecbe5",
                "size_in_bytes": 5050
            },
            {
                "_path": "lib/python3.10/site-packages/sphinx_rtd_theme/locale/hr/LC_MESSAGES/sphinx.mo",
                "path_type": "hardlink",
                "sha256": "d1ae765d79eb284ed285683f4e831bcf56ef4822b393a264ddc3da7afda0c63e",
                "sha256_in_prefix": "d1ae765d79eb284ed285683f4e831bcf56ef4822b393a264ddc3da7afda0c63e",
                "size_in_bytes": 575
            },
            {
                "_path": "lib/python3.10/site-packages/sphinx_rtd_theme/locale/hr/LC_MESSAGES/sphinx.po",
                "path_type": "hardlink",
                "sha256": "a2904d0368fd0f832093ccdbaad11f709791243677efb4e0098e58301296a430",
                "sha256_in_prefix": "a2904d0368fd0f832093ccdbaad11f709791243677efb4e0098e58301296a430",
                "size_in_bytes": 842
            },
            {
                "_path": "lib/python3.10/site-packages/sphinx_rtd_theme/locale/hu/LC_MESSAGES/sphinx.mo",
                "path_type": "hardlink",
                "sha256": "81216f2fa94fc68a6a350173cf2b80259d427c3d4bbe5e4ae8630d8de9e5de98",
                "sha256_in_prefix": "81216f2fa94fc68a6a350173cf2b80259d427c3d4bbe5e4ae8630d8de9e5de98",
                "size_in_bytes": 501
            },
            {
                "_path": "lib/python3.10/site-packages/sphinx_rtd_theme/locale/hu/LC_MESSAGES/sphinx.po",
                "path_type": "hardlink",
                "sha256": "fc5b83c04c971623d48025c189f781a8983c921a0d86d3052fa0c80091883d1c",
                "sha256_in_prefix": "fc5b83c04c971623d48025c189f781a8983c921a0d86d3052fa0c80091883d1c",
                "size_in_bytes": 765
            },
            {
                "_path": "lib/python3.10/site-packages/sphinx_rtd_theme/locale/it/LC_MESSAGES/sphinx.mo",
                "path_type": "hardlink",
                "sha256": "f703186f3f26cd5e4c7c2f6c8906e68e1cce155daa8e831fe4a06c6b9d6dc46f",
                "sha256_in_prefix": "f703186f3f26cd5e4c7c2f6c8906e68e1cce155daa8e831fe4a06c6b9d6dc46f",
                "size_in_bytes": 2703
            },
            {
                "_path": "lib/python3.10/site-packages/sphinx_rtd_theme/locale/it/LC_MESSAGES/sphinx.po",
                "path_type": "hardlink",
                "sha256": "1a022d16ef38385a699045feb9c54daaf1186ec6549691c1b470c9ed90c3580b",
                "sha256_in_prefix": "1a022d16ef38385a699045feb9c54daaf1186ec6549691c1b470c9ed90c3580b",
                "size_in_bytes": 5824
            },
            {
                "_path": "lib/python3.10/site-packages/sphinx_rtd_theme/locale/lt/LC_MESSAGES/sphinx.mo",
                "path_type": "hardlink",
                "sha256": "94fd612a89fcb768089edf8c8bcf04a7d374638e7256a28da23e68c6b8c7d324",
                "sha256_in_prefix": "94fd612a89fcb768089edf8c8bcf04a7d374638e7256a28da23e68c6b8c7d324",
                "size_in_bytes": 2750
            },
            {
                "_path": "lib/python3.10/site-packages/sphinx_rtd_theme/locale/lt/LC_MESSAGES/sphinx.po",
                "path_type": "hardlink",
                "sha256": "dd459121f0a9cb8205cf4a00b4c22f79b2c6520f713e12c666c02d7467f842c8",
                "sha256_in_prefix": "dd459121f0a9cb8205cf4a00b4c22f79b2c6520f713e12c666c02d7467f842c8",
                "size_in_bytes": 5711
            },
            {
                "_path": "lib/python3.10/site-packages/sphinx_rtd_theme/locale/nl/LC_MESSAGES/sphinx.mo",
                "path_type": "hardlink",
                "sha256": "a7cb70120a59ab462171ce972db28a431543e2e9901a396b54f9806644fc9199",
                "sha256_in_prefix": "a7cb70120a59ab462171ce972db28a431543e2e9901a396b54f9806644fc9199",
                "size_in_bytes": 2549
            },
            {
                "_path": "lib/python3.10/site-packages/sphinx_rtd_theme/locale/nl/LC_MESSAGES/sphinx.po",
                "path_type": "hardlink",
                "sha256": "fa4dd627505f5490b1362d00ca899904c61dac2e319e8bd67847ac3f1817d8c3",
                "sha256_in_prefix": "fa4dd627505f5490b1362d00ca899904c61dac2e319e8bd67847ac3f1817d8c3",
                "size_in_bytes": 5505
            },
            {
                "_path": "lib/python3.10/site-packages/sphinx_rtd_theme/locale/pl/LC_MESSAGES/sphinx.mo",
                "path_type": "hardlink",
                "sha256": "c75c211df144b07d07c9d9b850d9c889f7986458713499e03a522621311b8183",
                "sha256_in_prefix": "c75c211df144b07d07c9d9b850d9c889f7986458713499e03a522621311b8183",
                "size_in_bytes": 2339
            },
            {
                "_path": "lib/python3.10/site-packages/sphinx_rtd_theme/locale/pl/LC_MESSAGES/sphinx.po",
                "path_type": "hardlink",
                "sha256": "b988ae965a10fc274a8dc209970fdcf750a90f636b33ae71eb2a1ed10f8279ad",
                "sha256_in_prefix": "b988ae965a10fc274a8dc209970fdcf750a90f636b33ae71eb2a1ed10f8279ad",
                "size_in_bytes": 4257
            },
            {
                "_path": "lib/python3.10/site-packages/sphinx_rtd_theme/locale/pt/LC_MESSAGES/sphinx.mo",
                "path_type": "hardlink",
                "sha256": "4ec2d2006c4701e4bbc52ebe66c71bfe7a6382a68e4fa0150a0891e489a99287",
                "sha256_in_prefix": "4ec2d2006c4701e4bbc52ebe66c71bfe7a6382a68e4fa0150a0891e489a99287",
                "size_in_bytes": 2354
            },
            {
                "_path": "lib/python3.10/site-packages/sphinx_rtd_theme/locale/pt/LC_MESSAGES/sphinx.po",
                "path_type": "hardlink",
                "sha256": "878705a4e5e69f68c3c011e24539070c47bdb0f4beed7c28a1b155ce493c7f39",
                "sha256_in_prefix": "878705a4e5e69f68c3c011e24539070c47bdb0f4beed7c28a1b155ce493c7f39",
                "size_in_bytes": 5038
            },
            {
                "_path": "lib/python3.10/site-packages/sphinx_rtd_theme/locale/pt_BR/LC_MESSAGES/sphinx.mo",
                "path_type": "hardlink",
                "sha256": "91deb2b49105966b4d32d6e09d58d6f8f2b4177e16d1e764a32248fa86349d32",
                "sha256_in_prefix": "91deb2b49105966b4d32d6e09d58d6f8f2b4177e16d1e764a32248fa86349d32",
                "size_in_bytes": 2780
            },
            {
                "_path": "lib/python3.10/site-packages/sphinx_rtd_theme/locale/pt_BR/LC_MESSAGES/sphinx.po",
                "path_type": "hardlink",
                "sha256": "c0dd5dc52da2c0e3397d831b545877bca5e2f50fbb03da52f890d13682622d63",
                "sha256_in_prefix": "c0dd5dc52da2c0e3397d831b545877bca5e2f50fbb03da52f890d13682622d63",
                "size_in_bytes": 5830
            },
            {
                "_path": "lib/python3.10/site-packages/sphinx_rtd_theme/locale/ru/LC_MESSAGES/sphinx.mo",
                "path_type": "hardlink",
                "sha256": "52ff2f67c3005d9c7e23dd35c2cdec0903d5cb9550097d3fa3a26919cca8dffc",
                "sha256_in_prefix": "52ff2f67c3005d9c7e23dd35c2cdec0903d5cb9550097d3fa3a26919cca8dffc",
                "size_in_bytes": 3449
            },
            {
                "_path": "lib/python3.10/site-packages/sphinx_rtd_theme/locale/ru/LC_MESSAGES/sphinx.po",
                "path_type": "hardlink",
                "sha256": "82d784a199654d8bfcb10ae5f80ffe921e25a0b15f32ec97d0ea4609e4188795",
                "sha256_in_prefix": "82d784a199654d8bfcb10ae5f80ffe921e25a0b15f32ec97d0ea4609e4188795",
                "size_in_bytes": 6468
            },
            {
                "_path": "lib/python3.10/site-packages/sphinx_rtd_theme/locale/sphinx.pot",
                "path_type": "hardlink",
                "sha256": "815b84ecd7a25a4ebee3423284c2e18c306aead0079337691b92728c2ca7f357",
                "sha256_in_prefix": "815b84ecd7a25a4ebee3423284c2e18c306aead0079337691b92728c2ca7f357",
                "size_in_bytes": 4633
            },
            {
                "_path": "lib/python3.10/site-packages/sphinx_rtd_theme/locale/sv/LC_MESSAGES/sphinx.mo",
                "path_type": "hardlink",
                "sha256": "06de2d03915cc64f6659598a62f94902f58f7dae84a69000f22cb394989c48fa",
                "sha256_in_prefix": "06de2d03915cc64f6659598a62f94902f58f7dae84a69000f22cb394989c48fa",
                "size_in_bytes": 2132
            },
            {
                "_path": "lib/python3.10/site-packages/sphinx_rtd_theme/locale/sv/LC_MESSAGES/sphinx.po",
                "path_type": "hardlink",
                "sha256": "ae7a0473eb6d1bb6cba0511fbf3bafaacc7b96f9bfd70cb2a5d87df732ccc922",
                "sha256_in_prefix": "ae7a0473eb6d1bb6cba0511fbf3bafaacc7b96f9bfd70cb2a5d87df732ccc922",
                "size_in_bytes": 4353
            },
            {
                "_path": "lib/python3.10/site-packages/sphinx_rtd_theme/locale/tr/LC_MESSAGES/sphinx.mo",
                "path_type": "hardlink",
                "sha256": "5196bcf6afbce6e02428dcf3647b04019b6143e67f2fd92023fc530188254872",
                "sha256_in_prefix": "5196bcf6afbce6e02428dcf3647b04019b6143e67f2fd92023fc530188254872",
                "size_in_bytes": 2117
            },
            {
                "_path": "lib/python3.10/site-packages/sphinx_rtd_theme/locale/tr/LC_MESSAGES/sphinx.po",
                "path_type": "hardlink",
                "sha256": "fd305b3d01e3a1c9ca62b94bbb74fbaa75a60b748b4032ff145cc8dfcf60b5ff",
                "sha256_in_prefix": "fd305b3d01e3a1c9ca62b94bbb74fbaa75a60b748b4032ff145cc8dfcf60b5ff",
                "size_in_bytes": 4142
            },
            {
                "_path": "lib/python3.10/site-packages/sphinx_rtd_theme/locale/zh_CN/LC_MESSAGES/sphinx.mo",
                "path_type": "hardlink",
                "sha256": "88e99e74ca99d3a37ab5ff76de91d1570b96a87ae4cfcc7c59e4b5559f1438fd",
                "sha256_in_prefix": "88e99e74ca99d3a37ab5ff76de91d1570b96a87ae4cfcc7c59e4b5559f1438fd",
                "size_in_bytes": 2511
            },
            {
                "_path": "lib/python3.10/site-packages/sphinx_rtd_theme/locale/zh_CN/LC_MESSAGES/sphinx.po",
                "path_type": "hardlink",
                "sha256": "c619c1e2fd4612cefe16c476925c4cd930c84d8a8142f6d15633ec11f950b3a6",
                "sha256_in_prefix": "c619c1e2fd4612cefe16c476925c4cd930c84d8a8142f6d15633ec11f950b3a6",
                "size_in_bytes": 5523
            },
            {
                "_path": "lib/python3.10/site-packages/sphinx_rtd_theme/locale/zh_TW/LC_MESSAGES/sphinx.mo",
                "path_type": "hardlink",
                "sha256": "b10344e6c49c5dbbd929bbbe3cba95eacbcf6c9c070472e12088b7fdbe45ee74",
                "sha256_in_prefix": "b10344e6c49c5dbbd929bbbe3cba95eacbcf6c9c070472e12088b7fdbe45ee74",
                "size_in_bytes": 506
            },
            {
                "_path": "lib/python3.10/site-packages/sphinx_rtd_theme/locale/zh_TW/LC_MESSAGES/sphinx.po",
                "path_type": "hardlink",
                "sha256": "3a6c4ba0a1092c028f15e225913320ebe245737a9e8a5a8f4d2d999794d1d290",
                "sha256_in_prefix": "3a6c4ba0a1092c028f15e225913320ebe245737a9e8a5a8f4d2d999794d1d290",
                "size_in_bytes": 769
            },
            {
                "_path": "lib/python3.10/site-packages/sphinx_rtd_theme/search.html",
                "path_type": "hardlink",
                "sha256": "e66060ecbb8a70cdf1e7759bd46c86bcdf6bce720dd31633a9a144657c5697c2",
                "sha256_in_prefix": "e66060ecbb8a70cdf1e7759bd46c86bcdf6bce720dd31633a9a144657c5697c2",
                "size_in_bytes": 1759
            },
            {
                "_path": "lib/python3.10/site-packages/sphinx_rtd_theme/searchbox.html",
                "path_type": "hardlink",
                "sha256": "daa639943de9839430882a6f688ba5c01f858f56c83c02f9178302a618bd4e89",
                "sha256_in_prefix": "daa639943de9839430882a6f688ba5c01f858f56c83c02f9178302a618bd4e89",
                "size_in_bytes": 405
            },
            {
                "_path": "lib/python3.10/site-packages/sphinx_rtd_theme/static/css/badge_only.css",
                "path_type": "hardlink",
                "sha256": "3ebb8a7c4ab074330ec0c24a9bcb32b6ced1c5eb45be7ef34b79193864337865",
                "sha256_in_prefix": "3ebb8a7c4ab074330ec0c24a9bcb32b6ced1c5eb45be7ef34b79193864337865",
                "size_in_bytes": 3229
            },
            {
                "_path": "lib/python3.10/site-packages/sphinx_rtd_theme/static/css/fonts/Roboto-Slab-Bold.woff",
                "path_type": "hardlink",
                "sha256": "9fec87cadbe2413b255f1ec577573a83f1ca2e1c37aa023dbebcd3a7b864636a",
                "sha256_in_prefix": "9fec87cadbe2413b255f1ec577573a83f1ca2e1c37aa023dbebcd3a7b864636a",
                "size_in_bytes": 87624
            },
            {
                "_path": "lib/python3.10/site-packages/sphinx_rtd_theme/static/css/fonts/Roboto-Slab-Bold.woff2",
                "path_type": "hardlink",
                "sha256": "1a0c024dd1a267c52d5575469ffe8570d1e84164de7d393cf3414bafd17d7a0c",
                "sha256_in_prefix": "1a0c024dd1a267c52d5575469ffe8570d1e84164de7d393cf3414bafd17d7a0c",
                "size_in_bytes": 67312
            },
            {
                "_path": "lib/python3.10/site-packages/sphinx_rtd_theme/static/css/fonts/Roboto-Slab-Regular.woff",
                "path_type": "hardlink",
                "sha256": "9f32630e2c0c5135bf1e86e36cb65b3932e4410644235bc2bd995e9c7f6ff117",
                "sha256_in_prefix": "9f32630e2c0c5135bf1e86e36cb65b3932e4410644235bc2bd995e9c7f6ff117",
                "size_in_bytes": 86288
            },
            {
                "_path": "lib/python3.10/site-packages/sphinx_rtd_theme/static/css/fonts/Roboto-Slab-Regular.woff2",
                "path_type": "hardlink",
                "sha256": "874e42222856d7af03b3f438d21d923a4280d47fe67c48510e2174a1579795ef",
                "sha256_in_prefix": "874e42222856d7af03b3f438d21d923a4280d47fe67c48510e2174a1579795ef",
                "size_in_bytes": 66444
            },
            {
                "_path": "lib/python3.10/site-packages/sphinx_rtd_theme/static/css/fonts/fontawesome-webfont.eot",
                "path_type": "hardlink",
                "sha256": "7bfcab6db99d5cfbf1705ca0536ddc78585432cc5fa41bbd7ad0f009033b2979",
                "sha256_in_prefix": "7bfcab6db99d5cfbf1705ca0536ddc78585432cc5fa41bbd7ad0f009033b2979",
                "size_in_bytes": 165742
            },
            {
                "_path": "lib/python3.10/site-packages/sphinx_rtd_theme/static/css/fonts/fontawesome-webfont.svg",
                "path_type": "hardlink",
                "sha256": "ad6157926c1622ba4e1d03d478f1541368524bfc46f51e42fe0d945f7ef323e4",
                "sha256_in_prefix": "ad6157926c1622ba4e1d03d478f1541368524bfc46f51e42fe0d945f7ef323e4",
                "size_in_bytes": 444379
            },
            {
                "_path": "lib/python3.10/site-packages/sphinx_rtd_theme/static/css/fonts/fontawesome-webfont.ttf",
                "path_type": "hardlink",
                "sha256": "aa58f33f239a0fb02f5c7a6c45c043d7a9ac9a093335806694ecd6d4edc0d6a8",
                "sha256_in_prefix": "aa58f33f239a0fb02f5c7a6c45c043d7a9ac9a093335806694ecd6d4edc0d6a8",
                "size_in_bytes": 165548
            },
            {
                "_path": "lib/python3.10/site-packages/sphinx_rtd_theme/static/css/fonts/fontawesome-webfont.woff",
                "path_type": "hardlink",
                "sha256": "ba0c59deb5450f5cb41b3f93609ee2d0d995415877ddfa223e8a8a7533474f07",
                "sha256_in_prefix": "ba0c59deb5450f5cb41b3f93609ee2d0d995415877ddfa223e8a8a7533474f07",
                "size_in_bytes": 98024
            },
            {
                "_path": "lib/python3.10/site-packages/sphinx_rtd_theme/static/css/fonts/fontawesome-webfont.woff2",
                "path_type": "hardlink",
                "sha256": "2adefcbc041e7d18fcf2d417879dc5a09997aa64d675b7a3c4b6ce33da13f3fe",
                "sha256_in_prefix": "2adefcbc041e7d18fcf2d417879dc5a09997aa64d675b7a3c4b6ce33da13f3fe",
                "size_in_bytes": 77160
            },
            {
                "_path": "lib/python3.10/site-packages/sphinx_rtd_theme/static/css/fonts/lato-bold-italic.woff",
                "path_type": "hardlink",
                "sha256": "980c8592e5488df256192c999e92db8fd302db8cd8909b7fa266a684e37e45f8",
                "sha256_in_prefix": "980c8592e5488df256192c999e92db8fd302db8cd8909b7fa266a684e37e45f8",
                "size_in_bytes": 323344
            },
            {
                "_path": "lib/python3.10/site-packages/sphinx_rtd_theme/static/css/fonts/lato-bold-italic.woff2",
                "path_type": "hardlink",
                "sha256": "c0916a33340d063f7b05679e08031e729d1888444706f04804705da5966d895d",
                "sha256_in_prefix": "c0916a33340d063f7b05679e08031e729d1888444706f04804705da5966d895d",
                "size_in_bytes": 193308
            },
            {
                "_path": "lib/python3.10/site-packages/sphinx_rtd_theme/static/css/fonts/lato-bold.woff",
                "path_type": "hardlink",
                "sha256": "0e56b17d142eb366c8007031d14e34da48c70b4a9d9a0ca492e696a7bae45e1e",
                "sha256_in_prefix": "0e56b17d142eb366c8007031d14e34da48c70b4a9d9a0ca492e696a7bae45e1e",
                "size_in_bytes": 309728
            },
            {
                "_path": "lib/python3.10/site-packages/sphinx_rtd_theme/static/css/fonts/lato-bold.woff2",
                "path_type": "hardlink",
                "sha256": "ae88fc0d7a961832f809527d30bd3983a6866d42f66a56ade23f543681594db6",
                "sha256_in_prefix": "ae88fc0d7a961832f809527d30bd3983a6866d42f66a56ade23f543681594db6",
                "size_in_bytes": 184912
            },
            {
                "_path": "lib/python3.10/site-packages/sphinx_rtd_theme/static/css/fonts/lato-normal-italic.woff",
                "path_type": "hardlink",
                "sha256": "26318a1467a5e5caf10b04cfa942d079632560cd7a29cec565fd1dc9f7ec5081",
                "sha256_in_prefix": "26318a1467a5e5caf10b04cfa942d079632560cd7a29cec565fd1dc9f7ec5081",
                "size_in_bytes": 328412
            },
            {
                "_path": "lib/python3.10/site-packages/sphinx_rtd_theme/static/css/fonts/lato-normal-italic.woff2",
                "path_type": "hardlink",
                "sha256": "4465765f2f6eddcdad34ffd7cab559e56bc0e75e45e192f85e9562b0771481dc",
                "sha256_in_prefix": "4465765f2f6eddcdad34ffd7cab559e56bc0e75e45e192f85e9562b0771481dc",
                "size_in_bytes": 195704
            },
            {
                "_path": "lib/python3.10/site-packages/sphinx_rtd_theme/static/css/fonts/lato-normal.woff",
                "path_type": "hardlink",
                "sha256": "5b9025dda4d7688e3311b0c17eddc501133b807def33effaef6593843cf5416e",
                "sha256_in_prefix": "5b9025dda4d7688e3311b0c17eddc501133b807def33effaef6593843cf5416e",
                "size_in_bytes": 309192
            },
            {
                "_path": "lib/python3.10/site-packages/sphinx_rtd_theme/static/css/fonts/lato-normal.woff2",
                "path_type": "hardlink",
                "sha256": "983b0caf336e8542214fc17019a4fc5e0360864b92806ca14d55c1fc1c2c5a0f",
                "sha256_in_prefix": "983b0caf336e8542214fc17019a4fc5e0360864b92806ca14d55c1fc1c2c5a0f",
                "size_in_bytes": 182708
            },
            {
                "_path": "lib/python3.10/site-packages/sphinx_rtd_theme/static/css/theme.css",
                "path_type": "hardlink",
                "sha256": "d391ae006ffd56754c7d67080a80032f7fe8e81e7f2e297ad93bcf7cef6afa9e",
                "sha256_in_prefix": "d391ae006ffd56754c7d67080a80032f7fe8e81e7f2e297ad93bcf7cef6afa9e",
                "size_in_bytes": 135314
            },
            {
                "_path": "lib/python3.10/site-packages/sphinx_rtd_theme/static/js/badge_only.js",
                "path_type": "hardlink",
                "sha256": "f0a4808d04c4d55378751ac096a8376b64b1a704c82584b0ee590212cf413013",
                "sha256_in_prefix": "f0a4808d04c4d55378751ac096a8376b64b1a704c82584b0ee590212cf413013",
                "size_in_bytes": 934
            },
            {
                "_path": "lib/python3.10/site-packages/sphinx_rtd_theme/static/js/html5shiv-printshiv.min.js",
                "path_type": "hardlink",
                "sha256": "b42a7e949a6e21d66b30fbbb4a22deafd9e0ccabc04f0fa2907fc6252fdf165f",
                "sha256_in_prefix": "b42a7e949a6e21d66b30fbbb4a22deafd9e0ccabc04f0fa2907fc6252fdf165f",
                "size_in_bytes": 4370
            },
            {
                "_path": "lib/python3.10/site-packages/sphinx_rtd_theme/static/js/html5shiv.min.js",
                "path_type": "hardlink",
                "sha256": "f6e0283561ddb33b140e14977ffad57163aa28f7e2e7ff15e51e1475b6657b60",
                "sha256_in_prefix": "f6e0283561ddb33b140e14977ffad57163aa28f7e2e7ff15e51e1475b6657b60",
                "size_in_bytes": 2734
            },
            {
                "_path": "lib/python3.10/site-packages/sphinx_rtd_theme/static/js/theme.js",
                "path_type": "hardlink",
                "sha256": "536ad2d746e944c5570cc15badaeccc3c0582a1b66e45511fe4edce32b6da510",
                "sha256_in_prefix": "536ad2d746e944c5570cc15badaeccc3c0582a1b66e45511fe4edce32b6da510",
                "size_in_bytes": 5023
            },
            {
                "_path": "lib/python3.10/site-packages/sphinx_rtd_theme/theme.conf",
                "path_type": "hardlink",
                "sha256": "e929817b6f90493f1a8953c3c75d04f9f565dabd8cfdc00a896a1900e11475c9",
                "sha256_in_prefix": "e929817b6f90493f1a8953c3c75d04f9f565dabd8cfdc00a896a1900e11475c9",
                "size_in_bytes": 407
            },
            {
                "_path": "lib/python3.10/site-packages/sphinx_rtd_theme/versions.html",
                "path_type": "hardlink",
                "sha256": "6e5712b9f721ea1ce8447eb30faeb7503ed1061149974592229fffa684eade1a",
                "sha256_in_prefix": "6e5712b9f721ea1ce8447eb30faeb7503ed1061149974592229fffa684eade1a",
                "size_in_bytes": 1247
            },
            {
                "_path": "lib/python3.10/site-packages/sphinx_rtd_theme/__pycache__/__init__.cpython-310.pyc",
                "path_type": "pyc_file"
            }
        ],
        "paths_version": 1
    },
    "platform": null,
    "requested_spec": "sphinx_rtd_theme",
    "sha256": "8545c806d03092fd0236db6663c88036eab2dc99e34c91cd36c0704db03b148a",
    "size": 2614217,
    "subdir": "noarch",
    "timestamp": 1701183633165,
    "track_features": "",
    "url": "https://conda.anaconda.org/conda-forge/noarch/sphinx_rtd_theme-2.0.0-pyha770c72_0.conda",
    "version": "2.0.0"
}