{
    "arch": "x86_64",
    "build": "py310h2372a71_0",
    "build_number": 0,
    "build_string": "py310h2372a71_0",
    "channel": "https://conda.anaconda.org/conda-forge/linux-64",
    "constrains": [],
    "depends": [
        "libgcc-ng >=12",
        "python >=3.10,<3.11.0a0",
        "python_abi 3.10.* *_cp310"
    ],
    "extracted_package_dir": "/eos/home-s/staj/Higg\t/micromamba/pkgs/unicodedata2-15.1.0-py310h2372a71_0",
    "files": [
        "lib/python3.10/site-packages/unicodedata2-15.1.0.dist-info/INSTALLER",
        "lib/python3.10/site-packages/unicodedata2-15.1.0.dist-info/LICENSE",
        "lib/python3.10/site-packages/unicodedata2-15.1.0.dist-info/METADATA",
        "lib/python3.10/site-packages/unicodedata2-15.1.0.dist-info/RECORD",
        "lib/python3.10/site-packages/unicodedata2-15.1.0.dist-info/REQUESTED",
        "lib/python3.10/site-packages/unicodedata2-15.1.0.dist-info/WHEEL",
        "lib/python3.10/site-packages/unicodedata2-15.1.0.dist-info/direct_url.json",
        "lib/python3.10/site-packages/unicodedata2-15.1.0.dist-info/top_level.txt",
        "lib/python3.10/site-packages/unicodedata2.cpython-310-x86_64-linux-gnu.so"
    ],
    "fn": "unicodedata2-15.1.0-py310h2372a71_0.conda",
    "license": "Apache-2.0",
    "license_family": "Apache",
    "link": {
        "source": "/eos/home-s/staj/Higg\t/micromamba/pkgs/unicodedata2-15.1.0-py310h2372a71_0",
        "type": 1
    },
    "md5": "72637c58d36d9475fda24700c9796f19",
    "name": "unicodedata2",
    "package_tarball_full_path": "/eos/home-s/staj/Higg\t/micromamba/pkgs/unicodedata2-15.1.0-py310h2372a71_0.tar.bz2",
    "paths_data": {
        "paths": [
            {
                "_path": "lib/python3.10/site-packages/unicodedata2-15.1.0.dist-info/INSTALLER",
                "path_type": "hardlink",
                "sha256": "d0edee15f91b406f3f99726e44eb990be6e34fd0345b52b910c568e0eef6a2a8",
                "sha256_in_prefix": "d0edee15f91b406f3f99726e44eb990be6e34fd0345b52b910c568e0eef6a2a8",
                "size_in_bytes": 5
            },
            {
                "_path": "lib/python3.10/site-packages/unicodedata2-15.1.0.dist-info/LICENSE",
                "path_type": "hardlink",
                "sha256": "cb5e8e7e5f4a3988e1063c142c60dc2df75605f4c46515e776e3aca6df976e14",
                "sha256_in_prefix": "cb5e8e7e5f4a3988e1063c142c60dc2df75605f4c46515e776e3aca6df976e14",
                "size_in_bytes": 11325
            },
            {
                "_path": "lib/python3.10/site-packages/unicodedata2-15.1.0.dist-info/METADATA",
                "path_type": "hardlink",
                "sha256": "2e60510939628972c0a4fc5f79e5080e47b4c411d5a1eb9f3fe51627a5157ed3",
                "sha256_in_prefix": "2e60510939628972c0a4fc5f79e5080e47b4c411d5a1eb9f3fe51627a5157ed3",
                "size_in_bytes": 3032
            },
            {
                "_path": "lib/python3.10/site-packages/unicodedata2-15.1.0.dist-info/RECORD",
                "path_type": "hardlink",
                "sha256": "b691145e871f2c058d1f9240ab2d194949fba83b768bc722a55f6cd683e1fe22",
                "sha256_in_prefix": "b691145e871f2c058d1f9240ab2d194949fba83b768bc722a55f6cd683e1fe22",
                "size_in_bytes": 818
            },
            {
                "_path": "lib/python3.10/site-packages/unicodedata2-15.1.0.dist-info/REQUESTED",
                "path_type": "hardlink",
                "sha256": "e3b0c44298fc1c149afbf4c8996fb92427ae41e4649b934ca495991b7852b855",
                "sha256_in_prefix": "e3b0c44298fc1c149afbf4c8996fb92427ae41e4649b934ca495991b7852b855"
            },
            {
                "_path": "lib/python3.10/site-packages/unicodedata2-15.1.0.dist-info/WHEEL",
                "path_type": "hardlink",
                "sha256": "f65d6777338dc7865a58f9308a37fb09f8f87bce8e2ad6a33f1f9bbbd274f1fe",
                "sha256_in_prefix": "f65d6777338dc7865a58f9308a37fb09f8f87bce8e2ad6a33f1f9bbbd274f1fe",
                "size_in_bytes": 105
            },
            {
                "_path": "lib/python3.10/site-packages/unicodedata2-15.1.0.dist-info/direct_url.json",
                "path_type": "hardlink",
                "sha256": "ca3127af435038c1c49073ab0a6066d90a2873dd6520b812e5773f38fc9432a1",
                "sha256_in_prefix": "ca3127af435038c1c49073ab0a6066d90a2873dd6520b812e5773f38fc9432a1",
                "size_in_bytes": 108
            },
            {
                "_path": "lib/python3.10/site-packages/unicodedata2-15.1.0.dist-info/top_level.txt",
                "path_type": "hardlink",
                "sha256": "2efe3a3c550aa72f5a669a41449f07023f185c6a2da7d9c8bff8b9c93cb523d7",
                "sha256_in_prefix": "2efe3a3c550aa72f5a669a41449f07023f185c6a2da7d9c8bff8b9c93cb523d7",
                "size_in_bytes": 13
            },
            {
                "_path": "lib/python3.10/site-packages/unicodedata2.cpython-310-x86_64-linux-gnu.so",
                "path_type": "hardlink",
                "sha256": "0051d62ca95c4eb72a0fcf6c1a66eefe5d4c1d9625bb2c54ce776cc910eb7912",
                "sha256_in_prefix": "0051d62ca95c4eb72a0fcf6c1a66eefe5d4c1d9625bb2c54ce776cc910eb7912",
                "size_in_bytes": 1306336
            }
        ],
        "paths_version": 1
    },
    "platform": "linux",
    "requested_spec": "",
    "sha256": "5ab2f2d4542ba0cc27d222c08ae61706babe7173b0c6dfa748aa37ff2fa9d824",
    "size": 374055,
    "subdir": "linux-64",
    "timestamp": 1695848183607,
    "track_features": "",
    "url": "https://conda.anaconda.org/conda-forge/linux-64/unicodedata2-15.1.0-py310h2372a71_0.conda",
    "version": "15.1.0"
}