{
    "arch": null,
    "build": "pyhd8ed1ab_0",
    "build_number": 0,
    "build_string": "pyhd8ed1ab_0",
    "channel": "https://conda.anaconda.org/conda-forge/noarch",
    "constrains": [],
    "depends": [
        "awkward0",
        "numpy >=1.13.1",
        "python =2.7|>=3.5"
    ],
    "extracted_package_dir": "/eos/home-s/staj/Higg\t/micromamba/pkgs/uproot3-methods-0.10.1-pyhd8ed1ab_0",
    "files": [
        "lib/python3.10/site-packages/uproot3_methods-0.10.1.dist-info/INSTALLER",
        "lib/python3.10/site-packages/uproot3_methods-0.10.1.dist-info/METADATA",
        "lib/python3.10/site-packages/uproot3_methods-0.10.1.dist-info/RECORD",
        "lib/python3.10/site-packages/uproot3_methods-0.10.1.dist-info/REQUESTED",
        "lib/python3.10/site-packages/uproot3_methods-0.10.1.dist-info/WHEEL",
        "lib/python3.10/site-packages/uproot3_methods-0.10.1.dist-info/direct_url.json",
        "lib/python3.10/site-packages/uproot3_methods-0.10.1.dist-info/top_level.txt",
        "lib/python3.10/site-packages/uproot3_methods/__init__.py",
        "lib/python3.10/site-packages/uproot3_methods/base.py",
        "lib/python3.10/site-packages/uproot3_methods/classes/TGraph.py",
        "lib/python3.10/site-packages/uproot3_methods/classes/TGraphAsymmErrors.py",
        "lib/python3.10/site-packages/uproot3_methods/classes/TGraphErrors.py",
        "lib/python3.10/site-packages/uproot3_methods/classes/TH1.py",
        "lib/python3.10/site-packages/uproot3_methods/classes/TH2.py",
        "lib/python3.10/site-packages/uproot3_methods/classes/TH3.py",
        "lib/python3.10/site-packages/uproot3_methods/classes/THnSparse.py",
        "lib/python3.10/site-packages/uproot3_methods/classes/TLorentzVector.py",
        "lib/python3.10/site-packages/uproot3_methods/classes/TParameter.py",
        "lib/python3.10/site-packages/uproot3_methods/classes/TVector2.py",
        "lib/python3.10/site-packages/uproot3_methods/classes/TVector3.py",
        "lib/python3.10/site-packages/uproot3_methods/classes/__init__.py",
        "lib/python3.10/site-packages/uproot3_methods/common/TVector.py",
        "lib/python3.10/site-packages/uproot3_methods/common/__init__.py",
        "lib/python3.10/site-packages/uproot3_methods/convert.py",
        "lib/python3.10/site-packages/uproot3_methods/profiles/__init__.py",
        "lib/python3.10/site-packages/uproot3_methods/profiles/cms/__init__.py",
        "lib/python3.10/site-packages/uproot3_methods/profiles/cms/nanoaod.py",
        "lib/python3.10/site-packages/uproot3_methods/version.py",
        "lib/python3.10/site-packages/uproot3_methods/__pycache__/__init__.cpython-310.pyc",
        "lib/python3.10/site-packages/uproot3_methods/__pycache__/base.cpython-310.pyc",
        "lib/python3.10/site-packages/uproot3_methods/classes/__pycache__/TGraph.cpython-310.pyc",
        "lib/python3.10/site-packages/uproot3_methods/classes/__pycache__/TGraphAsymmErrors.cpython-310.pyc",
        "lib/python3.10/site-packages/uproot3_methods/classes/__pycache__/TGraphErrors.cpython-310.pyc",
        "lib/python3.10/site-packages/uproot3_methods/classes/__pycache__/TH1.cpython-310.pyc",
        "lib/python3.10/site-packages/uproot3_methods/classes/__pycache__/TH2.cpython-310.pyc",
        "lib/python3.10/site-packages/uproot3_methods/classes/__pycache__/TH3.cpython-310.pyc",
        "lib/python3.10/site-packages/uproot3_methods/classes/__pycache__/THnSparse.cpython-310.pyc",
        "lib/python3.10/site-packages/uproot3_methods/classes/__pycache__/TLorentzVector.cpython-310.pyc",
        "lib/python3.10/site-packages/uproot3_methods/classes/__pycache__/TParameter.cpython-310.pyc",
        "lib/python3.10/site-packages/uproot3_methods/classes/__pycache__/TVector2.cpython-310.pyc",
        "lib/python3.10/site-packages/uproot3_methods/classes/__pycache__/TVector3.cpython-310.pyc",
        "lib/python3.10/site-packages/uproot3_methods/classes/__pycache__/__init__.cpython-310.pyc",
        "lib/python3.10/site-packages/uproot3_methods/common/__pycache__/TVector.cpython-310.pyc",
        "lib/python3.10/site-packages/uproot3_methods/common/__pycache__/__init__.cpython-310.pyc",
        "lib/python3.10/site-packages/uproot3_methods/__pycache__/convert.cpython-310.pyc",
        "lib/python3.10/site-packages/uproot3_methods/profiles/__pycache__/__init__.cpython-310.pyc",
        "lib/python3.10/site-packages/uproot3_methods/profiles/cms/__pycache__/__init__.cpython-310.pyc",
        "lib/python3.10/site-packages/uproot3_methods/profiles/cms/__pycache__/nanoaod.cpython-310.pyc",
        "lib/python3.10/site-packages/uproot3_methods/__pycache__/version.cpython-310.pyc"
    ],
    "fn": "uproot3-methods-0.10.1-pyhd8ed1ab_0.tar.bz2",
    "license": "BSD-3-Clause",
    "link": {
        "source": "/eos/home-s/staj/Higg\t/micromamba/pkgs/uproot3-methods-0.10.1-pyhd8ed1ab_0",
        "type": 1
    },
    "md5": "9958bddb6d04b6e97a109a56455766cd",
    "name": "uproot3-methods",
    "noarch": "python",
    "package_tarball_full_path": "/eos/home-s/staj/Higg\t/micromamba/pkgs/uproot3-methods-0.10.1-pyhd8ed1ab_0.tar.bz2",
    "paths_data": {
        "paths": [
            {
                "_path": "lib/python3.10/site-packages/uproot3_methods-0.10.1.dist-info/INSTALLER",
                "path_type": "hardlink",
                "sha256": "d0edee15f91b406f3f99726e44eb990be6e34fd0345b52b910c568e0eef6a2a8",
                "sha256_in_prefix": "d0edee15f91b406f3f99726e44eb990be6e34fd0345b52b910c568e0eef6a2a8",
                "size_in_bytes": 5
            },
            {
                "_path": "lib/python3.10/site-packages/uproot3_methods-0.10.1.dist-info/METADATA",
                "path_type": "hardlink",
                "sha256": "8be98ff1eeb525dd6c2607da819458023bf9a641e4d15a181de4c6e61ca3915b",
                "sha256_in_prefix": "8be98ff1eeb525dd6c2607da819458023bf9a641e4d15a181de4c6e61ca3915b",
                "size_in_bytes": 2781
            },
            {
                "_path": "lib/python3.10/site-packages/uproot3_methods-0.10.1.dist-info/RECORD",
                "path_type": "hardlink",
                "sha256": "488b80ced7f0c891bac76a4cc34e27956c0e8919e195326d85674ad1ef500df9",
                "sha256_in_prefix": "488b80ced7f0c891bac76a4cc34e27956c0e8919e195326d85674ad1ef500df9",
                "size_in_bytes": 3855
            },
            {
                "_path": "lib/python3.10/site-packages/uproot3_methods-0.10.1.dist-info/REQUESTED",
                "path_type": "hardlink",
                "sha256": "e3b0c44298fc1c149afbf4c8996fb92427ae41e4649b934ca495991b7852b855",
                "sha256_in_prefix": "e3b0c44298fc1c149afbf4c8996fb92427ae41e4649b934ca495991b7852b855"
            },
            {
                "_path": "lib/python3.10/site-packages/uproot3_methods-0.10.1.dist-info/WHEEL",
                "path_type": "hardlink",
                "sha256": "3aa464174798e461ecb0ca2b16395b4c8ab4ef6be91e917ad1f21003a952f710",
                "sha256_in_prefix": "3aa464174798e461ecb0ca2b16395b4c8ab4ef6be91e917ad1f21003a952f710",
                "size_in_bytes": 92
            },
            {
                "_path": "lib/python3.10/site-packages/uproot3_methods-0.10.1.dist-info/direct_url.json",
                "path_type": "hardlink",
                "sha256": "a1ea36a620ed703dcd7253ad42dd1ef3716cb5e6a08d8055def3971bcc35d318",
                "sha256_in_prefix": "a1ea36a620ed703dcd7253ad42dd1ef3716cb5e6a08d8055def3971bcc35d318",
                "size_in_bytes": 111
            },
            {
                "_path": "lib/python3.10/site-packages/uproot3_methods-0.10.1.dist-info/top_level.txt",
                "path_type": "hardlink",
                "sha256": "77773fa52e0fe98f8c20b0abafadb573bdeba116261573368ff3169751c856cf",
                "sha256_in_prefix": "77773fa52e0fe98f8c20b0abafadb573bdeba116261573368ff3169751c856cf",
                "size_in_bytes": 16
            },
            {
                "_path": "lib/python3.10/site-packages/uproot3_methods/__init__.py",
                "path_type": "hardlink",
                "sha256": "5f317c18426371015118e2f8613aed74921b1f2ed57fd654c96b6ba282697739",
                "sha256_in_prefix": "5f317c18426371015118e2f8613aed74921b1f2ed57fd654c96b6ba282697739",
                "size_in_bytes": 461
            },
            {
                "_path": "lib/python3.10/site-packages/uproot3_methods/base.py",
                "path_type": "hardlink",
                "sha256": "aa84be4c38fba294ff6d5868a4a59767f502bdadec25f9c8289674632e7996e0",
                "sha256_in_prefix": "aa84be4c38fba294ff6d5868a4a59767f502bdadec25f9c8289674632e7996e0",
                "size_in_bytes": 643
            },
            {
                "_path": "lib/python3.10/site-packages/uproot3_methods/classes/TGraph.py",
                "path_type": "hardlink",
                "sha256": "1bfdb3dc71b9a7e152de52f075bb5f1ad42e5995fe65e7a4d8897c4de83ccdf5",
                "sha256_in_prefix": "1bfdb3dc71b9a7e152de52f075bb5f1ad42e5995fe65e7a4d8897c4de83ccdf5",
                "size_in_bytes": 1761
            },
            {
                "_path": "lib/python3.10/site-packages/uproot3_methods/classes/TGraphAsymmErrors.py",
                "path_type": "hardlink",
                "sha256": "e6573e0650b50b0968d2ba5a9ac1e5939a843fed6067e9843658cae916b516f2",
                "sha256_in_prefix": "e6573e0650b50b0968d2ba5a9ac1e5939a843fed6067e9843658cae916b516f2",
                "size_in_bytes": 1088
            },
            {
                "_path": "lib/python3.10/site-packages/uproot3_methods/classes/TGraphErrors.py",
                "path_type": "hardlink",
                "sha256": "7d03980f23f361669b1e1a075fc4c6373feeb31767dee1b2da59ef8893ff4256",
                "sha256_in_prefix": "7d03980f23f361669b1e1a075fc4c6373feeb31767dee1b2da59ef8893ff4256",
                "size_in_bytes": 875
            },
            {
                "_path": "lib/python3.10/site-packages/uproot3_methods/classes/TH1.py",
                "path_type": "hardlink",
                "sha256": "6da5b216c9ed27737191b55f6dedca247797940ba7374ecd84a5a57a20bf5af5",
                "sha256_in_prefix": "6da5b216c9ed27737191b55f6dedca247797940ba7374ecd84a5a57a20bf5af5",
                "size_in_bytes": 17372
            },
            {
                "_path": "lib/python3.10/site-packages/uproot3_methods/classes/TH2.py",
                "path_type": "hardlink",
                "sha256": "a9e8b4a7fe409f746b6ce451649302661faef6b7227d314641715cf5c9de1136",
                "sha256_in_prefix": "a9e8b4a7fe409f746b6ce451649302661faef6b7227d314641715cf5c9de1136",
                "size_in_bytes": 8001
            },
            {
                "_path": "lib/python3.10/site-packages/uproot3_methods/classes/TH3.py",
                "path_type": "hardlink",
                "sha256": "49b88f6e43c21a1e38742c4402b94b139ee2690d11819fdc05ff2fe6a302e8d9",
                "sha256_in_prefix": "49b88f6e43c21a1e38742c4402b94b139ee2690d11819fdc05ff2fe6a302e8d9",
                "size_in_bytes": 6755
            },
            {
                "_path": "lib/python3.10/site-packages/uproot3_methods/classes/THnSparse.py",
                "path_type": "hardlink",
                "sha256": "fcb9e51d3fff5365fffae0377b8b2ebf2ab653bdd42ccd01033fff4389b6bf3b",
                "sha256_in_prefix": "fcb9e51d3fff5365fffae0377b8b2ebf2ab653bdd42ccd01033fff4389b6bf3b",
                "size_in_bytes": 270
            },
            {
                "_path": "lib/python3.10/site-packages/uproot3_methods/classes/TLorentzVector.py",
                "path_type": "hardlink",
                "sha256": "6e4e7b32d164a13b95c3e41905e580f9bd82d5891a2db998f3d388fa78d5c3a9",
                "sha256_in_prefix": "6e4e7b32d164a13b95c3e41905e580f9bd82d5891a2db998f3d388fa78d5c3a9",
                "size_in_bytes": 30552
            },
            {
                "_path": "lib/python3.10/site-packages/uproot3_methods/classes/TParameter.py",
                "path_type": "hardlink",
                "sha256": "f712eb2d318510853c84f1728526d2a71a06f3fa5823035b01f23359fa0996bb",
                "sha256_in_prefix": "f712eb2d318510853c84f1728526d2a71a06f3fa5823035b01f23359fa0996bb",
                "size_in_bytes": 673
            },
            {
                "_path": "lib/python3.10/site-packages/uproot3_methods/classes/TVector2.py",
                "path_type": "hardlink",
                "sha256": "2fb6e7d58a0944f39ba552c320b574c551fc2ce4d677d77fc5227f6adc66f3fd",
                "sha256_in_prefix": "2fb6e7d58a0944f39ba552c320b574c551fc2ce4d677d77fc5227f6adc66f3fd",
                "size_in_bytes": 6853
            },
            {
                "_path": "lib/python3.10/site-packages/uproot3_methods/classes/TVector3.py",
                "path_type": "hardlink",
                "sha256": "e554860ea7abb3733a421a83370a42758dbceaec13d133da98652341f1db15a2",
                "sha256_in_prefix": "e554860ea7abb3733a421a83370a42758dbceaec13d133da98652341f1db15a2",
                "size_in_bytes": 11319
            },
            {
                "_path": "lib/python3.10/site-packages/uproot3_methods/classes/__init__.py",
                "path_type": "hardlink",
                "sha256": "0a11d60f020026c6f0f48f59c23de4a2d901ffa4830676b51153e23bda7927f2",
                "sha256_in_prefix": "0a11d60f020026c6f0f48f59c23de4a2d901ffa4830676b51153e23bda7927f2",
                "size_in_bytes": 778
            },
            {
                "_path": "lib/python3.10/site-packages/uproot3_methods/common/TVector.py",
                "path_type": "hardlink",
                "sha256": "e77a878a65bc281ec6cea7b67a23968d24125383577753d5ba6c2d255031a85d",
                "sha256_in_prefix": "e77a878a65bc281ec6cea7b67a23968d24125383577753d5ba6c2d255031a85d",
                "size_in_bytes": 6981
            },
            {
                "_path": "lib/python3.10/site-packages/uproot3_methods/common/__init__.py",
                "path_type": "hardlink",
                "sha256": "6aae23b23237e5067517803e385911b3cfd34ef3552e68cb9bd64bd9d73a7c74",
                "sha256_in_prefix": "6aae23b23237e5067517803e385911b3cfd34ef3552e68cb9bd64bd9d73a7c74",
                "size_in_bytes": 117
            },
            {
                "_path": "lib/python3.10/site-packages/uproot3_methods/convert.py",
                "path_type": "hardlink",
                "sha256": "75e0cda32eb27efb0241dee8313f97aad3dc4d5131e8002499b556c86e6aab33",
                "sha256_in_prefix": "75e0cda32eb27efb0241dee8313f97aad3dc4d5131e8002499b556c86e6aab33",
                "size_in_bytes": 4257
            },
            {
                "_path": "lib/python3.10/site-packages/uproot3_methods/profiles/__init__.py",
                "path_type": "hardlink",
                "sha256": "aa8649b77cd18ba1a576d41cdf479d8be06398c73ed49794f6365c99ab25b797",
                "sha256_in_prefix": "aa8649b77cd18ba1a576d41cdf479d8be06398c73ed49794f6365c99ab25b797",
                "size_in_bytes": 446
            },
            {
                "_path": "lib/python3.10/site-packages/uproot3_methods/profiles/cms/__init__.py",
                "path_type": "hardlink",
                "sha256": "6aae23b23237e5067517803e385911b3cfd34ef3552e68cb9bd64bd9d73a7c74",
                "sha256_in_prefix": "6aae23b23237e5067517803e385911b3cfd34ef3552e68cb9bd64bd9d73a7c74",
                "size_in_bytes": 117
            },
            {
                "_path": "lib/python3.10/site-packages/uproot3_methods/profiles/cms/nanoaod.py",
                "path_type": "hardlink",
                "sha256": "3209640f766c26db186a9b570387b753ef9cd74901f8f4db51c42333127ee07e",
                "sha256_in_prefix": "3209640f766c26db186a9b570387b753ef9cd74901f8f4db51c42333127ee07e",
                "size_in_bytes": 17198
            },
            {
                "_path": "lib/python3.10/site-packages/uproot3_methods/version.py",
                "path_type": "hardlink",
                "sha256": "450fc126d6341b68f11dd892dfe9d2fa85a768aac172bf62c7c5e2f1a2cafbd4",
                "sha256_in_prefix": "450fc126d6341b68f11dd892dfe9d2fa85a768aac172bf62c7c5e2f1a2cafbd4",
                "size_in_bytes": 236
            },
            {
                "_path": "lib/python3.10/site-packages/uproot3_methods/__pycache__/__init__.cpython-310.pyc",
                "path_type": "pyc_file"
            },
            {
                "_path": "lib/python3.10/site-packages/uproot3_methods/__pycache__/base.cpython-310.pyc",
                "path_type": "pyc_file"
            },
            {
                "_path": "lib/python3.10/site-packages/uproot3_methods/classes/__pycache__/TGraph.cpython-310.pyc",
                "path_type": "pyc_file"
            },
            {
                "_path": "lib/python3.10/site-packages/uproot3_methods/classes/__pycache__/TGraphAsymmErrors.cpython-310.pyc",
                "path_type": "pyc_file"
            },
            {
                "_path": "lib/python3.10/site-packages/uproot3_methods/classes/__pycache__/TGraphErrors.cpython-310.pyc",
                "path_type": "pyc_file"
            },
            {
                "_path": "lib/python3.10/site-packages/uproot3_methods/classes/__pycache__/TH1.cpython-310.pyc",
                "path_type": "pyc_file"
            },
            {
                "_path": "lib/python3.10/site-packages/uproot3_methods/classes/__pycache__/TH2.cpython-310.pyc",
                "path_type": "pyc_file"
            },
            {
                "_path": "lib/python3.10/site-packages/uproot3_methods/classes/__pycache__/TH3.cpython-310.pyc",
                "path_type": "pyc_file"
            },
            {
                "_path": "lib/python3.10/site-packages/uproot3_methods/classes/__pycache__/THnSparse.cpython-310.pyc",
                "path_type": "pyc_file"
            },
            {
                "_path": "lib/python3.10/site-packages/uproot3_methods/classes/__pycache__/TLorentzVector.cpython-310.pyc",
                "path_type": "pyc_file"
            },
            {
                "_path": "lib/python3.10/site-packages/uproot3_methods/classes/__pycache__/TParameter.cpython-310.pyc",
                "path_type": "pyc_file"
            },
            {
                "_path": "lib/python3.10/site-packages/uproot3_methods/classes/__pycache__/TVector2.cpython-310.pyc",
                "path_type": "pyc_file"
            },
            {
                "_path": "lib/python3.10/site-packages/uproot3_methods/classes/__pycache__/TVector3.cpython-310.pyc",
                "path_type": "pyc_file"
            },
            {
                "_path": "lib/python3.10/site-packages/uproot3_methods/classes/__pycache__/__init__.cpython-310.pyc",
                "path_type": "pyc_file"
            },
            {
                "_path": "lib/python3.10/site-packages/uproot3_methods/common/__pycache__/TVector.cpython-310.pyc",
                "path_type": "pyc_file"
            },
            {
                "_path": "lib/python3.10/site-packages/uproot3_methods/common/__pycache__/__init__.cpython-310.pyc",
                "path_type": "pyc_file"
            },
            {
                "_path": "lib/python3.10/site-packages/uproot3_methods/__pycache__/convert.cpython-310.pyc",
                "path_type": "pyc_file"
            },
            {
                "_path": "lib/python3.10/site-packages/uproot3_methods/profiles/__pycache__/__init__.cpython-310.pyc",
                "path_type": "pyc_file"
            },
            {
                "_path": "lib/python3.10/site-packages/uproot3_methods/profiles/cms/__pycache__/__init__.cpython-310.pyc",
                "path_type": "pyc_file"
            },
            {
                "_path": "lib/python3.10/site-packages/uproot3_methods/profiles/cms/__pycache__/nanoaod.cpython-310.pyc",
                "path_type": "pyc_file"
            },
            {
                "_path": "lib/python3.10/site-packages/uproot3_methods/__pycache__/version.cpython-310.pyc",
                "path_type": "pyc_file"
            }
        ],
        "paths_version": 1
    },
    "platform": null,
    "requested_spec": "",
    "sha256": "39538c56f1353149e7c7ec3c60bd844008f74f54d8a701857404926707e95afa",
    "size": 26006,
    "subdir": "noarch",
    "timestamp": 1616094833367,
    "track_features": "",
    "url": "https://conda.anaconda.org/conda-forge/noarch/uproot3-methods-0.10.1-pyhd8ed1ab_0.tar.bz2",
    "version": "0.10.1"
}