{
    "arch": "x86_64",
    "build": "py310hff52083_2",
    "build_number": 2,
    "build_string": "py310hff52083_2",
    "channel": "https://conda.anaconda.org/conda-forge/linux-64",
    "constrains": [],
    "depends": [
        "awkward >=1,<2",
        "lz4",
        "python >=3.10,<3.11.0a0",
        "python-xxhash",
        "python_abi 3.10.* *_cp310",
        "setuptools",
        "uproot-base 4.3.7 pyhd570202_2",
        "xrootd",
        "zstandard"
    ],
    "extracted_package_dir": "/eos/home-s/staj/Higg\t/micromamba/pkgs/uproot-4.3.7-py310hff52083_2",
    "files": [],
    "fn": "uproot-4.3.7-py310hff52083_2.conda",
    "license": "BSD-3-Clause",
    "link": {
        "source": "/eos/home-s/staj/Higg\t/micromamba/pkgs/uproot-4.3.7-py310hff52083_2",
        "type": 1
    },
    "md5": "c60f5a10ed7919530130e487f0da7a9a",
    "name": "uproot",
    "package_tarball_full_path": "/eos/home-s/staj/Higg\t/micromamba/pkgs/uproot-4.3.7-py310hff52083_2.tar.bz2",
    "paths_data": {
        "paths": [],
        "paths_version": 1
    },
    "platform": "linux",
    "requested_spec": "",
    "sha256": "1b064f6f96a0ccb17d03c8d798174b659f4352e52dd0a6de0e77671426aa1757",
    "size": 6996,
    "subdir": "linux-64",
    "timestamp": 1674753716436,
    "track_features": "",
    "url": "https://conda.anaconda.org/conda-forge/linux-64/uproot-4.3.7-py310hff52083_2.conda",
    "version": "4.3.7"
}