{
    "var_dict": {
        "NOMINAL": "nominal",
        "ScaleUp": "Scale_up",
        "ScaleDown": "Scale_down",
        "SmearingUp": "Smearing_up",
        "SmearingDown": "Smearing_down"
    }
}